%!PS-Adobe-3.0 EPSF-3.0
%%Title: Peak-current-vs-BSA.eps
%%Creator: matplotlib version 2.2.2, http://matplotlib.org/
%%CreationDate: Sat Nov 24 22:17:19 2018
%%Orientation: portrait
%%BoundingBox: 162 252 450 540
%%EndComments
%%BeginProlog
/mpldict 10 dict def
mpldict begin
/m { moveto } bind def
/l { lineto } bind def
/r { rlineto } bind def
/c { curveto } bind def
/cl { closepath } bind def
/box {
m
1 index 0 r
0 exch r
neg 0 r
cl
} bind def
/clipbox {
box
clip
newpath
} bind def
%!PS-Adobe-3.0 Resource-Font
%%Title: DejaVu Serif
%%Copyright: Copyright (c) 2003 by Bitstream, Inc. All Rights Reserved. DejaVu changes are in public domain 
%%Creator: Converted from TrueType to type 3 by PPR
25 dict begin
/_d{bind def}bind def
/_m{moveto}_d
/_l{lineto}_d
/_cl{closepath eofill}_d
/_c{curveto}_d
/_sc{7 -1 roll{setcachedevice}{pop pop pop pop pop pop}ifelse}_d
/_e{exec}_d
/FontName /DejaVuSerif def
/PaintType 0 def
/FontMatrix[.001 0 0 .001 0 0]def
/FontBBox[-770 -347 2105 1109]def
/FontType 3 def
/Encoding [ /space /parenleft /parenright /period /zero /one /two /three /four /five /six /eight /at /m ] def
/FontInfo 10 dict dup begin
/FamilyName (DejaVu Serif) def
/FullName (DejaVu Serif) def
/Notice (Copyright (c) 2003 by Bitstream, Inc. All Rights Reserved. DejaVu changes are in public domain ) def
/Weight (Book) def
/Version (Version 2.35) def
/ItalicAngle 0.0 def
/isFixedPitch false def
/UnderlinePosition -130 def
/UnderlineThickness 90 def
end readonly def
/CharStrings 15 dict dup begin
/.notdef 0 def
/space{318 0 0 0 0 0 _sc
}_d
/parenleft{390 0 79 -155 319 760 _sc
319 -155 _m
239 -119 179 -63 139 13 _c
99 89 79 186 79 302 _c
79 418 99 514 139 591 _c
179 668 239 724 319 760 _c
319 712 _l
269 677 233 628 211 566 _c
189 503 178 415 178 302 _c
178 188 189 100 211 38 _c
233 -24 269 -72 319 -107 _c
319 -155 _l
_cl}_d
/parenright{390 0 71 -155 311 760 _sc
71 -155 _m
71 -107 _l
121 -72 157 -24 179 38 _c
201 100 212 188 212 302 _c
212 415 201 503 179 566 _c
157 628 121 677 71 712 _c
71 760 _l
150 724 210 668 250 591 _c
290 514 311 418 311 302 _c
311 186 290 89 250 13 _c
210 -63 150 -119 71 -155 _c
_cl}_d
/period{318 0 94 -13 224 116 _sc
94 51 _m
94 69 100 84 112 97 _c
124 109 140 116 159 116 _c
177 116 192 109 205 97 _c
217 84 224 69 224 51 _c
224 33 217 17 205 5 _c
192 -7 177 -13 159 -13 _c
140 -13 124 -7 112 5 _c
100 17 94 32 94 51 _c
_cl}_d
/zero{636 0 66 -13 570 742 _sc
318 34 _m
368 34 405 61 430 116 _c
454 170 467 253 467 364 _c
467 474 454 557 430 612 _c
405 666 368 694 318 694 _c
268 694 230 666 206 612 _c
181 557 169 474 169 364 _c
169 253 181 170 206 116 _c
230 61 268 34 318 34 _c
318 -13 _m
238 -13 176 20 132 86 _c
88 152 66 244 66 364 _c
66 483 88 576 132 642 _c
176 708 238 742 318 742 _c
397 742 459 708 503 642 _c
547 576 570 483 570 364 _c
570 244 547 152 503 86 _c
459 20 397 -13 318 -13 _c
_cl}_d
/one{636 0 122 0 494 742 _sc
142 0 _m
142 52 _l
269 52 _l
269 658 _l
122 563 _l
122 627 _l
300 742 _l
367 742 _l
367 52 _l
494 52 _l
494 0 _l
142 0 _l
_cl}_d
/two{{636 0 68 0 538 742 _sc
128 555 _m
73 555 _l
73 685 _l
107 703 142 717 178 727 _c
213 737 248 742 282 742 _c
358 742 418 723 462 687 _c
506 650 528 600 528 537 _c
528 465 478 380 378 281 _c
370 273 365 268 361 264 _c
177 80 _l
481 80 _l
481 170 _l
538 170 _l
538 0 _l
68 0 _l
68 53 _l
289 274 _l
337 322 372 367 393 408 _c
414 449 425 492 425 537 _c
}_e{425 586 412 624 386 652 _c
360 680 325 694 281 694 _c
234 694 198 682 173 659 _c
147 636 132 601 128 555 _c
_cl}_e}_d
/three{{636 0 76 -13 562 742 _sc
97 698 _m
135 712 171 723 206 731 _c
241 738 274 742 305 742 _c
376 742 432 726 472 696 _c
512 665 532 622 532 568 _c
532 524 518 487 490 458 _c
462 428 423 408 373 398 _c
433 389 479 367 512 332 _c
545 297 562 252 562 197 _c
562 129 539 77 493 41 _c
447 5 382 -13 296 -13 _c
258 -13 220 -9 184 -1 _c
148 6 112 18 76 35 _c
76 177 _l
}_e{131 177 _l
134 129 150 94 178 70 _c
206 46 246 34 298 34 _c
348 34 387 48 416 77 _c
444 106 459 146 459 196 _c
459 253 444 296 414 326 _c
384 355 341 370 284 370 _c
238 370 _l
238 420 _l
262 420 _l
319 420 362 431 390 455 _c
418 479 433 514 433 562 _c
433 604 421 637 398 660 _c
374 682 341 694 297 694 _c
253 694 218 683 194 662 _c
170 641 156 610 152 570 _c
}_e{97 570 _l
97 698 _l
_cl}_e}_d
/four{636 0 31 0 586 742 _sc
349 247 _m
349 635 _l
100 247 _l
349 247 _l
564 0 _m
232 0 _l
232 52 _l
349 52 _l
349 195 _l
31 195 _l
31 248 _l
350 742 _l
447 742 _l
447 247 _l
586 247 _l
586 195 _l
447 195 _l
447 52 _l
564 52 _l
564 0 _l
_cl}_d
/five{{636 0 85 -13 559 729 _sc
503 729 _m
503 649 _l
169 649 _l
169 440 _l
185 452 205 460 228 466 _c
250 472 276 475 304 475 _c
382 475 444 453 490 409 _c
536 365 559 306 559 231 _c
559 153 536 93 490 51 _c
444 8 379 -13 296 -13 _c
262 -13 228 -9 193 -1 _c
157 6 121 18 85 35 _c
85 177 _l
140 177 _l
143 130 158 94 184 70 _c
210 46 248 34 296 34 _c
}_e{347 34 386 51 414 85 _c
442 119 456 167 456 231 _c
456 294 442 342 415 376 _c
387 410 348 427 296 427 _c
266 427 240 421 218 411 _c
196 401 176 385 159 363 _c
117 363 _l
117 729 _l
503 729 _l
_cl}_e}_d
/six{{636 0 67 -13 573 742 _sc
327 34 _m
373 34 408 50 433 84 _c
457 118 470 166 470 230 _c
470 293 457 341 433 375 _c
408 409 373 426 327 426 _c
280 426 244 409 220 377 _c
196 344 184 297 184 236 _c
184 171 196 121 221 86 _c
245 51 281 34 327 34 _c
168 401 _m
190 425 215 444 243 456 _c
271 468 302 474 338 474 _c
410 474 468 452 510 408 _c
552 364 573 305 573 230 _c
}_e{573 156 550 97 505 53 _c
459 9 399 -13 323 -13 _c
241 -13 177 17 133 78 _c
89 139 67 227 67 341 _c
67 468 93 567 145 637 _c
197 707 271 742 367 742 _c
393 742 420 739 448 735 _c
476 730 505 723 535 713 _c
535 593 _l
480 593 _l
476 625 463 650 442 668 _c
421 685 393 694 357 694 _c
293 694 246 670 215 622 _c
184 574 168 500 168 401 _c
_cl}_e}_d
/eight{{636 0 67 -13 569 742 _sc
466 199 _m
466 251 453 291 427 320 _c
401 349 364 364 318 364 _c
271 364 235 349 209 320 _c
183 291 170 251 170 199 _c
170 147 183 106 209 77 _c
235 48 271 34 318 34 _c
364 34 401 48 427 77 _c
453 106 466 147 466 199 _c
446 553 _m
446 597 434 632 412 657 _c
389 681 358 694 318 694 _c
278 694 246 681 224 657 _c
201 632 190 597 190 553 _c
}_e{190 508 201 473 224 449 _c
246 424 278 412 318 412 _c
358 412 389 424 412 449 _c
434 473 446 508 446 553 _c
393 388 _m
448 380 491 360 522 327 _c
553 293 569 251 569 199 _c
569 131 547 78 504 42 _c
460 5 398 -13 318 -13 _c
237 -13 175 5 132 42 _c
88 78 67 131 67 199 _c
67 251 82 293 113 327 _c
144 360 187 380 243 388 _c
193 396 156 415 130 444 _c
}_e{104 472 91 509 91 553 _c
91 611 111 657 151 691 _c
191 725 247 742 318 742 _c
388 742 444 725 484 691 _c
524 657 545 611 545 553 _c
545 509 531 472 505 444 _c
479 415 441 396 393 388 _c
_cl}_e}_d
/at{{1000 0 66 -173 929 704 _sc
632 121 _m
612 94 591 74 567 61 _c
543 48 516 42 486 42 _c
428 42 382 62 347 103 _c
311 143 294 196 294 262 _c
294 327 311 380 347 421 _c
382 461 428 482 486 482 _c
516 482 543 475 567 462 _c
591 449 612 429 632 403 _c
632 472 _l
708 472 _l
708 95 _l
763 107 806 133 837 174 _c
867 214 883 265 883 327 _c
883 363 877 397 866 429 _c
}_e{855 461 839 491 817 519 _c
782 562 740 595 690 618 _c
640 641 587 653 529 653 _c
499 653 470 649 442 643 _c
413 637 385 627 357 615 _c
291 585 239 539 203 478 _c
167 416 149 345 149 265 _c
149 211 157 161 173 115 _c
189 69 213 29 244 -3 _c
279 -41 321 -71 370 -91 _c
418 -111 471 -122 528 -122 _c
570 -122 609 -115 645 -103 _c
681 -91 715 -72 747 -48 _c
773 -82 _l
}_e{737 -112 697 -134 653 -150 _c
608 -165 559 -173 507 -173 _c
447 -173 390 -162 336 -140 _c
282 -118 234 -88 194 -48 _c
152 -7 120 39 98 93 _c
76 146 66 203 66 265 _c
66 325 76 381 98 434 _c
120 487 152 534 194 576 _c
235 617 284 649 340 671 _c
396 693 455 704 519 704 _c
589 704 652 690 710 663 _c
767 636 815 597 854 547 _c
878 515 897 480 910 443 _c
}_e{922 405 929 366 929 326 _c
929 238 902 169 849 119 _c
796 68 724 42 632 42 _c
632 121 _l
632 237 _m
632 288 _l
632 328 620 361 597 387 _c
573 412 543 425 506 425 _c
466 425 436 410 414 382 _c
392 353 381 313 381 262 _c
381 210 392 170 414 142 _c
436 113 467 99 507 99 _c
544 99 574 111 597 137 _c
620 163 632 196 632 237 _c
_cl}_e}_d
/m{{948 0 36 0 921 533 _sc
518 418 _m
535 456 557 484 584 504 _c
611 523 642 533 678 533 _c
732 533 773 516 800 482 _c
826 448 840 398 840 330 _c
840 52 _l
921 52 _l
921 0 _l
672 0 _l
672 52 _l
750 52 _l
750 320 _l
750 372 742 410 726 433 _c
710 455 685 467 649 467 _c
609 467 578 451 557 421 _c
536 391 526 347 526 289 _c
526 52 _l
604 52 _l
604 0 _l
358 0 _l
}_e{358 52 _l
436 52 _l
436 323 _l
436 375 428 412 412 434 _c
396 456 371 467 335 467 _c
295 467 264 451 243 421 _c
222 391 212 347 212 289 _c
212 52 _l
290 52 _l
290 0 _l
41 0 _l
41 52 _l
122 52 _l
122 468 _l
36 468 _l
36 519 _l
212 519 _l
212 427 _l
228 461 249 488 275 506 _c
301 524 330 533 363 533 _c
403 533 436 523 463 503 _c
}_e{490 483 508 454 518 418 _c
_cl}_e}_d
end readonly def

/BuildGlyph
 {exch begin
 CharStrings exch
 2 copy known not{pop /.notdef}if
 true 3 1 roll get exec
 end}_d

/BuildChar {
 1 index /Encoding get exch get
 1 index /BuildGlyph get exec
}_d

FontName currentdict end definefont pop
%!PS-Adobe-3.0 Resource-Font
%%Title: DejaVu Sans Oblique
%%Copyright: Copyright (c) 2003 by Bitstream, Inc. All Rights Reserved. Copyright (c) 2006 by Tavmjong Bah. All Rights Reserved. DejaVu changes are in public domain 
%%Creator: Converted from TrueType to type 3 by PPR
25 dict begin
/_d{bind def}bind def
/_m{moveto}_d
/_l{lineto}_d
/_cl{closepath eofill}_d
/_c{curveto}_d
/_sc{7 -1 roll{setcachedevice}{pop pop pop pop pop pop}ifelse}_d
/_e{exec}_d
/FontName /DejaVuSans-Oblique def
/PaintType 0 def
/FontMatrix[.001 0 0 .001 0 0]def
/FontBBox[-1016 -350 1659 1068]def
/FontType 3 def
/Encoding [ /A /D /I ] def
/FontInfo 10 dict dup begin
/FamilyName (DejaVu Sans) def
/FullName (DejaVu Sans Oblique) def
/Notice (Copyright (c) 2003 by Bitstream, Inc. All Rights Reserved. Copyright (c) 2006 by Tavmjong Bah. All Rights Reserved. DejaVu changes are in public domain ) def
/Weight (Oblique) def
/Version (Version 2.35) def
/ItalicAngle -11.0 def
/isFixedPitch false def
/UnderlinePosition -130 def
/UnderlineThickness 90 def
end readonly def
/CharStrings 4 dict dup begin
/.notdef 0 def
/A{684 0 -52 0 615 729 _sc
368 729 _m
480 729 _l
615 0 _l
512 0 _l
482 187 _l
154 187 _l
51 0 _l
-52 0 _l
368 729 _l
404 632 _m
199 269 _l
467 269 _l
404 632 _l
_cl}_d
/D{770 0 27 0 722 729 _sc
169 729 _m
381 729 _l
493 729 578 705 636 657 _c
693 609 722 539 722 445 _c
722 383 711 323 689 265 _c
667 207 637 159 599 120 _c
560 80 511 50 451 30 _c
391 10 321 0 240 0 _c
27 0 _l
169 729 _l
252 648 _m
142 81 _l
271 81 _l
381 81 467 112 527 176 _c
587 239 618 329 618 445 _c
618 515 598 566 559 599 _c
520 631 459 648 376 648 _c
252 648 _l
_cl}_d
/I{295 0 27 0 268 729 _sc
169 729 _m
268 729 _l
126 0 _l
27 0 _l
169 729 _l
_cl}_d
end readonly def

/BuildGlyph
 {exch begin
 CharStrings exch
 2 copy known not{pop /.notdef}if
 true 3 1 roll get exec
 end}_d

/BuildChar {
 1 index /Encoding get exch get
 1 index /BuildGlyph get exec
}_d

FontName currentdict end definefont pop
%!PS-Adobe-3.0 Resource-Font
%%Title: DejaVu Sans
%%Copyright: Copyright (c) 2003 by Bitstream, Inc. All Rights Reserved. Copyright (c) 2006 by Tavmjong Bah. All Rights Reserved. DejaVu changes are in public domain 
%%Creator: Converted from TrueType to type 3 by PPR
25 dict begin
/_d{bind def}bind def
/_m{moveto}_d
/_l{lineto}_d
/_cl{closepath eofill}_d
/_c{curveto}_d
/_sc{7 -1 roll{setcachedevice}{pop pop pop pop pop pop}ifelse}_d
/_e{exec}_d
/FontName /DejaVuSans def
/PaintType 0 def
/FontMatrix[.001 0 0 .001 0 0]def
/FontBBox[-1021 -463 1793 1232]def
/FontType 3 def
/Encoding [ /parenleft /parenright /a /e /k /p ] def
/FontInfo 10 dict dup begin
/FamilyName (DejaVu Sans) def
/FullName (DejaVu Sans) def
/Notice (Copyright (c) 2003 by Bitstream, Inc. All Rights Reserved. Copyright (c) 2006 by Tavmjong Bah. All Rights Reserved. DejaVu changes are in public domain ) def
/Weight (Book) def
/Version (Version 2.35) def
/ItalicAngle 0.0 def
/isFixedPitch false def
/UnderlinePosition -130 def
/UnderlineThickness 90 def
end readonly def
/CharStrings 7 dict dup begin
/.notdef 0 def
/parenleft{390 0 86 -131 310 759 _sc
310 759 _m
266 683 234 609 213 536 _c
191 463 181 389 181 314 _c
181 238 191 164 213 91 _c
234 17 266 -56 310 -131 _c
232 -131 _l
183 -54 146 20 122 94 _c
98 168 86 241 86 314 _c
86 386 98 459 122 533 _c
146 607 182 682 232 759 _c
310 759 _l
_cl}_d
/parenright{390 0 80 -131 304 759 _sc
80 759 _m
158 759 _l
206 682 243 607 267 533 _c
291 459 304 386 304 314 _c
304 241 291 168 267 94 _c
243 20 206 -54 158 -131 _c
80 -131 _l
123 -56 155 17 177 91 _c
198 164 209 238 209 314 _c
209 389 198 463 177 536 _c
155 609 123 683 80 759 _c
_cl}_d
/a{{613 0 60 -13 522 560 _sc
343 275 _m
270 275 220 266 192 250 _c
164 233 150 205 150 165 _c
150 133 160 107 181 89 _c
202 70 231 61 267 61 _c
317 61 357 78 387 114 _c
417 149 432 196 432 255 _c
432 275 _l
343 275 _l
522 312 _m
522 0 _l
432 0 _l
432 83 _l
411 49 385 25 355 10 _c
325 -5 287 -13 243 -13 _c
187 -13 142 2 109 33 _c
76 64 60 106 60 159 _c
}_e{60 220 80 266 122 298 _c
163 329 224 345 306 345 _c
432 345 _l
432 354 _l
432 395 418 427 391 450 _c
364 472 326 484 277 484 _c
245 484 215 480 185 472 _c
155 464 127 453 100 439 _c
100 522 _l
132 534 164 544 195 550 _c
226 556 256 560 286 560 _c
365 560 424 539 463 498 _c
502 457 522 395 522 312 _c
_cl}_e}_d
/e{{615 0 55 -13 562 560 _sc
562 296 _m
562 252 _l
149 252 _l
153 190 171 142 205 110 _c
238 78 284 62 344 62 _c
378 62 412 66 444 74 _c
476 82 509 95 541 113 _c
541 28 _l
509 14 476 3 442 -3 _c
408 -9 373 -13 339 -13 _c
251 -13 182 12 131 62 _c
80 112 55 181 55 268 _c
55 357 79 428 127 481 _c
175 533 241 560 323 560 _c
397 560 455 536 498 489 _c
}_e{540 441 562 377 562 296 _c
472 322 _m
471 371 457 410 431 440 _c
404 469 368 484 324 484 _c
274 484 234 469 204 441 _c
174 413 156 373 152 322 _c
472 322 _l
_cl}_e}_d
/k{579 0 91 0 576 760 _sc
91 760 _m
181 760 _l
181 311 _l
449 547 _l
564 547 _l
274 291 _l
576 0 _l
459 0 _l
181 267 _l
181 0 _l
91 0 _l
91 760 _l
_cl}_d
/p{{635 0 91 -207 580 560 _sc
181 82 _m
181 -207 _l
91 -207 _l
91 547 _l
181 547 _l
181 464 _l
199 496 223 520 252 536 _c
281 552 316 560 356 560 _c
422 560 476 533 518 481 _c
559 428 580 359 580 273 _c
580 187 559 117 518 65 _c
476 13 422 -13 356 -13 _c
316 -13 281 -5 252 10 _c
223 25 199 49 181 82 _c
487 273 _m
487 339 473 390 446 428 _c
418 466 381 485 334 485 _c
}_e{286 485 249 466 222 428 _c
194 390 181 339 181 273 _c
181 207 194 155 222 117 _c
249 79 286 61 334 61 _c
381 61 418 79 446 117 _c
473 155 487 207 487 273 _c
_cl}_e}_d
end readonly def

/BuildGlyph
 {exch begin
 CharStrings exch
 2 copy known not{pop /.notdef}if
 true 3 1 roll get exec
 end}_d

/BuildChar {
 1 index /Encoding get exch get
 1 index /BuildGlyph get exec
}_d

FontName currentdict end definefont pop
end
%%EndProlog
mpldict begin
162 252 translate
288 288 0 0 clipbox
gsave
0 0 m
288 0 l
288 288 l
0 288 l
cl
1.000 setgray
fill
grestore
gsave
43.2 43.2 m
259.2 43.2 l
259.2 259.2 l
43.2 259.2 l
cl
1.000 setgray
fill
grestore
0.800 setlinewidth
1 setlinejoin
2 setlinecap
[] 0 setdash
0.690 setgray
gsave
216 216 43.2 43.2 clipbox
43.2 43.2 m
43.2 259.2 l
stroke
grestore
1.000 setlinewidth
0 setlinecap
0.000 setgray
gsave
/o {
gsave
newpath
translate
1.0 setlinewidth
1 setlinejoin
0 setlinecap
0 0 m
0 5 l

gsave
0.000 setgray
fill
grestore
stroke
grestore
} bind def
43.2 43.2 o
grestore
gsave
/o {
gsave
newpath
translate
1.0 setlinewidth
1 setlinejoin
0 setlinecap
0 0 m
0 -5 l

gsave
0.000 setgray
fill
grestore
stroke
grestore
} bind def
43.2 259.2 o
grestore
/DejaVuSerif findfont
10.000 scalefont
setfont
gsave
35.246875 32.106250 translate
0.000000 rotate
0.000000 0.000000 m /three glyphshow
6.362305 0.000000 m /period glyphshow
9.541016 0.000000 m /zero glyphshow
grestore
0.800 setlinewidth
2 setlinecap
0.690 setgray
gsave
216 216 43.2 43.2 clipbox
97.2 43.2 m
97.2 259.2 l
stroke
grestore
1.000 setlinewidth
0 setlinecap
0.000 setgray
gsave
/o {
gsave
newpath
translate
1.0 setlinewidth
1 setlinejoin
0 setlinecap
0 0 m
0 5 l

gsave
0.000 setgray
fill
grestore
stroke
grestore
} bind def
97.2 43.2 o
grestore
gsave
/o {
gsave
newpath
translate
1.0 setlinewidth
1 setlinejoin
0 setlinecap
0 0 m
0 -5 l

gsave
0.000 setgray
fill
grestore
stroke
grestore
} bind def
97.2 259.2 o
grestore
gsave
89.246875 32.106250 translate
0.000000 rotate
0.000000 0.000000 m /three glyphshow
6.362305 0.000000 m /period glyphshow
9.541016 0.000000 m /five glyphshow
grestore
0.800 setlinewidth
2 setlinecap
0.690 setgray
gsave
216 216 43.2 43.2 clipbox
151.2 43.2 m
151.2 259.2 l
stroke
grestore
1.000 setlinewidth
0 setlinecap
0.000 setgray
gsave
/o {
gsave
newpath
translate
1.0 setlinewidth
1 setlinejoin
0 setlinecap
0 0 m
0 5 l

gsave
0.000 setgray
fill
grestore
stroke
grestore
} bind def
151.2 43.2 o
grestore
gsave
/o {
gsave
newpath
translate
1.0 setlinewidth
1 setlinejoin
0 setlinecap
0 0 m
0 -5 l

gsave
0.000 setgray
fill
grestore
stroke
grestore
} bind def
151.2 259.2 o
grestore
gsave
143.246875 32.106250 translate
0.000000 rotate
0.000000 0.000000 m /four glyphshow
6.362305 0.000000 m /period glyphshow
9.541016 0.000000 m /zero glyphshow
grestore
0.800 setlinewidth
2 setlinecap
0.690 setgray
gsave
216 216 43.2 43.2 clipbox
205.2 43.2 m
205.2 259.2 l
stroke
grestore
1.000 setlinewidth
0 setlinecap
0.000 setgray
gsave
/o {
gsave
newpath
translate
1.0 setlinewidth
1 setlinejoin
0 setlinecap
0 0 m
0 5 l

gsave
0.000 setgray
fill
grestore
stroke
grestore
} bind def
205.2 43.2 o
grestore
gsave
/o {
gsave
newpath
translate
1.0 setlinewidth
1 setlinejoin
0 setlinecap
0 0 m
0 -5 l

gsave
0.000 setgray
fill
grestore
stroke
grestore
} bind def
205.2 259.2 o
grestore
gsave
197.246875 32.106250 translate
0.000000 rotate
0.000000 0.000000 m /four glyphshow
6.362305 0.000000 m /period glyphshow
9.541016 0.000000 m /five glyphshow
grestore
0.800 setlinewidth
2 setlinecap
0.690 setgray
gsave
216 216 43.2 43.2 clipbox
259.2 43.2 m
259.2 259.2 l
stroke
grestore
1.000 setlinewidth
0 setlinecap
0.000 setgray
gsave
/o {
gsave
newpath
translate
1.0 setlinewidth
1 setlinejoin
0 setlinecap
0 0 m
0 5 l

gsave
0.000 setgray
fill
grestore
stroke
grestore
} bind def
259.2 43.2 o
grestore
gsave
/o {
gsave
newpath
translate
1.0 setlinewidth
1 setlinejoin
0 setlinecap
0 0 m
0 -5 l

gsave
0.000 setgray
fill
grestore
stroke
grestore
} bind def
259.2 259.2 o
grestore
gsave
251.246875 32.106250 translate
0.000000 rotate
0.000000 0.000000 m /five glyphshow
6.362305 0.000000 m /period glyphshow
9.541016 0.000000 m /zero glyphshow
grestore
0.700 setlinewidth
gsave
/o {
gsave
newpath
translate
0.7 setlinewidth
1 setlinejoin
0 setlinecap
0 0 m
0 3 l

gsave
0.000 setgray
fill
grestore
stroke
grestore
} bind def
54 43.2 o
grestore
gsave
/o {
gsave
newpath
translate
0.7 setlinewidth
1 setlinejoin
0 setlinecap
0 0 m
0 -3 l

gsave
0.000 setgray
fill
grestore
stroke
grestore
} bind def
54 259.2 o
grestore
gsave
/o {
gsave
newpath
translate
0.7 setlinewidth
1 setlinejoin
0 setlinecap
0 0 m
0 3 l

gsave
0.000 setgray
fill
grestore
stroke
grestore
} bind def
64.8 43.2 o
grestore
gsave
/o {
gsave
newpath
translate
0.7 setlinewidth
1 setlinejoin
0 setlinecap
0 0 m
0 -3 l

gsave
0.000 setgray
fill
grestore
stroke
grestore
} bind def
64.8 259.2 o
grestore
gsave
/o {
gsave
newpath
translate
0.7 setlinewidth
1 setlinejoin
0 setlinecap
0 0 m
0 3 l

gsave
0.000 setgray
fill
grestore
stroke
grestore
} bind def
75.6 43.2 o
grestore
gsave
/o {
gsave
newpath
translate
0.7 setlinewidth
1 setlinejoin
0 setlinecap
0 0 m
0 -3 l

gsave
0.000 setgray
fill
grestore
stroke
grestore
} bind def
75.6 259.2 o
grestore
gsave
/o {
gsave
newpath
translate
0.7 setlinewidth
1 setlinejoin
0 setlinecap
0 0 m
0 3 l

gsave
0.000 setgray
fill
grestore
stroke
grestore
} bind def
86.4 43.2 o
grestore
gsave
/o {
gsave
newpath
translate
0.7 setlinewidth
1 setlinejoin
0 setlinecap
0 0 m
0 -3 l

gsave
0.000 setgray
fill
grestore
stroke
grestore
} bind def
86.4 259.2 o
grestore
gsave
/o {
gsave
newpath
translate
0.7 setlinewidth
1 setlinejoin
0 setlinecap
0 0 m
0 3 l

gsave
0.000 setgray
fill
grestore
stroke
grestore
} bind def
108 43.2 o
grestore
gsave
/o {
gsave
newpath
translate
0.7 setlinewidth
1 setlinejoin
0 setlinecap
0 0 m
0 -3 l

gsave
0.000 setgray
fill
grestore
stroke
grestore
} bind def
108 259.2 o
grestore
gsave
/o {
gsave
newpath
translate
0.7 setlinewidth
1 setlinejoin
0 setlinecap
0 0 m
0 3 l

gsave
0.000 setgray
fill
grestore
stroke
grestore
} bind def
118.8 43.2 o
grestore
gsave
/o {
gsave
newpath
translate
0.7 setlinewidth
1 setlinejoin
0 setlinecap
0 0 m
0 -3 l

gsave
0.000 setgray
fill
grestore
stroke
grestore
} bind def
118.8 259.2 o
grestore
gsave
/o {
gsave
newpath
translate
0.7 setlinewidth
1 setlinejoin
0 setlinecap
0 0 m
0 3 l

gsave
0.000 setgray
fill
grestore
stroke
grestore
} bind def
129.6 43.2 o
grestore
gsave
/o {
gsave
newpath
translate
0.7 setlinewidth
1 setlinejoin
0 setlinecap
0 0 m
0 -3 l

gsave
0.000 setgray
fill
grestore
stroke
grestore
} bind def
129.6 259.2 o
grestore
gsave
/o {
gsave
newpath
translate
0.7 setlinewidth
1 setlinejoin
0 setlinecap
0 0 m
0 3 l

gsave
0.000 setgray
fill
grestore
stroke
grestore
} bind def
140.4 43.2 o
grestore
gsave
/o {
gsave
newpath
translate
0.7 setlinewidth
1 setlinejoin
0 setlinecap
0 0 m
0 -3 l

gsave
0.000 setgray
fill
grestore
stroke
grestore
} bind def
140.4 259.2 o
grestore
gsave
/o {
gsave
newpath
translate
0.7 setlinewidth
1 setlinejoin
0 setlinecap
0 0 m
0 3 l

gsave
0.000 setgray
fill
grestore
stroke
grestore
} bind def
162 43.2 o
grestore
gsave
/o {
gsave
newpath
translate
0.7 setlinewidth
1 setlinejoin
0 setlinecap
0 0 m
0 -3 l

gsave
0.000 setgray
fill
grestore
stroke
grestore
} bind def
162 259.2 o
grestore
gsave
/o {
gsave
newpath
translate
0.7 setlinewidth
1 setlinejoin
0 setlinecap
0 0 m
0 3 l

gsave
0.000 setgray
fill
grestore
stroke
grestore
} bind def
172.8 43.2 o
grestore
gsave
/o {
gsave
newpath
translate
0.7 setlinewidth
1 setlinejoin
0 setlinecap
0 0 m
0 -3 l

gsave
0.000 setgray
fill
grestore
stroke
grestore
} bind def
172.8 259.2 o
grestore
gsave
/o {
gsave
newpath
translate
0.7 setlinewidth
1 setlinejoin
0 setlinecap
0 0 m
0 3 l

gsave
0.000 setgray
fill
grestore
stroke
grestore
} bind def
183.6 43.2 o
grestore
gsave
/o {
gsave
newpath
translate
0.7 setlinewidth
1 setlinejoin
0 setlinecap
0 0 m
0 -3 l

gsave
0.000 setgray
fill
grestore
stroke
grestore
} bind def
183.6 259.2 o
grestore
gsave
/o {
gsave
newpath
translate
0.7 setlinewidth
1 setlinejoin
0 setlinecap
0 0 m
0 3 l

gsave
0.000 setgray
fill
grestore
stroke
grestore
} bind def
194.4 43.2 o
grestore
gsave
/o {
gsave
newpath
translate
0.7 setlinewidth
1 setlinejoin
0 setlinecap
0 0 m
0 -3 l

gsave
0.000 setgray
fill
grestore
stroke
grestore
} bind def
194.4 259.2 o
grestore
gsave
/o {
gsave
newpath
translate
0.7 setlinewidth
1 setlinejoin
0 setlinecap
0 0 m
0 3 l

gsave
0.000 setgray
fill
grestore
stroke
grestore
} bind def
216 43.2 o
grestore
gsave
/o {
gsave
newpath
translate
0.7 setlinewidth
1 setlinejoin
0 setlinecap
0 0 m
0 -3 l

gsave
0.000 setgray
fill
grestore
stroke
grestore
} bind def
216 259.2 o
grestore
gsave
/o {
gsave
newpath
translate
0.7 setlinewidth
1 setlinejoin
0 setlinecap
0 0 m
0 3 l

gsave
0.000 setgray
fill
grestore
stroke
grestore
} bind def
226.8 43.2 o
grestore
gsave
/o {
gsave
newpath
translate
0.7 setlinewidth
1 setlinejoin
0 setlinecap
0 0 m
0 -3 l

gsave
0.000 setgray
fill
grestore
stroke
grestore
} bind def
226.8 259.2 o
grestore
gsave
/o {
gsave
newpath
translate
0.7 setlinewidth
1 setlinejoin
0 setlinecap
0 0 m
0 3 l

gsave
0.000 setgray
fill
grestore
stroke
grestore
} bind def
237.6 43.2 o
grestore
gsave
/o {
gsave
newpath
translate
0.7 setlinewidth
1 setlinejoin
0 setlinecap
0 0 m
0 -3 l

gsave
0.000 setgray
fill
grestore
stroke
grestore
} bind def
237.6 259.2 o
grestore
gsave
/o {
gsave
newpath
translate
0.7 setlinewidth
1 setlinejoin
0 setlinecap
0 0 m
0 3 l

gsave
0.000 setgray
fill
grestore
stroke
grestore
} bind def
248.4 43.2 o
grestore
gsave
/o {
gsave
newpath
translate
0.7 setlinewidth
1 setlinejoin
0 setlinecap
0 0 m
0 -3 l

gsave
0.000 setgray
fill
grestore
stroke
grestore
} bind def
248.4 259.2 o
grestore
gsave
124.700000 19.028125 translate
0.000000 rotate
/DejaVuSans-Oblique findfont
14.0 scalefont
setfont
0.000000 0.359375 moveto
/D glyphshow

/DejaVuSerif findfont
14.0 scalefont
setfont
10.780273 0.359375 moveto
/space glyphshow

15.230469 0.359375 moveto
/parenleft glyphshow

20.692383 0.359375 moveto
/m glyphshow

33.967773 0.359375 moveto
/m glyphshow

47.243164 0.359375 moveto
/parenright glyphshow


grestore
0.800 setlinewidth
2 setlinecap
0.690 setgray
gsave
216 216 43.2 43.2 clipbox
43.2 43.2 m
259.2 43.2 l
stroke
grestore
1.000 setlinewidth
0 setlinecap
0.000 setgray
gsave
/o {
gsave
newpath
translate
1.0 setlinewidth
1 setlinejoin
0 setlinecap
0 0 m
5 0 l

gsave
0.000 setgray
fill
grestore
stroke
grestore
} bind def
43.2 43.2 o
grestore
gsave
/o {
gsave
newpath
translate
1.0 setlinewidth
1 setlinejoin
0 setlinecap
0 0 m
-5 0 l

gsave
0.000 setgray
fill
grestore
stroke
grestore
} bind def
259.2 43.2 o
grestore
gsave
20.621875 39.403125 translate
0.000000 rotate
0.000000 0.000000 m /one glyphshow
6.362305 0.000000 m /zero glyphshow
12.724609 0.000000 m /zero glyphshow
grestore
0.800 setlinewidth
2 setlinecap
0.690 setgray
gsave
216 216 43.2 43.2 clipbox
43.2 86.4 m
259.2 86.4 l
stroke
grestore
1.000 setlinewidth
0 setlinecap
0.000 setgray
gsave
/o {
gsave
newpath
translate
1.0 setlinewidth
1 setlinejoin
0 setlinecap
0 0 m
5 0 l

gsave
0.000 setgray
fill
grestore
stroke
grestore
} bind def
43.2 86.4 o
grestore
gsave
/o {
gsave
newpath
translate
1.0 setlinewidth
1 setlinejoin
0 setlinecap
0 0 m
-5 0 l

gsave
0.000 setgray
fill
grestore
stroke
grestore
} bind def
259.2 86.4 o
grestore
gsave
20.621875 82.603125 translate
0.000000 rotate
0.000000 0.000000 m /one glyphshow
6.362305 0.000000 m /two glyphshow
12.724609 0.000000 m /zero glyphshow
grestore
0.800 setlinewidth
2 setlinecap
0.690 setgray
gsave
216 216 43.2 43.2 clipbox
43.2 129.6 m
259.2 129.6 l
stroke
grestore
1.000 setlinewidth
0 setlinecap
0.000 setgray
gsave
/o {
gsave
newpath
translate
1.0 setlinewidth
1 setlinejoin
0 setlinecap
0 0 m
5 0 l

gsave
0.000 setgray
fill
grestore
stroke
grestore
} bind def
43.2 129.6 o
grestore
gsave
/o {
gsave
newpath
translate
1.0 setlinewidth
1 setlinejoin
0 setlinecap
0 0 m
-5 0 l

gsave
0.000 setgray
fill
grestore
stroke
grestore
} bind def
259.2 129.6 o
grestore
gsave
20.621875 125.803125 translate
0.000000 rotate
0.000000 0.000000 m /one glyphshow
6.362305 0.000000 m /four glyphshow
12.724609 0.000000 m /zero glyphshow
grestore
0.800 setlinewidth
2 setlinecap
0.690 setgray
gsave
216 216 43.2 43.2 clipbox
43.2 172.8 m
259.2 172.8 l
stroke
grestore
1.000 setlinewidth
0 setlinecap
0.000 setgray
gsave
/o {
gsave
newpath
translate
1.0 setlinewidth
1 setlinejoin
0 setlinecap
0 0 m
5 0 l

gsave
0.000 setgray
fill
grestore
stroke
grestore
} bind def
43.2 172.8 o
grestore
gsave
/o {
gsave
newpath
translate
1.0 setlinewidth
1 setlinejoin
0 setlinecap
0 0 m
-5 0 l

gsave
0.000 setgray
fill
grestore
stroke
grestore
} bind def
259.2 172.8 o
grestore
gsave
20.621875 169.003125 translate
0.000000 rotate
0.000000 0.000000 m /one glyphshow
6.362305 0.000000 m /six glyphshow
12.724609 0.000000 m /zero glyphshow
grestore
0.800 setlinewidth
2 setlinecap
0.690 setgray
gsave
216 216 43.2 43.2 clipbox
43.2 216 m
259.2 216 l
stroke
grestore
1.000 setlinewidth
0 setlinecap
0.000 setgray
gsave
/o {
gsave
newpath
translate
1.0 setlinewidth
1 setlinejoin
0 setlinecap
0 0 m
5 0 l

gsave
0.000 setgray
fill
grestore
stroke
grestore
} bind def
43.2 216 o
grestore
gsave
/o {
gsave
newpath
translate
1.0 setlinewidth
1 setlinejoin
0 setlinecap
0 0 m
-5 0 l

gsave
0.000 setgray
fill
grestore
stroke
grestore
} bind def
259.2 216 o
grestore
gsave
20.621875 212.203125 translate
0.000000 rotate
0.000000 0.000000 m /one glyphshow
6.362305 0.000000 m /eight glyphshow
12.724609 0.000000 m /zero glyphshow
grestore
0.800 setlinewidth
2 setlinecap
0.690 setgray
gsave
216 216 43.2 43.2 clipbox
43.2 259.2 m
259.2 259.2 l
stroke
grestore
1.000 setlinewidth
0 setlinecap
0.000 setgray
gsave
/o {
gsave
newpath
translate
1.0 setlinewidth
1 setlinejoin
0 setlinecap
0 0 m
5 0 l

gsave
0.000 setgray
fill
grestore
stroke
grestore
} bind def
43.2 259.2 o
grestore
gsave
/o {
gsave
newpath
translate
1.0 setlinewidth
1 setlinejoin
0 setlinecap
0 0 m
-5 0 l

gsave
0.000 setgray
fill
grestore
stroke
grestore
} bind def
259.2 259.2 o
grestore
gsave
20.621875 255.403125 translate
0.000000 rotate
0.000000 0.000000 m /two glyphshow
6.362305 0.000000 m /zero glyphshow
12.724609 0.000000 m /zero glyphshow
grestore
0.700 setlinewidth
gsave
/o {
gsave
newpath
translate
0.7 setlinewidth
1 setlinejoin
0 setlinecap
0 0 m
3 0 l

gsave
0.000 setgray
fill
grestore
stroke
grestore
} bind def
43.2 54 o
grestore
gsave
/o {
gsave
newpath
translate
0.7 setlinewidth
1 setlinejoin
0 setlinecap
0 0 m
-3 0 l

gsave
0.000 setgray
fill
grestore
stroke
grestore
} bind def
259.2 54 o
grestore
gsave
/o {
gsave
newpath
translate
0.7 setlinewidth
1 setlinejoin
0 setlinecap
0 0 m
3 0 l

gsave
0.000 setgray
fill
grestore
stroke
grestore
} bind def
43.2 64.8 o
grestore
gsave
/o {
gsave
newpath
translate
0.7 setlinewidth
1 setlinejoin
0 setlinecap
0 0 m
-3 0 l

gsave
0.000 setgray
fill
grestore
stroke
grestore
} bind def
259.2 64.8 o
grestore
gsave
/o {
gsave
newpath
translate
0.7 setlinewidth
1 setlinejoin
0 setlinecap
0 0 m
3 0 l

gsave
0.000 setgray
fill
grestore
stroke
grestore
} bind def
43.2 75.6 o
grestore
gsave
/o {
gsave
newpath
translate
0.7 setlinewidth
1 setlinejoin
0 setlinecap
0 0 m
-3 0 l

gsave
0.000 setgray
fill
grestore
stroke
grestore
} bind def
259.2 75.6 o
grestore
gsave
/o {
gsave
newpath
translate
0.7 setlinewidth
1 setlinejoin
0 setlinecap
0 0 m
3 0 l

gsave
0.000 setgray
fill
grestore
stroke
grestore
} bind def
43.2 97.2 o
grestore
gsave
/o {
gsave
newpath
translate
0.7 setlinewidth
1 setlinejoin
0 setlinecap
0 0 m
-3 0 l

gsave
0.000 setgray
fill
grestore
stroke
grestore
} bind def
259.2 97.2 o
grestore
gsave
/o {
gsave
newpath
translate
0.7 setlinewidth
1 setlinejoin
0 setlinecap
0 0 m
3 0 l

gsave
0.000 setgray
fill
grestore
stroke
grestore
} bind def
43.2 108 o
grestore
gsave
/o {
gsave
newpath
translate
0.7 setlinewidth
1 setlinejoin
0 setlinecap
0 0 m
-3 0 l

gsave
0.000 setgray
fill
grestore
stroke
grestore
} bind def
259.2 108 o
grestore
gsave
/o {
gsave
newpath
translate
0.7 setlinewidth
1 setlinejoin
0 setlinecap
0 0 m
3 0 l

gsave
0.000 setgray
fill
grestore
stroke
grestore
} bind def
43.2 118.8 o
grestore
gsave
/o {
gsave
newpath
translate
0.7 setlinewidth
1 setlinejoin
0 setlinecap
0 0 m
-3 0 l

gsave
0.000 setgray
fill
grestore
stroke
grestore
} bind def
259.2 118.8 o
grestore
gsave
/o {
gsave
newpath
translate
0.7 setlinewidth
1 setlinejoin
0 setlinecap
0 0 m
3 0 l

gsave
0.000 setgray
fill
grestore
stroke
grestore
} bind def
43.2 140.4 o
grestore
gsave
/o {
gsave
newpath
translate
0.7 setlinewidth
1 setlinejoin
0 setlinecap
0 0 m
-3 0 l

gsave
0.000 setgray
fill
grestore
stroke
grestore
} bind def
259.2 140.4 o
grestore
gsave
/o {
gsave
newpath
translate
0.7 setlinewidth
1 setlinejoin
0 setlinecap
0 0 m
3 0 l

gsave
0.000 setgray
fill
grestore
stroke
grestore
} bind def
43.2 151.2 o
grestore
gsave
/o {
gsave
newpath
translate
0.7 setlinewidth
1 setlinejoin
0 setlinecap
0 0 m
-3 0 l

gsave
0.000 setgray
fill
grestore
stroke
grestore
} bind def
259.2 151.2 o
grestore
gsave
/o {
gsave
newpath
translate
0.7 setlinewidth
1 setlinejoin
0 setlinecap
0 0 m
3 0 l

gsave
0.000 setgray
fill
grestore
stroke
grestore
} bind def
43.2 162 o
grestore
gsave
/o {
gsave
newpath
translate
0.7 setlinewidth
1 setlinejoin
0 setlinecap
0 0 m
-3 0 l

gsave
0.000 setgray
fill
grestore
stroke
grestore
} bind def
259.2 162 o
grestore
gsave
/o {
gsave
newpath
translate
0.7 setlinewidth
1 setlinejoin
0 setlinecap
0 0 m
3 0 l

gsave
0.000 setgray
fill
grestore
stroke
grestore
} bind def
43.2 183.6 o
grestore
gsave
/o {
gsave
newpath
translate
0.7 setlinewidth
1 setlinejoin
0 setlinecap
0 0 m
-3 0 l

gsave
0.000 setgray
fill
grestore
stroke
grestore
} bind def
259.2 183.6 o
grestore
gsave
/o {
gsave
newpath
translate
0.7 setlinewidth
1 setlinejoin
0 setlinecap
0 0 m
3 0 l

gsave
0.000 setgray
fill
grestore
stroke
grestore
} bind def
43.2 194.4 o
grestore
gsave
/o {
gsave
newpath
translate
0.7 setlinewidth
1 setlinejoin
0 setlinecap
0 0 m
-3 0 l

gsave
0.000 setgray
fill
grestore
stroke
grestore
} bind def
259.2 194.4 o
grestore
gsave
/o {
gsave
newpath
translate
0.7 setlinewidth
1 setlinejoin
0 setlinecap
0 0 m
3 0 l

gsave
0.000 setgray
fill
grestore
stroke
grestore
} bind def
43.2 205.2 o
grestore
gsave
/o {
gsave
newpath
translate
0.7 setlinewidth
1 setlinejoin
0 setlinecap
0 0 m
-3 0 l

gsave
0.000 setgray
fill
grestore
stroke
grestore
} bind def
259.2 205.2 o
grestore
gsave
/o {
gsave
newpath
translate
0.7 setlinewidth
1 setlinejoin
0 setlinecap
0 0 m
3 0 l

gsave
0.000 setgray
fill
grestore
stroke
grestore
} bind def
43.2 226.8 o
grestore
gsave
/o {
gsave
newpath
translate
0.7 setlinewidth
1 setlinejoin
0 setlinecap
0 0 m
-3 0 l

gsave
0.000 setgray
fill
grestore
stroke
grestore
} bind def
259.2 226.8 o
grestore
gsave
/o {
gsave
newpath
translate
0.7 setlinewidth
1 setlinejoin
0 setlinecap
0 0 m
3 0 l

gsave
0.000 setgray
fill
grestore
stroke
grestore
} bind def
43.2 237.6 o
grestore
gsave
/o {
gsave
newpath
translate
0.7 setlinewidth
1 setlinejoin
0 setlinecap
0 0 m
-3 0 l

gsave
0.000 setgray
fill
grestore
stroke
grestore
} bind def
259.2 237.6 o
grestore
gsave
/o {
gsave
newpath
translate
0.7 setlinewidth
1 setlinejoin
0 setlinecap
0 0 m
3 0 l

gsave
0.000 setgray
fill
grestore
stroke
grestore
} bind def
43.2 248.4 o
grestore
gsave
/o {
gsave
newpath
translate
0.7 setlinewidth
1 setlinejoin
0 setlinecap
0 0 m
-3 0 l

gsave
0.000 setgray
fill
grestore
stroke
grestore
} bind def
259.2 248.4 o
grestore
gsave
15.621875 126.700000 translate
90.000000 rotate
/DejaVuSans-Oblique findfont
14.0 scalefont
setfont
0.000000 0.375000 moveto
/I glyphshow

/DejaVuSans findfont
9.8 scalefont
setfont
4.128906 -1.921875 moveto
/p glyphshow

10.349609 -1.921875 moveto
/e glyphshow

16.378906 -1.921875 moveto
/a glyphshow

22.384277 -1.921875 moveto
/k glyphshow

/DejaVuSans findfont
14.0 scalefont
setfont
28.442285 0.375000 moveto
/parenleft glyphshow

/DejaVuSans-Oblique findfont
14.0 scalefont
setfont
33.904199 0.375000 moveto
/A glyphshow

/DejaVuSans findfont
14.0 scalefont
setfont
43.481348 0.375000 moveto
/parenright glyphshow


grestore
1.000 setlinewidth
1.000 0.000 0.000 setrgbcolor
gsave
216 216 43.2 43.2 clipbox
/o {
gsave
newpath
translate
1.0 setlinewidth
1 setlinejoin
0 setlinecap
0 -1.5 m
0.397805 -1.5 0.77937 -1.341951 1.06066 -1.06066 c
1.341951 -0.77937 1.5 -0.397805 1.5 0 c
1.5 0.397805 1.341951 0.77937 1.06066 1.06066 c
0.77937 1.341951 0.397805 1.5 0 1.5 c
-0.397805 1.5 -0.77937 1.341951 -1.06066 1.06066 c
-1.341951 0.77937 -1.5 0.397805 -1.5 0 c
-1.5 -0.397805 -1.341951 -0.77937 -1.06066 -1.06066 c
-0.77937 -1.341951 -0.397805 -1.5 0 -1.5 c
cl

gsave
1.000 0.000 0.000 setrgbcolor
fill
grestore
stroke
grestore
} bind def
186.89 163.177 o
107.454 117.718 o
85.7523 118.944 o
129.314 153.185 o
51.0463 100.063 o
169.968 176.479 o
89.8844 126.611 o
107.454 143.898 o
149.132 105.542 o
82.9939 120.116 o
51.0463 102.3 o
82.5261 92.4637 o
40.5853 93.0652 o
174.552 169.892 o
106.58 141.054 o
82.9939 125.332 o
155.185 117.689 o
142.82 136.006 o
66.9821 103.739 o
63.4126 109.032 o
47.1479 96.1887 o
129.344 151.353 o
166.577 174.071 o
201.482 157.61 o
213.574 176.315 o
110.596 143.714 o
112.873 149.161 o
234.04 154.484 o
117.278 135.687 o
90.6345 131.988 o
76.2927 116.085 o
86.9534 123.864 o
72.8789 112.076 o
208.968 164.444 o
216.096 177.755 o
149.132 156.213 o
218.749 175.28 o
205.646 171.963 o
208.59 175.721 o
200.586 157.058 o
213.574 175.036 o
247.077 177.4 o
126.72 134.886 o
186.89 163.757 o
218.254 171.025 o
165.168 156.941 o
116.464 136.697 o
86.9534 123.466 o
54.9562 105.903 o
72.8789 111.911 o
201.482 192.961 o
106.58 140.929 o
177.482 174.356 o
227.241 183.395 o
212.857 193.731 o
197.362 146.422 o
117.68 149.834 o
217.433 184.048 o
165.168 160.483 o
203.969 177.873 o
192.67 185 o
209.191 181.073 o
170.653 175.61 o
104.237 142.297 o
111.824 120.809 o
80.42 114.628 o
132.647 124.991 o
151.751 141.322 o
116.392 126.327 o
116.985 124.567 o
84.6962 106.524 o
211.221 200.192 o
242.101 203.117 o
213.616 184.56 o
232.061 204.336 o
221.361 186.427 o
223.042 164.824 o
257.034 153.863 o
238.292 185.13 o
178.123 180.342 o
206.523 164.966 o
187.856 173.342 o
219.641 164.691 o
211.86 186.345 o
255.758 158.788 o
132.109 152.612 o
229.45 194.052 o
183.878 164.427 o
216.096 167.582 o
253.288 143.199 o
240.17 178.915 o
189.487 165.291 o
223.441 165.68 o
208.968 162.766 o
87.3642 131.094 o
212.315 150.592 o
184.353 154.22 o
132.056 146.059 o
116.985 121.467 o
236.945 200.25 o
171.871 177.278 o
181.325 174.552 o
218.553 178.122 o
229.677 197.179 o
211.959 176.84 o
206.523 166.459 o
187.418 172.094 o
232.061 176.468 o
211.104 169.92 o
186.89 166.195 o
173.609 170.328 o
223.89 154.749 o
140.824 160.871 o
189.487 163.626 o
230.849 181.795 o
163.321 170.103 o
189.924 173.53 o
200.706 155.236 o
213.574 172.58 o
177.451 160.212 o
184.353 159.361 o
116.464 150.166 o
132.647 123.873 o
178.939 165.161 o
151.048 150.894 o
146.301 157.764 o
161.782 149.119 o
120.253 139.544 o
78.7079 122.351 o
190.085 172.118 o
236.945 192.011 o
211.104 174.569 o
113.041 146.708 o
106.58 142.169 o
149.659 162.59 o
141.057 164.749 o
139.428 158.299 o
164.675 166.796 o
139.65 164.286 o
235.389 170.8 o
216.096 189.477 o
119.909 130.424 o
165.168 157.01 o
229.834 174.985 o
186.89 163.903 o
137.698 162.252 o
102.124 137.777 o
213.542 183.788 o
171.871 160.011 o
80.42 124.95 o
178.176 174.69 o
186.821 162.914 o
90.9816 131.522 o
162.593 161.913 o
120.253 138.982 o
74.6483 119.96 o
138.615 143.451 o
71.6164 116.219 o
248.961 197.079 o
231.483 206.376 o
169.699 176.14 o
178.176 174.219 o
176.342 163.53 o
162.593 172.873 o
184.515 159.597 o
205.449 161.144 o
172.36 165.323 o
239.105 200.682 o
176.923 171.334 o
253.752 196.247 o
167.483 161.508 o
205.413 180.236 o
199.943 178.345 o
181.393 177.804 o
119.909 139.696 o
213.542 182.302 o
139.65 160.796 o
97.3987 139.29 o
141.057 167.125 o
161.232 157.227 o
113.041 140.127 o
115.133 140.845 o
165.168 156.173 o
87.4038 125.47 o
169.252 171.431 o
133.466 158.296 o
159.393 161.993 o
90.9816 132.605 o
181.393 177.192 o
120.253 136.262 o
239.105 201.803 o
101.167 135.727 o
115.909 138.964 o
138.851 154.515 o
110.444 133.574 o
151.849 163.875 o
130.851 139.167 o
90.9816 131.116 o
92.6438 132.025 o
172.598 160.651 o
165.168 151.274 o
109.457 137.834 o
47.6068 97.6132 o
85.3115 128.058 o
153.441 154.077 o
162.593 138.767 o
117.762 140.494 o
138.66 158.169 o
119.909 146.809 o
159.7 147.645 o
153.987 162.829 o
158.372 152.714 o
178.176 155.244 o
239.105 169.405 o
144.009 154.614 o
165.309 146.213 o
103.277 136.592 o
205.413 171.738 o
111.627 136.787 o
120.253 133.789 o
127.882 149.196 o
159.018 153.193 o
102.799 125.755 o
144.462 156.383 o
115.909 139.313 o
71.6164 119.625 o
99.2399 136.197 o
124.845 136.844 o
83.5887 119.958 o
128.67 138.603 o
77.3025 121.971 o
102.906 126.042 o
64.0332 111.607 o
58.0037 101.118 o
169.999 169.696 o
171.866 164.08 o
207.54 167.527 o
175.635 160.773 o
218.472 165.144 o
179.842 163.195 o
167.368 150.779 o
153.488 136.797 o
139.485 152.913 o
148.971 153.552 o
155.548 168.701 o
235.389 169.757 o
236.384 155.122 o
117.766 136.484 o
199.488 147.646 o
91.8338 110.222 o
204.497 160.895 o
172.506 147.937 o
129.24 144.255 o
181.393 126.942 o
137.15 149.814 o
155.912 118.551 o
78.0795 106.052 o
106.187 139.199 o
87.8914 105.896 o
123.077 123.076 o
86.3431 119.953 o
80.7919 113.009 o
45.2841 95.7493 o
27.1396 79.3776 o
225.791 173.355 o
229.321 174.405 o
203.493 168.252 o
162.593 162.032 o
192.783 161.025 o
176.508 153.207 o
200.635 146.24 o
203.116 156.86 o
134.267 158.458 o
120.79 145.544 o
181.393 179.956 o
220.152 173.449 o
150.377 149.074 o
128.884 131.28 o
193.881 164.678 o
227.88 165.289 o
109.385 133.456 o
120.253 135.602 o
138.882 136.11 o
85.4752 121.508 o
163.662 156.428 o
169.78 148.007 o
165.309 146.213 o
121.634 127.541 o
116.035 132.615 o
165.509 138.669 o
106.58 124.624 o
124.4 128.299 o
95.6375 125.069 o
113.726 113.252 o
74.6483 118.038 o
186.603 162.879 o
224.15 167.979 o
252.01 201.662 o
233.75 163.261 o
193.881 192.55 o
193.561 159.458 o
203.116 157.119 o
220.536 141.665 o
186.299 157.539 o
244.051 172.997 o
209.29 145.372 o
116.254 133.922 o
181.758 171.323 o
153.95 159.81 o
120.253 142.622 o
153.136 164.944 o
103.277 133.995 o
165.183 156.072 o
97.54 124.846 o
187.214 152.358 o
190.747 162.597 o
125.195 140.096 o
75.7431 122.186 o
92.4803 104.441 o
111.027 115.187 o
67.2704 112.486 o
88.9824 130.107 o
139.485 120.892 o
99.4883 121.154 o
115.909 130.686 o
103.096 107.04 o
231.898 169.336 o
249.829 184.443 o
235.692 148.224 o
250.638 183.665 o
202.128 167.199 o
204.455 161.854 o
195.138 171.818 o
210.641 153.336 o
239.441 156.061 o
180.688 148.296 o
175.181 122.01 o
138.277 147.684 o
186.772 140.644 o
124.176 140.858 o
194.713 152.206 o
118.806 143.946 o
256.569 167.994 o
253.953 152.644 o
222.559 160.95 o
195.683 152.446 o
182.867 163.773 o
229.834 169.482 o
174.495 171.658 o
201.632 153.174 o
182.316 141.712 o
115.263 147.262 o
165.309 129.457 o
165.168 138.154 o
115.909 137.344 o
71.6164 116.845 o
34.0626 85.8364 o
226.309 174.465 o
257.344 154.159 o
228.178 162.443 o
209.753 154 o
180.878 160.51 o
203.837 159.785 o
203.856 157.437 o
207.537 158.879 o
157.303 159.2 o
178.176 162.866 o
195.138 158.888 o
181.393 179.86 o
117.762 142.999 o
223.257 170.434 o
229.663 161.208 o
203.212 169.129 o
217.203 155.685 o
228.221 157.022 o
203.116 172.264 o
227.88 171.041 o
210.235 164.042 o
195.683 161.486 o
187.631 157.896 o
186.299 158.13 o
192.783 162.521 o
99.4883 130.112 o
103.277 126.758 o
255.098 170.824 o
218.831 161.515 o
227.88 164.504 o
234.422 158.921 o
230.535 161.963 o
240.641 159.143 o
249.221 161.035 o
224.286 173.2 o
228.28 159.461 o
192.783 158.345 o
256.471 171.667 o
229.663 167.488 o
155.309 140.163 o
187.631 139.813 o
225.791 165.119 o
155.37 135.828 o
216.694 172.442 o
233.75 160.23 o
218.787 166.076 o
233.75 180.111 o
247.939 169.794 o
208.553 153.16 o
235.739 165.295 o
201.632 150.784 o
204.824 158.415 o
231.36 162.253 o
195.982 158.261 o
146.56 149.598 o
205.2 155.245 o
205.2 163.626 o
205.2 158.059 o
160.443 150.991 o
105.458 131.734 o
205.2 165.326 o
205.2 161.691 o
192.783 147.978 o
205.2 168.479 o
196.393 153.936 o
205.2 155.088 o
216.694 171.305 o
218.787 164.927 o
236.914 156.026 o
190.583 148.194 o
131.24 136.621 o
131.24 136.621 o
131.24 137.608 o
171.537 144.567 o
173.987 147.455 o
224.025 165.739 o
155.013 138.167 o
235.843 144.106 o
145.523 128.774 o
171.632 151.604 o
233.75 163.278 o
169.681 146.5 o
111.84 121.941 o
155.37 160.501 o
210.857 166.03 o
208.553 145.498 o
59.9382 109.635 o
196.393 153.913 o
201.291 151.602 o
169.156 143.982 o
131.159 141.257 o
188.992 145.905 o
159.761 135.002 o
117.393 135.413 o
38.1832 87.2792 o
225.223 186.494 o
225.623 177.983 o
202.731 173.228 o
218.983 159.037 o
205.664 162.198 o
201.291 172.743 o
228.868 163.828 o
188.992 163 o
197.942 166.64 o
210.857 153.465 o
151.104 147.292 o
189.654 153.469 o
115.253 125.077 o
233.75 185.317 o
228.56 181.523 o
191.735 168.757 o
195.046 166.393 o
248.44 170.654 o
111.408 121.598 o
240.338 170.247 o
235.771 170.207 o
162.784 149.363 o
59.9382 108.931 o
217.699 163.66 o
235.843 162.694 o
117.393 142.706 o
140.217 129.223 o
255.003 194.656 o
224.025 175.031 o
210.857 176.884 o
190.583 172.631 o
209.674 168.296 o
233.75 174.737 o
179.232 155.047 o
206.176 160.352 o
204.535 160.472 o
222.533 162.942 o
255.76 177.544 o
256.782 188.504 o
116.7 143.424 o
240.699 194.396 o
212.337 175.84 o
211.72 161.972 o
173.827 139.644 o
116.517 144.947 o
117.393 139.302 o
145.523 142.683 o
239.872 179.646 o
220.095 176.71 o
225.56 168.244 o
210.675 172.51 o
188.992 164.242 o
236.939 165.036 o
215.354 165.101 o
156.733 148.724 o
228.639 159.66 o
80.0024 126.293 o
257.445 201.833 o
243.183 194.62 o
215.164 187.415 o
198.882 170.054 o
167.458 154.765 o
205.664 156.802 o
187.232 154.888 o
210.857 171.77 o
174.187 154.011 o
208.527 180.031 o
183.315 152.844 o
208.527 180.634 o
154.317 138.398 o
146.335 144.021 o
121.485 139.543 o
145.523 147.98 o
103.017 137.479 o
201.291 161.584 o
177.755 162.649 o
189.654 173.366 o
168.882 152.002 o
170.517 148.47 o
202.29 155.977 o
224.821 151.732 o
235.843 149.451 o
145.991 155.936 o
167.458 143.642 o
225.223 154 o
117.362 117.795 o
117.362 137.56 o
102.965 130.685 o
155.37 135 o
226.604 166.374 o
211.616 172.611 o
231.36 158.932 o
194.103 150.505 o
218.787 154.524 o
225.791 162.147 o
193.457 157.02 o
177.057 152.044 o
165.087 154.64 o
180.184 159.257 o
166.337 157.693 o
169.45 151.718 o
155.929 156.652 o
208.89 157.581 o
157.502 142.916 o
140.119 142.848 o
206.176 160.981 o
224.025 173.923 o
199.778 168.012 o
156.733 151.739 o
204.866 157.348 o
177.755 161.911 o
142.792 155.611 o
169.526 138.124 o
190.583 155.757 o
155.37 135.85 o
186.825 152.337 o
194.179 149.417 o
165.711 150.637 o
187.232 155.48 o
125.619 134.026 o
120.988 129.501 o
255.029 184.562 o
253.348 186.208 o
236.594 183.97 o
246.525 173.036 o
201.525 172.684 o
237.723 149.975 o
224.821 151.485 o
233.983 177.307 o
224.025 172.448 o
237.088 170.047 o
248.632 171.461 o
209.039 164.661 o
203.434 162.814 o
225.395 163.99 o
216.694 187.386 o
165.711 151.169 o
210.299 169.398 o
235.71 182.149 o
194.103 174.674 o
224.917 183.788 o
193.457 175.608 o
239.68 170.866 o
233.75 171.671 o
215.901 173.051 o
218.209 174.199 o
224.025 177.077 o
219.319 158.702 o
208.062 162.279 o
250.402 164.347 o
156.733 145.344 o
250.402 179.664 o
238.757 163.048 o
252.534 172.957 o
221.918 177.331 o
235.11 169.76 o
204.194 158.382 o
239.68 169.59 o
240.241 171.03 o
221.424 161.842 o
199.017 148.923 o
203.318 160.084 o
236.336 149.875 o
165.982 160.11 o
180.321 157.572 o
201.291 176.907 o
220.972 181.256 o
222.176 181.831 o
224.025 180.528 o
92.8627 135.382 o
211.09 168.061 o
217.188 177.697 o
223.647 168.887 o
235.379 167.382 o
207.734 157.394 o
161.164 150.616 o
193.626 158.7 o
112.918 134.252 o
165.288 144.719 o
48.8655 102.222 o
228.811 183.814 o
187.232 168.555 o
235.282 173.842 o
242.952 169.361 o
220.238 171.199 o
219.128 176.555 o
254.034 183.558 o
194.103 170.75 o
213.905 165.457 o
229.959 164.215 o
245.572 168.473 o
185.678 158.942 o
192.587 159.373 o
197.623 155.821 o
182.555 150.364 o
224.821 182.927 o
151.368 150.145 o
244.217 175.565 o
202.893 172.097 o
220.918 157.19 o
245.042 167.189 o
203.678 155.079 o
203.708 164.619 o
224.257 178.342 o
243.045 164.478 o
214.68 159.172 o
225.791 160.117 o
155.37 149.32 o
91.6419 125.369 o
257.003 178.163 o
234.338 171.002 o
215.986 173.072 o
216.532 154.627 o
214.171 157.199 o
193.457 164.554 o
216.694 173.089 o
237.088 170.225 o
212.055 160.976 o
228.059 165.494 o
238.489 167.195 o
212.055 160.976 o
241.409 168.307 o
168.153 154.899 o
208.18 161.07 o
169.555 156.689 o
202.893 176.357 o
241.764 171.258 o
203.678 165.691 o
206.326 162.498 o
224.146 167.62 o
232.779 175.196 o
233.855 171.368 o
245.042 179.56 o
237.055 170.728 o
235.282 173.849 o
231.046 165.357 o
200.297 160.955 o
225.499 161.208 o
204.994 160.409 o
252.911 167.863 o
grestore
0.000 0.000 1.000 setrgbcolor
gsave
216 216 43.2 43.2 clipbox
/o {
gsave
newpath
translate
1.0 setlinewidth
1 setlinejoin
0 setlinecap
0 -1.5 m
0.397805 -1.5 0.77937 -1.341951 1.06066 -1.06066 c
1.341951 -0.77937 1.5 -0.397805 1.5 0 c
1.5 0.397805 1.341951 0.77937 1.06066 1.06066 c
0.77937 1.341951 0.397805 1.5 0 1.5 c
-0.397805 1.5 -0.77937 1.341951 -1.06066 1.06066 c
-1.341951 0.77937 -1.5 0.397805 -1.5 0 c
-1.5 -0.397805 -1.341951 -0.77937 -1.06066 -1.06066 c
-0.77937 -1.341951 -0.397805 -1.5 0 -1.5 c
cl

gsave
0.000 0.000 1.000 setrgbcolor
fill
grestore
stroke
grestore
} bind def
186.89 182.924 o
107.454 135.296 o
85.7523 135.158 o
129.314 170.872 o
51.0463 115.862 o
169.968 195.646 o
89.8844 132.82 o
107.454 173.263 o
149.132 112.897 o
82.9939 132.836 o
51.0463 117.709 o
82.5261 102.424 o
40.5853 111.323 o
174.552 179.798 o
106.58 156.56 o
82.9939 134.109 o
155.185 134.113 o
142.82 146.161 o
66.9821 117.057 o
63.4126 123.586 o
47.1479 98.992 o
129.344 160.351 o
166.577 192.851 o
201.482 176.93 o
213.574 201.371 o
110.596 149.487 o
112.873 180.166 o
234.04 164.408 o
117.278 154.437 o
90.6345 145.918 o
76.2927 122.813 o
86.9534 135.719 o
72.8789 124.882 o
208.968 189.852 o
216.096 203.194 o
149.132 176.552 o
218.749 204.427 o
205.646 191.399 o
208.59 194.455 o
200.586 176.433 o
213.574 203.804 o
247.077 193.57 o
126.72 144.75 o
186.89 185.214 o
218.254 195.041 o
165.168 175.399 o
116.464 152.192 o
86.9534 131.637 o
54.9562 122.495 o
72.8789 124.707 o
201.482 224.396 o
106.58 155.717 o
177.482 192.492 o
227.241 210.824 o
212.857 220.106 o
197.362 160.729 o
117.68 162.589 o
217.433 201.417 o
165.168 179.611 o
203.969 195.855 o
192.67 204.23 o
209.191 207.407 o
170.653 203.395 o
104.237 160.851 o
111.824 138.264 o
80.42 126.57 o
132.647 136.765 o
151.751 155.245 o
116.392 143.984 o
116.985 134.605 o
84.6962 112.806 o
211.221 237.839 o
242.101 223.85 o
213.616 207.873 o
232.061 233.576 o
221.361 205.308 o
223.042 188.067 o
257.034 174.239 o
238.292 203.756 o
178.123 202.126 o
206.523 187.224 o
187.856 200.051 o
219.641 191.884 o
211.86 221.054 o
255.758 178.268 o
132.109 174.258 o
229.45 207.6 o
183.878 185.247 o
216.096 180.698 o
253.288 150.714 o
240.17 204.142 o
189.487 178.853 o
223.441 192.134 o
208.968 180.994 o
87.3642 154.685 o
212.315 165.76 o
184.353 177.112 o
132.056 159.744 o
116.985 136.953 o
236.945 230.343 o
171.871 196.888 o
181.325 194.959 o
218.553 203.286 o
229.677 229.548 o
211.959 201.688 o
206.523 193.098 o
187.418 189.74 o
232.061 202.95 o
211.104 194.929 o
186.89 189.924 o
173.609 192.13 o
223.89 175.178 o
140.824 183.816 o
189.487 183.106 o
230.849 198.45 o
163.321 189.519 o
189.924 200.305 o
200.706 177.666 o
213.574 201.996 o
177.451 177.469 o
184.353 180.275 o
116.464 173.828 o
132.647 135.837 o
178.939 183.708 o
151.048 175.271 o
146.301 175.977 o
161.782 168.776 o
120.253 155.618 o
78.7079 143.722 o
190.085 199.055 o
236.945 213.811 o
211.104 192.626 o
113.041 165.379 o
106.58 156.592 o
149.659 183.496 o
141.057 187.077 o
139.428 181.488 o
164.675 191.9 o
139.65 179.757 o
235.389 196.538 o
216.096 203.171 o
119.909 147.868 o
165.168 175.496 o
229.834 199.294 o
186.89 176.15 o
137.698 192.652 o
102.124 152.203 o
213.542 211.115 o
171.871 176.666 o
80.42 144.483 o
178.176 195.835 o
186.821 176.497 o
90.9816 151.621 o
162.593 180.696 o
120.253 155.555 o
74.6483 133.677 o
138.615 157.226 o
71.6164 128.659 o
248.961 221.49 o
231.483 240.132 o
169.699 203.153 o
178.176 196.369 o
176.342 175.344 o
162.593 199.642 o
184.515 181.073 o
205.449 170.92 o
172.36 187.624 o
239.105 230.29 o
176.923 199.462 o
253.752 224.502 o
167.483 180.172 o
205.413 205.485 o
199.943 191.858 o
181.393 198.233 o
119.909 156.575 o
213.542 207.919 o
139.65 186.697 o
97.3987 167.037 o
141.057 191.944 o
161.232 178.447 o
113.041 160.432 o
115.133 157.957 o
165.168 169.357 o
87.4038 144.457 o
169.252 199.739 o
133.466 190.087 o
159.393 180.498 o
90.9816 148.682 o
181.393 194.853 o
120.253 153.412 o
239.105 222.738 o
101.167 145.892 o
115.909 155.137 o
138.851 178.731 o
110.444 154.363 o
151.849 187.784 o
130.851 150.053 o
90.9816 143.06 o
92.6438 138.973 o
172.598 174.734 o
165.168 162.757 o
109.457 145.965 o
47.6068 104.983 o
85.3115 143.906 o
153.441 174.238 o
162.593 151.246 o
117.762 156.67 o
138.66 178.456 o
119.909 164.187 o
159.7 167.455 o
153.987 184.556 o
158.372 173.984 o
178.176 173.227 o
239.105 187.139 o
144.009 175.99 o
165.309 164.81 o
103.277 151.88 o
205.413 185.961 o
111.627 155.185 o
120.253 148.397 o
127.882 168.139 o
159.018 176.767 o
102.799 134.13 o
144.462 178.418 o
115.909 157.366 o
71.6164 142.894 o
99.2399 152.703 o
124.845 151.767 o
83.5887 132.371 o
128.67 149.384 o
77.3025 142.613 o
102.906 136.359 o
64.0332 126.766 o
58.0037 111.501 o
169.999 201.11 o
171.866 183.707 o
207.54 184.568 o
175.635 180.737 o
218.472 188.399 o
179.842 179.442 o
167.368 174.125 o
153.488 155.803 o
139.485 171.704 o
148.971 174.383 o
155.548 200.373 o
235.389 189.359 o
236.384 179.207 o
117.766 150.418 o
199.488 166.011 o
91.8338 118.282 o
204.497 179.425 o
172.506 167.088 o
129.24 165.974 o
181.393 141.161 o
137.15 171.176 o
155.912 129.786 o
78.0795 116.262 o
106.187 152.575 o
87.8914 114.627 o
123.077 134.98 o
86.3431 135.581 o
80.7919 123.801 o
45.2841 106.341 o
27.1396 89.805 o
225.791 199.081 o
229.321 194.603 o
203.493 188.458 o
162.593 181.412 o
192.783 182.069 o
176.508 170.353 o
200.635 162.504 o
203.116 178.518 o
134.267 183.421 o
120.79 163.736 o
181.393 205.748 o
220.152 195.352 o
150.377 165.675 o
128.884 149.458 o
193.881 189.925 o
227.88 189.46 o
109.385 148.569 o
120.253 149.417 o
138.882 152.644 o
85.4752 138.628 o
163.662 177.846 o
169.78 167.124 o
165.309 164.81 o
121.634 142.979 o
116.035 152.148 o
165.509 156.541 o
106.58 129.66 o
124.4 141.19 o
95.6375 138.96 o
113.726 121.034 o
74.6483 137.343 o
186.603 184.304 o
224.15 191.427 o
252.01 237.849 o
233.75 186.339 o
193.881 229.856 o
193.561 181.838 o
203.116 172.182 o
220.536 152.816 o
186.299 178.252 o
244.051 199.922 o
209.29 155.857 o
116.254 154.286 o
181.758 190.346 o
153.95 179.741 o
120.253 152.491 o
153.136 181.492 o
103.277 149.965 o
165.183 174.908 o
97.54 135.942 o
187.214 166.175 o
190.747 187.315 o
125.195 156.703 o
75.7431 141.147 o
92.4803 116.141 o
111.027 129.864 o
67.2704 123.736 o
88.9824 151.256 o
139.485 129.033 o
99.4883 134.11 o
115.909 147.604 o
103.096 117.853 o
231.898 192.666 o
249.829 211.801 o
235.692 167.351 o
250.638 214.748 o
202.128 193.293 o
204.455 183.53 o
195.138 195.503 o
210.641 169.21 o
239.441 177.474 o
180.688 162.322 o
175.181 136.86 o
138.277 172.261 o
186.772 153.753 o
124.176 156.533 o
194.713 175.579 o
118.806 161.753 o
256.569 191.583 o
253.953 173.768 o
222.559 181.141 o
195.683 173.868 o
182.867 183.347 o
229.834 191.326 o
174.495 196.602 o
201.632 174.915 o
182.316 155.859 o
115.263 177.777 o
165.309 143.911 o
165.168 159.036 o
115.909 152.634 o
71.6164 135.934 o
34.0626 87.7166 o
226.309 201.044 o
257.344 176.501 o
228.178 185.617 o
209.753 175.631 o
180.878 179.67 o
203.837 179.737 o
203.856 173.88 o
207.537 180.087 o
157.303 186.843 o
178.176 187.756 o
195.138 180.227 o
181.393 204.037 o
117.762 167.852 o
223.257 197.874 o
229.663 184.136 o
203.212 193.701 o
217.203 177.353 o
228.221 180.451 o
203.116 199.386 o
227.88 198.89 o
210.235 187.482 o
195.683 185.347 o
187.631 179.045 o
186.299 178.624 o
192.783 189.147 o
99.4883 152.152 o
103.277 141.729 o
255.098 197.135 o
218.831 183.866 o
227.88 190.483 o
234.422 180.747 o
230.535 179.53 o
240.641 182.7 o
249.221 184.942 o
224.286 194.375 o
228.28 183.788 o
192.783 177.744 o
256.471 198.559 o
229.663 192.488 o
155.309 156.708 o
187.631 160.051 o
225.791 188.945 o
155.37 152.002 o
216.694 197.661 o
233.75 182.582 o
218.787 190.074 o
233.75 206.824 o
247.939 194.156 o
208.553 167.167 o
235.739 185.908 o
201.632 168.391 o
204.824 179.527 o
231.36 185.535 o
195.982 172.62 o
146.56 171.072 o
205.2 179.611 o
205.2 190.838 o
205.2 181.921 o
160.443 170.94 o
105.458 147.926 o
205.2 193.195 o
205.2 187.492 o
192.783 167.074 o
205.2 194.184 o
196.393 177.804 o
205.2 179.449 o
216.694 188.272 o
218.787 182.151 o
236.914 174.026 o
190.583 168.543 o
131.24 157.236 o
131.24 157.236 o
131.24 158.664 o
171.537 167.335 o
173.987 162.888 o
224.025 192.108 o
155.013 151.74 o
235.843 163.3 o
145.523 140.552 o
171.632 176.584 o
233.75 181.889 o
169.681 162.035 o
111.84 137.275 o
155.37 180.923 o
210.857 190.112 o
208.553 159.066 o
59.9382 129.444 o
196.393 178.04 o
201.291 170.458 o
169.156 161.121 o
131.159 160.486 o
188.992 168.306 o
159.761 154.339 o
117.393 157.801 o
38.1832 89.5262 o
225.223 217.022 o
225.623 200.663 o
202.731 198.408 o
218.983 183.432 o
205.664 183.819 o
201.291 198.718 o
228.868 189.306 o
188.992 190.571 o
197.942 192.897 o
210.857 173.155 o
151.104 163.073 o
189.654 170.511 o
115.253 143.264 o
233.75 213.734 o
228.56 206.884 o
191.735 192.053 o
195.046 192.787 o
248.44 196.186 o
111.408 137.056 o
240.338 197.956 o
235.771 187.023 o
162.784 168.372 o
59.9382 123.006 o
217.699 185.072 o
235.843 176.53 o
117.393 164.624 o
140.217 141.179 o
255.003 226.893 o
224.025 200.925 o
210.857 203.588 o
190.583 196.737 o
209.674 192.451 o
233.75 199.141 o
179.232 175.967 o
206.176 182.778 o
204.535 185.282 o
222.533 186.371 o
255.76 206.522 o
256.782 217.32 o
116.7 167.745 o
240.699 227.428 o
212.337 206.762 o
211.72 189.521 o
173.827 156.15 o
116.517 165.519 o
117.393 159.367 o
145.523 157.75 o
239.872 207.433 o
220.095 201.076 o
225.56 188.622 o
210.675 195.099 o
188.992 192.038 o
236.939 189.245 o
215.354 188.18 o
156.733 165.728 o
228.639 181.453 o
80.0024 150.736 o
257.445 236.903 o
243.183 230.154 o
215.164 213.506 o
198.882 194.504 o
167.458 175.226 o
205.664 176.709 o
187.232 175.609 o
210.857 198.383 o
174.187 174.163 o
208.527 203.033 o
183.315 171.625 o
208.527 207.478 o
154.317 158.3 o
146.335 165.823 o
121.485 159.238 o
145.523 167.396 o
103.017 160.066 o
201.291 183.425 o
177.755 188.326 o
189.654 194.922 o
168.882 173.421 o
170.517 170.775 o
202.29 176.88 o
224.821 172.107 o
235.843 168.02 o
145.991 181.847 o
167.458 161.562 o
225.223 174.052 o
117.362 133.078 o
117.362 158.329 o
102.965 145.213 o
155.37 146.749 o
226.604 194.019 o
211.616 200.826 o
231.36 181.432 o
194.103 170.863 o
218.787 173.675 o
225.791 183.797 o
193.457 178.63 o
177.057 174.523 o
165.087 175.801 o
180.184 182.101 o
166.337 179.051 o
169.45 170.098 o
155.929 176.703 o
208.89 178.596 o
157.502 161.21 o
140.119 158.982 o
206.176 183.568 o
224.025 199.504 o
199.778 192.136 o
156.733 174.69 o
204.866 178.894 o
177.755 182.998 o
142.792 179.535 o
169.526 152.583 o
190.583 175.568 o
155.37 156.156 o
186.825 172.125 o
194.179 169.298 o
165.711 169.795 o
187.232 176.823 o
125.619 148.013 o
120.988 147.555 o
255.029 212.155 o
253.348 215.58 o
236.594 210.65 o
246.525 197.549 o
201.525 196.477 o
237.723 169.422 o
224.821 169.759 o
233.983 205.977 o
224.025 197.947 o
237.088 195.26 o
248.632 196.901 o
209.039 188.878 o
203.434 187.016 o
225.395 186.966 o
216.694 216.463 o
165.711 173.719 o
210.299 193.773 o
235.71 204.909 o
194.103 201.612 o
224.917 209.704 o
193.457 202.513 o
239.68 194.607 o
233.75 195.839 o
215.901 200.385 o
218.209 198.252 o
224.025 203.509 o
219.319 181.573 o
208.062 183.509 o
250.402 186.671 o
156.733 165.868 o
250.402 206.76 o
238.757 186.645 o
252.534 200.622 o
221.918 203.556 o
235.11 194.479 o
204.194 181.759 o
239.68 192.613 o
240.241 197.724 o
221.424 179.708 o
199.017 169.093 o
203.318 179.643 o
236.336 168.776 o
165.982 178.346 o
180.321 179.134 o
201.291 205.655 o
220.972 208.62 o
222.176 210.898 o
224.025 208.795 o
92.8627 161.636 o
211.09 195.783 o
217.188 204.638 o
223.647 193.732 o
235.379 190.958 o
207.734 179.487 o
161.164 171.12 o
193.626 178.29 o
112.918 158.007 o
165.288 162.407 o
48.8655 123.742 o
228.811 213.643 o
187.232 193.147 o
235.282 200.729 o
242.952 192.684 o
220.238 197.625 o
219.128 203.154 o
254.034 211.954 o
194.103 197.793 o
213.905 189.396 o
229.959 186.48 o
245.572 191.466 o
185.678 181.805 o
192.587 181.304 o
197.623 177.483 o
182.555 170.795 o
224.821 212.668 o
151.368 175.828 o
244.217 201.529 o
202.893 197.951 o
220.918 178.633 o
245.042 190.943 o
203.678 177.496 o
203.708 189.776 o
224.257 207.855 o
243.045 188.071 o
214.68 181.27 o
225.791 182.148 o
155.37 169.737 o
91.6419 147.171 o
257.003 205.096 o
234.338 195.462 o
215.986 199.44 o
216.532 174.492 o
214.171 179.396 o
193.457 188.2 o
216.694 198.367 o
237.088 197.165 o
212.055 182.883 o
228.059 187.262 o
238.489 190.915 o
212.055 182.883 o
241.409 192.688 o
168.153 176.82 o
208.18 182.898 o
169.555 180.217 o
202.893 204.141 o
241.764 196.638 o
203.678 191.448 o
206.326 187.182 o
224.146 191.846 o
232.779 202.02 o
233.855 196.411 o
245.042 208.079 o
237.055 195.959 o
235.282 200.8 o
231.046 190.587 o
200.297 184.563 o
225.499 183.654 o
204.994 184.426 o
252.911 192.822 o
grestore
0.800 setlinewidth
0 setlinejoin
2 setlinecap
[] 0 setdash
0.000 setgray
gsave
43.2 43.2 m
43.2 259.2 l
stroke
grestore
gsave
259.2 43.2 m
259.2 259.2 l
stroke
grestore
gsave
43.2 43.2 m
259.2 43.2 l
stroke
grestore
gsave
43.2 259.2 m
259.2 259.2 l
stroke
grestore
1.000 setlinewidth
1 setlinejoin
0 setlinecap
[] 0 setdash
1.000 0.000 0.000 setrgbcolor
gsave
/o {
gsave
newpath
translate
1.0 setlinewidth
1 setlinejoin
0 setlinecap
0 -1.5 m
0.397805 -1.5 0.77937 -1.341951 1.06066 -1.06066 c
1.341951 -0.77937 1.5 -0.397805 1.5 0 c
1.5 0.397805 1.341951 0.77937 1.06066 1.06066 c
0.77937 1.341951 0.397805 1.5 0 1.5 c
-0.397805 1.5 -0.77937 1.341951 -1.06066 1.06066 c
-1.341951 0.77937 -1.5 0.397805 -1.5 0 c
-1.5 -0.397805 -1.341951 -0.77937 -1.06066 -1.06066 c
-0.77937 -1.341951 -0.397805 -1.5 0 -1.5 c
cl

gsave
1.000 0.000 0.000 setrgbcolor
fill
grestore
stroke
grestore
} bind def
66.6 243.475 o
grestore
0.000 setgray
/DejaVuSerif findfont
12.000 scalefont
setfont
gsave
84.000000 239.275000 translate
0.000000 rotate
0.000000 0.000000 m /at glyphshow
12.000000 0.000000 m /five glyphshow
19.634766 0.000000 m /space glyphshow
23.449219 0.000000 m /m glyphshow
grestore
0.000 0.000 1.000 setrgbcolor
gsave
/o {
gsave
newpath
translate
1.0 setlinewidth
1 setlinejoin
0 setlinecap
0 -1.5 m
0.397805 -1.5 0.77937 -1.341951 1.06066 -1.06066 c
1.341951 -0.77937 1.5 -0.397805 1.5 0 c
1.5 0.397805 1.341951 0.77937 1.06066 1.06066 c
0.77937 1.341951 0.397805 1.5 0 1.5 c
-0.397805 1.5 -0.77937 1.341951 -1.06066 1.06066 c
-1.341951 0.77937 -1.5 0.397805 -1.5 0 c
-1.5 -0.397805 -1.341951 -0.77937 -1.06066 -1.06066 c
-0.77937 -1.341951 -0.397805 -1.5 0 -1.5 c
cl

gsave
0.000 0.000 1.000 setrgbcolor
fill
grestore
stroke
grestore
} bind def
66.6 231.25 o
grestore
0.000 setgray
gsave
84.000000 227.050000 translate
0.000000 rotate
0.000000 0.000000 m /at glyphshow
12.000000 0.000000 m /space glyphshow
15.814453 0.000000 m /two glyphshow
23.449219 0.000000 m /zero glyphshow
31.083984 0.000000 m /space glyphshow
34.898438 0.000000 m /m glyphshow
grestore

end
showpage
