%!PS-Adobe-3.0 EPSF-3.0
%%Title: beam-emittance.eps
%%Creator: matplotlib version 2.2.2, http://matplotlib.org/
%%CreationDate: Mon Nov 19 01:09:17 2018
%%Orientation: portrait
%%BoundingBox: 18 252 594 540
%%EndComments
%%BeginProlog
/mpldict 9 dict def
mpldict begin
/m { moveto } bind def
/l { lineto } bind def
/r { rlineto } bind def
/c { curveto } bind def
/cl { closepath } bind def
/box {
m
1 index 0 r
0 exch r
neg 0 r
cl
} bind def
/clipbox {
box
clip
newpath
} bind def
%!PS-Adobe-3.0 Resource-Font
%%Title: DejaVu Serif
%%Copyright: Copyright (c) 2003 by Bitstream, Inc. All Rights Reserved. DejaVu changes are in public domain 
%%Creator: Converted from TrueType to type 3 by PPR
25 dict begin
/_d{bind def}bind def
/_m{moveto}_d
/_l{lineto}_d
/_cl{closepath eofill}_d
/_c{curveto}_d
/_sc{7 -1 roll{setcachedevice}{pop pop pop pop pop pop}ifelse}_d
/_e{exec}_d
/FontName /DejaVuSerif def
/PaintType 0 def
/FontMatrix[.001 0 0 .001 0 0]def
/FontBBox[-770 -347 2105 1109]def
/FontType 3 def
/Encoding [ /space /parenleft /parenright /comma /period /slash /zero /one /two /four /five /six /seven /eight /a /c /d /e /i /m /n /o /q /r /s /t /u /w ] def
/FontInfo 10 dict dup begin
/FamilyName (DejaVu Serif) def
/FullName (DejaVu Serif) def
/Notice (Copyright (c) 2003 by Bitstream, Inc. All Rights Reserved. DejaVu changes are in public domain ) def
/Weight (Book) def
/Version (Version 2.35) def
/ItalicAngle 0.0 def
/isFixedPitch false def
/UnderlinePosition -130 def
/UnderlineThickness 90 def
end readonly def
/CharStrings 29 dict dup begin
/.notdef 0 def
/space{318 0 0 0 0 0 _sc
}_d
/parenleft{390 0 79 -155 319 760 _sc
319 -155 _m
239 -119 179 -63 139 13 _c
99 89 79 186 79 302 _c
79 418 99 514 139 591 _c
179 668 239 724 319 760 _c
319 712 _l
269 677 233 628 211 566 _c
189 503 178 415 178 302 _c
178 188 189 100 211 38 _c
233 -24 269 -72 319 -107 _c
319 -155 _l
_cl}_d
/parenright{390 0 71 -155 311 760 _sc
71 -155 _m
71 -107 _l
121 -72 157 -24 179 38 _c
201 100 212 188 212 302 _c
212 415 201 503 179 566 _c
157 628 121 677 71 712 _c
71 760 _l
150 724 210 668 250 591 _c
290 514 311 418 311 302 _c
311 186 290 89 250 13 _c
210 -63 150 -119 71 -155 _c
_cl}_d
/comma{318 0 36 -135 221 111 _sc
36 -96 _m
66 -73 89 -47 103 -17 _c
117 13 125 49 125 93 _c
125 111 _l
221 111 _l
218 55 205 7 181 -32 _c
157 -71 122 -105 75 -135 _c
36 -96 _l
_cl}_d
/period{318 0 94 -13 224 116 _sc
94 51 _m
94 69 100 84 112 97 _c
124 109 140 116 159 116 _c
177 116 192 109 205 97 _c
217 84 224 69 224 51 _c
224 33 217 17 205 5 _c
192 -7 177 -13 159 -13 _c
140 -13 124 -7 112 5 _c
100 17 94 32 94 51 _c
_cl}_d
/slash{337 0 0 -92 337 729 _sc
259 729 _m
337 729 _l
78 -92 _l
0 -92 _l
259 729 _l
_cl}_d
/zero{636 0 66 -13 570 742 _sc
318 34 _m
368 34 405 61 430 116 _c
454 170 467 253 467 364 _c
467 474 454 557 430 612 _c
405 666 368 694 318 694 _c
268 694 230 666 206 612 _c
181 557 169 474 169 364 _c
169 253 181 170 206 116 _c
230 61 268 34 318 34 _c
318 -13 _m
238 -13 176 20 132 86 _c
88 152 66 244 66 364 _c
66 483 88 576 132 642 _c
176 708 238 742 318 742 _c
397 742 459 708 503 642 _c
547 576 570 483 570 364 _c
570 244 547 152 503 86 _c
459 20 397 -13 318 -13 _c
_cl}_d
/one{636 0 122 0 494 742 _sc
142 0 _m
142 52 _l
269 52 _l
269 658 _l
122 563 _l
122 627 _l
300 742 _l
367 742 _l
367 52 _l
494 52 _l
494 0 _l
142 0 _l
_cl}_d
/two{{636 0 68 0 538 742 _sc
128 555 _m
73 555 _l
73 685 _l
107 703 142 717 178 727 _c
213 737 248 742 282 742 _c
358 742 418 723 462 687 _c
506 650 528 600 528 537 _c
528 465 478 380 378 281 _c
370 273 365 268 361 264 _c
177 80 _l
481 80 _l
481 170 _l
538 170 _l
538 0 _l
68 0 _l
68 53 _l
289 274 _l
337 322 372 367 393 408 _c
414 449 425 492 425 537 _c
}_e{425 586 412 624 386 652 _c
360 680 325 694 281 694 _c
234 694 198 682 173 659 _c
147 636 132 601 128 555 _c
_cl}_e}_d
/four{636 0 31 0 586 742 _sc
349 247 _m
349 635 _l
100 247 _l
349 247 _l
564 0 _m
232 0 _l
232 52 _l
349 52 _l
349 195 _l
31 195 _l
31 248 _l
350 742 _l
447 742 _l
447 247 _l
586 247 _l
586 195 _l
447 195 _l
447 52 _l
564 52 _l
564 0 _l
_cl}_d
/five{{636 0 85 -13 559 729 _sc
503 729 _m
503 649 _l
169 649 _l
169 440 _l
185 452 205 460 228 466 _c
250 472 276 475 304 475 _c
382 475 444 453 490 409 _c
536 365 559 306 559 231 _c
559 153 536 93 490 51 _c
444 8 379 -13 296 -13 _c
262 -13 228 -9 193 -1 _c
157 6 121 18 85 35 _c
85 177 _l
140 177 _l
143 130 158 94 184 70 _c
210 46 248 34 296 34 _c
}_e{347 34 386 51 414 85 _c
442 119 456 167 456 231 _c
456 294 442 342 415 376 _c
387 410 348 427 296 427 _c
266 427 240 421 218 411 _c
196 401 176 385 159 363 _c
117 363 _l
117 729 _l
503 729 _l
_cl}_e}_d
/six{{636 0 67 -13 573 742 _sc
327 34 _m
373 34 408 50 433 84 _c
457 118 470 166 470 230 _c
470 293 457 341 433 375 _c
408 409 373 426 327 426 _c
280 426 244 409 220 377 _c
196 344 184 297 184 236 _c
184 171 196 121 221 86 _c
245 51 281 34 327 34 _c
168 401 _m
190 425 215 444 243 456 _c
271 468 302 474 338 474 _c
410 474 468 452 510 408 _c
552 364 573 305 573 230 _c
}_e{573 156 550 97 505 53 _c
459 9 399 -13 323 -13 _c
241 -13 177 17 133 78 _c
89 139 67 227 67 341 _c
67 468 93 567 145 637 _c
197 707 271 742 367 742 _c
393 742 420 739 448 735 _c
476 730 505 723 535 713 _c
535 593 _l
480 593 _l
476 625 463 650 442 668 _c
421 685 393 694 357 694 _c
293 694 246 670 215 622 _c
184 574 168 500 168 401 _c
_cl}_e}_d
/seven{636 0 84 0 564 729 _sc
564 679 _m
279 0 _l
206 0 _l
478 649 _l
141 649 _l
141 559 _l
84 559 _l
84 729 _l
564 729 _l
564 679 _l
_cl}_d
/eight{{636 0 67 -13 569 742 _sc
466 199 _m
466 251 453 291 427 320 _c
401 349 364 364 318 364 _c
271 364 235 349 209 320 _c
183 291 170 251 170 199 _c
170 147 183 106 209 77 _c
235 48 271 34 318 34 _c
364 34 401 48 427 77 _c
453 106 466 147 466 199 _c
446 553 _m
446 597 434 632 412 657 _c
389 681 358 694 318 694 _c
278 694 246 681 224 657 _c
201 632 190 597 190 553 _c
}_e{190 508 201 473 224 449 _c
246 424 278 412 318 412 _c
358 412 389 424 412 449 _c
434 473 446 508 446 553 _c
393 388 _m
448 380 491 360 522 327 _c
553 293 569 251 569 199 _c
569 131 547 78 504 42 _c
460 5 398 -13 318 -13 _c
237 -13 175 5 132 42 _c
88 78 67 131 67 199 _c
67 251 82 293 113 327 _c
144 360 187 380 243 388 _c
193 396 156 415 130 444 _c
}_e{104 472 91 509 91 553 _c
91 611 111 657 151 691 _c
191 725 247 742 318 742 _c
388 742 444 725 484 691 _c
524 657 545 611 545 553 _c
545 509 531 472 505 444 _c
479 415 441 396 393 388 _c
_cl}_e}_d
/a{{596 0 50 -13 568 533 _sc
398 163 _m
398 273 _l
282 273 _l
237 273 204 263 182 244 _c
160 224 150 195 150 156 _c
150 120 161 91 183 70 _c
205 48 235 38 273 38 _c
310 38 340 49 363 72 _c
386 95 398 125 398 163 _c
488 324 _m
488 52 _l
568 52 _l
568 0 _l
398 0 _l
398 56 _l
378 32 355 14 329 3 _c
303 -7 272 -13 238 -13 _c
180 -13 134 2 100 32 _c
}_e{66 62 50 104 50 156 _c
50 209 69 250 108 280 _c
146 310 201 325 272 325 _c
398 325 _l
398 361 _l
398 400 386 430 362 452 _c
338 474 304 485 261 485 _c
225 485 197 476 176 460 _c
154 444 141 420 136 388 _c
90 388 _l
90 493 _l
121 506 151 516 181 523 _c
210 529 239 533 267 533 _c
339 533 393 515 431 479 _c
469 443 488 392 488 324 _c
_cl}_e}_d
/c{{560 0 50 -13 514 533 _sc
514 156 _m
501 100 477 58 441 30 _c
405 1 358 -13 301 -13 _c
225 -13 165 11 119 61 _c
73 111 50 177 50 260 _c
50 342 73 408 119 458 _c
165 508 225 533 301 533 _c
333 533 366 529 399 521 _c
431 513 464 502 497 487 _c
497 354 _l
445 354 _l
438 399 423 432 400 453 _c
377 474 344 485 302 485 _c
253 485 216 466 192 428 _c
}_e{167 390 155 334 155 260 _c
155 184 167 128 192 90 _c
216 52 253 34 302 34 _c
340 34 371 44 394 64 _c
417 84 433 115 442 156 _c
514 156 _l
_cl}_e}_d
/d{{640 0 50 -13 611 760 _sc
525 52 _m
611 52 _l
611 0 _l
435 0 _l
435 81 _l
417 48 395 24 368 9 _c
340 -5 307 -13 267 -13 _c
203 -13 150 12 110 62 _c
70 112 50 178 50 260 _c
50 341 70 407 110 457 _c
150 507 203 533 267 533 _c
307 533 340 525 368 510 _c
395 494 417 470 435 438 _c
435 708 _l
350 708 _l
350 760 _l
525 760 _l
525 52 _l
435 234 _m
435 285 _l
}_e{435 347 423 394 399 427 _c
375 460 340 477 295 477 _c
249 477 214 458 190 422 _c
166 386 155 332 155 260 _c
155 188 166 133 190 97 _c
214 60 249 42 295 42 _c
340 42 375 58 399 91 _c
423 123 435 171 435 234 _c
_cl}_e}_d
/e{{592 0 50 -13 542 533 _sc
542 250 _m
155 250 _l
155 246 _l
155 176 168 123 194 87 _c
220 51 259 34 311 34 _c
350 34 382 44 408 65 _c
433 85 451 116 461 157 _c
533 157 _l
519 100 492 57 454 29 _c
415 1 364 -13 302 -13 _c
226 -13 165 11 119 61 _c
73 111 50 177 50 260 _c
50 342 72 408 118 458 _c
163 508 222 533 296 533 _c
374 533 435 508 477 460 _c
}_e{519 412 540 342 542 250 _c
436 302 _m
434 362 421 408 397 439 _c
373 469 340 485 296 485 _c
254 485 222 469 198 438 _c
174 407 160 362 155 302 _c
436 302 _l
_cl}_e}_d
/i{320 0 36 0 297 736 _sc
97 680 _m
97 695 102 708 113 719 _c
124 730 137 736 153 736 _c
167 736 180 730 191 719 _c
202 708 208 695 208 680 _c
208 664 202 651 192 641 _c
181 630 168 625 153 625 _c
137 625 124 630 113 641 _c
102 651 97 664 97 680 _c
212 52 _m
297 52 _l
297 0 _l
36 0 _l
36 52 _l
122 52 _l
122 467 _l
36 467 _l
36 519 _l
212 519 _l
212 52 _l
_cl}_d
/m{{948 0 36 0 921 533 _sc
518 418 _m
535 456 557 484 584 504 _c
611 523 642 533 678 533 _c
732 533 773 516 800 482 _c
826 448 840 398 840 330 _c
840 52 _l
921 52 _l
921 0 _l
672 0 _l
672 52 _l
750 52 _l
750 320 _l
750 372 742 410 726 433 _c
710 455 685 467 649 467 _c
609 467 578 451 557 421 _c
536 391 526 347 526 289 _c
526 52 _l
604 52 _l
604 0 _l
358 0 _l
}_e{358 52 _l
436 52 _l
436 323 _l
436 375 428 412 412 434 _c
396 456 371 467 335 467 _c
295 467 264 451 243 421 _c
222 391 212 347 212 289 _c
212 52 _l
290 52 _l
290 0 _l
41 0 _l
41 52 _l
122 52 _l
122 468 _l
36 468 _l
36 519 _l
212 519 _l
212 427 _l
228 461 249 488 275 506 _c
301 524 330 533 363 533 _c
403 533 436 523 463 503 _c
}_e{490 483 508 454 518 418 _c
_cl}_e}_d
/n{{644 0 36 0 616 533 _sc
41 0 _m
41 52 _l
122 52 _l
122 467 _l
36 467 _l
36 519 _l
212 519 _l
212 427 _l
228 461 250 488 276 506 _c
302 524 333 533 369 533 _c
426 533 468 516 495 484 _c
522 451 536 400 536 330 _c
536 52 _l
616 52 _l
616 0 _l
368 0 _l
368 52 _l
446 52 _l
446 302 _l
446 365 438 408 422 432 _c
406 456 379 468 340 468 _c
}_e{298 468 266 452 244 422 _c
222 391 212 347 212 289 _c
212 52 _l
290 52 _l
290 0 _l
41 0 _l
_cl}_e}_d
/o{602 0 50 -13 552 533 _sc
301 34 _m
349 34 385 53 410 91 _c
434 129 447 185 447 260 _c
447 334 434 390 410 428 _c
385 466 349 485 301 485 _c
253 485 216 466 192 428 _c
167 390 155 334 155 260 _c
155 185 167 129 192 91 _c
216 53 253 34 301 34 _c
301 -13 _m
225 -13 165 11 119 61 _c
73 111 50 177 50 260 _c
50 342 72 408 118 458 _c
164 508 225 533 301 533 _c
377 533 437 508 483 458 _c
529 408 552 342 552 260 _c
552 177 529 111 483 61 _c
437 11 377 -13 301 -13 _c
_cl}_d
/q{{640 0 50 -207 611 533 _sc
525 467 _m
525 -155 _l
611 -155 _l
611 -207 _l
350 -207 _l
350 -155 _l
435 -155 _l
435 81 _l
417 48 395 24 368 9 _c
340 -5 307 -13 267 -13 _c
203 -13 150 12 110 62 _c
70 112 50 178 50 260 _c
50 341 70 407 110 457 _c
150 507 203 533 267 533 _c
307 533 340 525 368 510 _c
395 494 417 470 435 438 _c
435 519 _l
611 519 _l
611 467 _l
525 467 _l
}_e{435 285 _m
435 347 423 394 399 427 _c
375 460 340 477 295 477 _c
249 477 214 458 190 422 _c
166 386 155 332 155 260 _c
155 188 166 133 190 97 _c
214 60 249 42 295 42 _c
340 42 375 58 399 91 _c
423 123 435 171 435 234 _c
435 285 _l
_cl}_e}_d
/r{478 0 36 0 478 533 _sc
478 520 _m
478 390 _l
426 390 _l
424 416 417 435 405 448 _c
392 460 373 467 349 467 _c
305 467 271 451 247 421 _c
223 390 212 346 212 289 _c
212 52 _l
316 52 _l
316 0 _l
41 0 _l
41 52 _l
122 52 _l
122 468 _l
36 468 _l
36 519 _l
212 519 _l
212 427 _l
229 463 251 489 279 507 _c
307 524 341 533 381 533 _c
395 533 411 531 427 529 _c
443 527 460 524 478 520 _c
_cl}_d
/s{{513 0 56 -13 462 533 _sc
56 29 _m
56 150 _l
108 150 _l
109 111 121 82 144 63 _c
167 43 201 34 246 34 _c
286 34 317 41 338 57 _c
359 72 370 94 370 123 _c
370 145 362 164 347 178 _c
331 192 299 207 249 223 _c
184 245 _l
139 259 107 277 87 299 _c
67 320 57 347 57 381 _c
57 428 74 465 109 492 _c
144 519 192 533 254 533 _c
281 533 310 529 340 522 _c
}_e{370 515 402 505 434 491 _c
434 378 _l
382 378 _l
380 411 369 437 347 456 _c
325 475 295 485 257 485 _c
219 485 190 478 171 465 _c
151 451 142 431 142 405 _c
142 383 149 365 164 352 _c
178 339 208 326 252 312 _c
323 290 _l
372 274 407 255 429 232 _c
451 209 462 180 462 144 _c
462 94 443 56 405 28 _c
367 0 316 -13 250 -13 _c
216 -13 184 -9 152 -3 _c
}_e{120 3 88 14 56 29 _c
_cl}_e}_d
/t{402 0 29 -13 394 680 _sc
108 467 _m
29 467 _l
29 519 _l
108 519 _l
108 680 _l
198 680 _l
198 519 _l
367 519 _l
367 467 _l
198 467 _l
198 137 _l
198 93 202 64 211 52 _c
219 40 235 34 258 34 _c
281 34 298 41 309 55 _c
319 69 325 91 326 122 _c
394 122 _l
391 74 378 40 355 19 _c
332 -2 297 -13 250 -13 _c
198 -13 161 -1 140 21 _c
118 43 108 82 108 137 _c
108 467 _l
_cl}_d
/u{{644 0 27 -13 607 519 _sc
354 519 _m
522 519 _l
522 52 _l
607 52 _l
607 0 _l
432 0 _l
432 92 _l
415 57 393 31 367 13 _c
341 -4 310 -13 276 -13 _c
218 -13 175 3 148 35 _c
121 67 108 119 108 189 _c
108 467 _l
27 467 _l
27 519 _l
198 519 _l
198 217 _l
198 153 205 110 221 87 _c
237 63 264 52 304 52 _c
346 52 377 67 399 98 _c
421 128 432 173 432 231 _c
}_e{432 467 _l
354 467 _l
354 519 _l
_cl}_e}_d
/w{856 0 16 0 843 519 _sc
480 519 _m
613 114 _l
730 467 _l
655 467 _l
655 519 _l
843 519 _l
843 467 _l
785 467 _l
631 0 _l
556 0 _l
428 388 _l
300 0 _l
228 0 _l
74 467 _l
16 467 _l
16 519 _l
251 519 _l
251 467 _l
167 467 _l
283 114 _l
417 519 _l
480 519 _l
_cl}_d
end readonly def

/BuildGlyph
 {exch begin
 CharStrings exch
 2 copy known not{pop /.notdef}if
 true 3 1 roll get exec
 end}_d

/BuildChar {
 1 index /Encoding get exch get
 1 index /BuildGlyph get exec
}_d

FontName currentdict end definefont pop
%!PS-Adobe-3.0 Resource-Font
%%Title: DejaVu Sans Oblique
%%Copyright: Copyright (c) 2003 by Bitstream, Inc. All Rights Reserved. Copyright (c) 2006 by Tavmjong Bah. All Rights Reserved. DejaVu changes are in public domain 
%%Creator: Converted from TrueType to type 3 by PPR
25 dict begin
/_d{bind def}bind def
/_m{moveto}_d
/_l{lineto}_d
/_cl{closepath eofill}_d
/_c{curveto}_d
/_sc{7 -1 roll{setcachedevice}{pop pop pop pop pop pop}ifelse}_d
/_e{exec}_d
/FontName /DejaVuSans-Oblique def
/PaintType 0 def
/FontMatrix[.001 0 0 .001 0 0]def
/FontBBox[-1016 -350 1659 1068]def
/FontType 3 def
/Encoding [ /x /y /z /pi ] def
/FontInfo 10 dict dup begin
/FamilyName (DejaVu Sans) def
/FullName (DejaVu Sans Oblique) def
/Notice (Copyright (c) 2003 by Bitstream, Inc. All Rights Reserved. Copyright (c) 2006 by Tavmjong Bah. All Rights Reserved. DejaVu changes are in public domain ) def
/Weight (Oblique) def
/Version (Version 2.35) def
/ItalicAngle -11.0 def
/isFixedPitch false def
/UnderlinePosition -130 def
/UnderlineThickness 90 def
end readonly def
/CharStrings 5 dict dup begin
/.notdef 0 def
/x{592 0 -25 0 600 547 _sc
600 547 _m
349 279 _l
503 0 _l
400 0 _l
284 217 _l
83 0 _l
-25 0 _l
243 288 _l
100 547 _l
203 547 _l
308 349 _l
491 547 _l
600 547 _l
_cl}_d
/y{592 0 -24 -207 603 547 _sc
248 -50 _m
206 -120 172 -163 146 -181 _c
120 -198 86 -207 46 -207 _c
-24 -207 _l
-9 -132 _l
42 -132 _l
67 -132 88 -125 106 -111 _c
123 -97 143 -71 165 -31 _c
193 20 _l
72 547 _l
167 547 _l
258 128 _l
509 547 _l
603 547 _l
248 -50 _l
_cl}_d
/z{525 0 -2 0 543 547 _sc
116 547 _m
543 547 _l
527 465 _l
115 72 _l
455 72 _l
441 0 _l
-2 0 _l
13 82 _l
425 475 _l
102 475 _l
116 547 _l
_cl}_d
/pi{{602 0 55 -18 615 547 _sc
91 547 _m
615 547 _l
598 457 _l
529 457 _l
463 121 _l
459 97 460 80 466 70 _c
472 60 483 55 501 55 _c
506 55 512 55 520 57 _c
527 57 532 58 534 58 _c
521 -6 _l
509 -10 497 -13 485 -15 _c
472 -17 460 -18 448 -18 _c
408 -18 383 -7 373 13 _c
362 34 362 73 374 131 _c
437 457 _l
235 457 _l
146 0 _l
55 0 _l
144 457 _l
74 457 _l
}_e{91 547 _l
_cl}_e}_d
end readonly def

/BuildGlyph
 {exch begin
 CharStrings exch
 2 copy known not{pop /.notdef}if
 true 3 1 roll get exec
 end}_d

/BuildChar {
 1 index /Encoding get exch get
 1 index /BuildGlyph get exec
}_d

FontName currentdict end definefont pop
end
%%EndProlog
mpldict begin
18 252 translate
576 288 0 0 clipbox
gsave
0 0 m
576 0 l
576 288 l
0 288 l
cl
1.000 setgray
fill
grestore
gsave
86.4 43.2 m
518.4 43.2 l
518.4 259.2 l
86.4 259.2 l
cl
1.000 setgray
fill
grestore
0.800 setlinewidth
1 setlinejoin
2 setlinecap
[] 0 setdash
0.690 setgray
gsave
432 216 86.4 43.2 clipbox
105.052085 43.2 m
105.052085 259.2 l
stroke
grestore
1.000 setlinewidth
0 setlinecap
0.000 setgray
gsave
/o {
gsave
newpath
translate
1.0 setlinewidth
1 setlinejoin
0 setlinecap
0 0 m
0 5 l

gsave
0.000 setgray
fill
grestore
stroke
grestore
} bind def
105.052 43.2 o
grestore
gsave
/o {
gsave
newpath
translate
1.0 setlinewidth
1 setlinejoin
0 setlinecap
0 0 m
0 -5 l

gsave
0.000 setgray
fill
grestore
stroke
grestore
} bind def
105.052 259.2 o
grestore
/DejaVuSerif findfont
10.000 scalefont
setfont
gsave
97.098960 32.106250 translate
0.000000 rotate
0.000000 0.000000 m /zero glyphshow
6.362305 0.000000 m /period glyphshow
9.541016 0.000000 m /zero glyphshow
grestore
0.800 setlinewidth
2 setlinecap
0.690 setgray
gsave
432 216 86.4 43.2 clipbox
154.266029 43.2 m
154.266029 259.2 l
stroke
grestore
1.000 setlinewidth
0 setlinecap
0.000 setgray
gsave
/o {
gsave
newpath
translate
1.0 setlinewidth
1 setlinejoin
0 setlinecap
0 0 m
0 5 l

gsave
0.000 setgray
fill
grestore
stroke
grestore
} bind def
154.266 43.2 o
grestore
gsave
/o {
gsave
newpath
translate
1.0 setlinewidth
1 setlinejoin
0 setlinecap
0 0 m
0 -5 l

gsave
0.000 setgray
fill
grestore
stroke
grestore
} bind def
154.266 259.2 o
grestore
gsave
146.312904 32.106250 translate
0.000000 rotate
0.000000 0.000000 m /two glyphshow
6.362305 0.000000 m /period glyphshow
9.541016 0.000000 m /five glyphshow
grestore
0.800 setlinewidth
2 setlinecap
0.690 setgray
gsave
432 216 86.4 43.2 clipbox
203.479973 43.2 m
203.479973 259.2 l
stroke
grestore
1.000 setlinewidth
0 setlinecap
0.000 setgray
gsave
/o {
gsave
newpath
translate
1.0 setlinewidth
1 setlinejoin
0 setlinecap
0 0 m
0 5 l

gsave
0.000 setgray
fill
grestore
stroke
grestore
} bind def
203.48 43.2 o
grestore
gsave
/o {
gsave
newpath
translate
1.0 setlinewidth
1 setlinejoin
0 setlinecap
0 0 m
0 -5 l

gsave
0.000 setgray
fill
grestore
stroke
grestore
} bind def
203.48 259.2 o
grestore
gsave
195.526848 32.106250 translate
0.000000 rotate
0.000000 0.000000 m /five glyphshow
6.362305 0.000000 m /period glyphshow
9.541016 0.000000 m /zero glyphshow
grestore
0.800 setlinewidth
2 setlinecap
0.690 setgray
gsave
432 216 86.4 43.2 clipbox
252.693917 43.2 m
252.693917 259.2 l
stroke
grestore
1.000 setlinewidth
0 setlinecap
0.000 setgray
gsave
/o {
gsave
newpath
translate
1.0 setlinewidth
1 setlinejoin
0 setlinecap
0 0 m
0 5 l

gsave
0.000 setgray
fill
grestore
stroke
grestore
} bind def
252.694 43.2 o
grestore
gsave
/o {
gsave
newpath
translate
1.0 setlinewidth
1 setlinejoin
0 setlinecap
0 0 m
0 -5 l

gsave
0.000 setgray
fill
grestore
stroke
grestore
} bind def
252.694 259.2 o
grestore
gsave
244.740792 32.106250 translate
0.000000 rotate
0.000000 0.000000 m /seven glyphshow
6.362305 0.000000 m /period glyphshow
9.541016 0.000000 m /five glyphshow
grestore
0.800 setlinewidth
2 setlinecap
0.690 setgray
gsave
432 216 86.4 43.2 clipbox
301.907861 43.2 m
301.907861 259.2 l
stroke
grestore
1.000 setlinewidth
0 setlinecap
0.000 setgray
gsave
/o {
gsave
newpath
translate
1.0 setlinewidth
1 setlinejoin
0 setlinecap
0 0 m
0 5 l

gsave
0.000 setgray
fill
grestore
stroke
grestore
} bind def
301.908 43.2 o
grestore
gsave
/o {
gsave
newpath
translate
1.0 setlinewidth
1 setlinejoin
0 setlinecap
0 0 m
0 -5 l

gsave
0.000 setgray
fill
grestore
stroke
grestore
} bind def
301.908 259.2 o
grestore
gsave
290.775048 32.106250 translate
0.000000 rotate
0.000000 0.000000 m /one glyphshow
6.362305 0.000000 m /zero glyphshow
12.724609 0.000000 m /period glyphshow
15.903320 0.000000 m /zero glyphshow
grestore
0.800 setlinewidth
2 setlinecap
0.690 setgray
gsave
432 216 86.4 43.2 clipbox
351.121805 43.2 m
351.121805 259.2 l
stroke
grestore
1.000 setlinewidth
0 setlinecap
0.000 setgray
gsave
/o {
gsave
newpath
translate
1.0 setlinewidth
1 setlinejoin
0 setlinecap
0 0 m
0 5 l

gsave
0.000 setgray
fill
grestore
stroke
grestore
} bind def
351.122 43.2 o
grestore
gsave
/o {
gsave
newpath
translate
1.0 setlinewidth
1 setlinejoin
0 setlinecap
0 0 m
0 -5 l

gsave
0.000 setgray
fill
grestore
stroke
grestore
} bind def
351.122 259.2 o
grestore
gsave
339.988992 32.106250 translate
0.000000 rotate
0.000000 0.000000 m /one glyphshow
6.362305 0.000000 m /two glyphshow
12.724609 0.000000 m /period glyphshow
15.903320 0.000000 m /five glyphshow
grestore
0.800 setlinewidth
2 setlinecap
0.690 setgray
gsave
432 216 86.4 43.2 clipbox
400.335748 43.2 m
400.335748 259.2 l
stroke
grestore
1.000 setlinewidth
0 setlinecap
0.000 setgray
gsave
/o {
gsave
newpath
translate
1.0 setlinewidth
1 setlinejoin
0 setlinecap
0 0 m
0 5 l

gsave
0.000 setgray
fill
grestore
stroke
grestore
} bind def
400.336 43.2 o
grestore
gsave
/o {
gsave
newpath
translate
1.0 setlinewidth
1 setlinejoin
0 setlinecap
0 0 m
0 -5 l

gsave
0.000 setgray
fill
grestore
stroke
grestore
} bind def
400.336 259.2 o
grestore
gsave
389.202936 32.106250 translate
0.000000 rotate
0.000000 0.000000 m /one glyphshow
6.362305 0.000000 m /five glyphshow
12.724609 0.000000 m /period glyphshow
15.903320 0.000000 m /zero glyphshow
grestore
0.800 setlinewidth
2 setlinecap
0.690 setgray
gsave
432 216 86.4 43.2 clipbox
449.549692 43.2 m
449.549692 259.2 l
stroke
grestore
1.000 setlinewidth
0 setlinecap
0.000 setgray
gsave
/o {
gsave
newpath
translate
1.0 setlinewidth
1 setlinejoin
0 setlinecap
0 0 m
0 5 l

gsave
0.000 setgray
fill
grestore
stroke
grestore
} bind def
449.55 43.2 o
grestore
gsave
/o {
gsave
newpath
translate
1.0 setlinewidth
1 setlinejoin
0 setlinecap
0 0 m
0 -5 l

gsave
0.000 setgray
fill
grestore
stroke
grestore
} bind def
449.55 259.2 o
grestore
gsave
438.416880 32.106250 translate
0.000000 rotate
0.000000 0.000000 m /one glyphshow
6.362305 0.000000 m /seven glyphshow
12.724609 0.000000 m /period glyphshow
15.903320 0.000000 m /five glyphshow
grestore
0.800 setlinewidth
2 setlinecap
0.690 setgray
gsave
432 216 86.4 43.2 clipbox
498.763636 43.2 m
498.763636 259.2 l
stroke
grestore
1.000 setlinewidth
0 setlinecap
0.000 setgray
gsave
/o {
gsave
newpath
translate
1.0 setlinewidth
1 setlinejoin
0 setlinecap
0 0 m
0 5 l

gsave
0.000 setgray
fill
grestore
stroke
grestore
} bind def
498.764 43.2 o
grestore
gsave
/o {
gsave
newpath
translate
1.0 setlinewidth
1 setlinejoin
0 setlinecap
0 0 m
0 -5 l

gsave
0.000 setgray
fill
grestore
stroke
grestore
} bind def
498.764 259.2 o
grestore
gsave
487.630824 32.106250 translate
0.000000 rotate
0.000000 0.000000 m /two glyphshow
6.362305 0.000000 m /zero glyphshow
12.724609 0.000000 m /period glyphshow
15.903320 0.000000 m /zero glyphshow
grestore
0.700 setlinewidth
gsave
/o {
gsave
newpath
translate
0.7 setlinewidth
1 setlinejoin
0 setlinecap
0 0 m
0 3 l

gsave
0.000 setgray
fill
grestore
stroke
grestore
} bind def
92.7486 43.2 o
grestore
gsave
/o {
gsave
newpath
translate
0.7 setlinewidth
1 setlinejoin
0 setlinecap
0 0 m
0 -3 l

gsave
0.000 setgray
fill
grestore
stroke
grestore
} bind def
92.7486 259.2 o
grestore
gsave
/o {
gsave
newpath
translate
0.7 setlinewidth
1 setlinejoin
0 setlinecap
0 0 m
0 3 l

gsave
0.000 setgray
fill
grestore
stroke
grestore
} bind def
117.356 43.2 o
grestore
gsave
/o {
gsave
newpath
translate
0.7 setlinewidth
1 setlinejoin
0 setlinecap
0 0 m
0 -3 l

gsave
0.000 setgray
fill
grestore
stroke
grestore
} bind def
117.356 259.2 o
grestore
gsave
/o {
gsave
newpath
translate
0.7 setlinewidth
1 setlinejoin
0 setlinecap
0 0 m
0 3 l

gsave
0.000 setgray
fill
grestore
stroke
grestore
} bind def
129.659 43.2 o
grestore
gsave
/o {
gsave
newpath
translate
0.7 setlinewidth
1 setlinejoin
0 setlinecap
0 0 m
0 -3 l

gsave
0.000 setgray
fill
grestore
stroke
grestore
} bind def
129.659 259.2 o
grestore
gsave
/o {
gsave
newpath
translate
0.7 setlinewidth
1 setlinejoin
0 setlinecap
0 0 m
0 3 l

gsave
0.000 setgray
fill
grestore
stroke
grestore
} bind def
141.963 43.2 o
grestore
gsave
/o {
gsave
newpath
translate
0.7 setlinewidth
1 setlinejoin
0 setlinecap
0 0 m
0 -3 l

gsave
0.000 setgray
fill
grestore
stroke
grestore
} bind def
141.963 259.2 o
grestore
gsave
/o {
gsave
newpath
translate
0.7 setlinewidth
1 setlinejoin
0 setlinecap
0 0 m
0 3 l

gsave
0.000 setgray
fill
grestore
stroke
grestore
} bind def
166.57 43.2 o
grestore
gsave
/o {
gsave
newpath
translate
0.7 setlinewidth
1 setlinejoin
0 setlinecap
0 0 m
0 -3 l

gsave
0.000 setgray
fill
grestore
stroke
grestore
} bind def
166.57 259.2 o
grestore
gsave
/o {
gsave
newpath
translate
0.7 setlinewidth
1 setlinejoin
0 setlinecap
0 0 m
0 3 l

gsave
0.000 setgray
fill
grestore
stroke
grestore
} bind def
178.873 43.2 o
grestore
gsave
/o {
gsave
newpath
translate
0.7 setlinewidth
1 setlinejoin
0 setlinecap
0 0 m
0 -3 l

gsave
0.000 setgray
fill
grestore
stroke
grestore
} bind def
178.873 259.2 o
grestore
gsave
/o {
gsave
newpath
translate
0.7 setlinewidth
1 setlinejoin
0 setlinecap
0 0 m
0 3 l

gsave
0.000 setgray
fill
grestore
stroke
grestore
} bind def
191.176 43.2 o
grestore
gsave
/o {
gsave
newpath
translate
0.7 setlinewidth
1 setlinejoin
0 setlinecap
0 0 m
0 -3 l

gsave
0.000 setgray
fill
grestore
stroke
grestore
} bind def
191.176 259.2 o
grestore
gsave
/o {
gsave
newpath
translate
0.7 setlinewidth
1 setlinejoin
0 setlinecap
0 0 m
0 3 l

gsave
0.000 setgray
fill
grestore
stroke
grestore
} bind def
215.783 43.2 o
grestore
gsave
/o {
gsave
newpath
translate
0.7 setlinewidth
1 setlinejoin
0 setlinecap
0 0 m
0 -3 l

gsave
0.000 setgray
fill
grestore
stroke
grestore
} bind def
215.783 259.2 o
grestore
gsave
/o {
gsave
newpath
translate
0.7 setlinewidth
1 setlinejoin
0 setlinecap
0 0 m
0 3 l

gsave
0.000 setgray
fill
grestore
stroke
grestore
} bind def
228.087 43.2 o
grestore
gsave
/o {
gsave
newpath
translate
0.7 setlinewidth
1 setlinejoin
0 setlinecap
0 0 m
0 -3 l

gsave
0.000 setgray
fill
grestore
stroke
grestore
} bind def
228.087 259.2 o
grestore
gsave
/o {
gsave
newpath
translate
0.7 setlinewidth
1 setlinejoin
0 setlinecap
0 0 m
0 3 l

gsave
0.000 setgray
fill
grestore
stroke
grestore
} bind def
240.39 43.2 o
grestore
gsave
/o {
gsave
newpath
translate
0.7 setlinewidth
1 setlinejoin
0 setlinecap
0 0 m
0 -3 l

gsave
0.000 setgray
fill
grestore
stroke
grestore
} bind def
240.39 259.2 o
grestore
gsave
/o {
gsave
newpath
translate
0.7 setlinewidth
1 setlinejoin
0 setlinecap
0 0 m
0 3 l

gsave
0.000 setgray
fill
grestore
stroke
grestore
} bind def
264.997 43.2 o
grestore
gsave
/o {
gsave
newpath
translate
0.7 setlinewidth
1 setlinejoin
0 setlinecap
0 0 m
0 -3 l

gsave
0.000 setgray
fill
grestore
stroke
grestore
} bind def
264.997 259.2 o
grestore
gsave
/o {
gsave
newpath
translate
0.7 setlinewidth
1 setlinejoin
0 setlinecap
0 0 m
0 3 l

gsave
0.000 setgray
fill
grestore
stroke
grestore
} bind def
277.301 43.2 o
grestore
gsave
/o {
gsave
newpath
translate
0.7 setlinewidth
1 setlinejoin
0 setlinecap
0 0 m
0 -3 l

gsave
0.000 setgray
fill
grestore
stroke
grestore
} bind def
277.301 259.2 o
grestore
gsave
/o {
gsave
newpath
translate
0.7 setlinewidth
1 setlinejoin
0 setlinecap
0 0 m
0 3 l

gsave
0.000 setgray
fill
grestore
stroke
grestore
} bind def
289.604 43.2 o
grestore
gsave
/o {
gsave
newpath
translate
0.7 setlinewidth
1 setlinejoin
0 setlinecap
0 0 m
0 -3 l

gsave
0.000 setgray
fill
grestore
stroke
grestore
} bind def
289.604 259.2 o
grestore
gsave
/o {
gsave
newpath
translate
0.7 setlinewidth
1 setlinejoin
0 setlinecap
0 0 m
0 3 l

gsave
0.000 setgray
fill
grestore
stroke
grestore
} bind def
314.211 43.2 o
grestore
gsave
/o {
gsave
newpath
translate
0.7 setlinewidth
1 setlinejoin
0 setlinecap
0 0 m
0 -3 l

gsave
0.000 setgray
fill
grestore
stroke
grestore
} bind def
314.211 259.2 o
grestore
gsave
/o {
gsave
newpath
translate
0.7 setlinewidth
1 setlinejoin
0 setlinecap
0 0 m
0 3 l

gsave
0.000 setgray
fill
grestore
stroke
grestore
} bind def
326.515 43.2 o
grestore
gsave
/o {
gsave
newpath
translate
0.7 setlinewidth
1 setlinejoin
0 setlinecap
0 0 m
0 -3 l

gsave
0.000 setgray
fill
grestore
stroke
grestore
} bind def
326.515 259.2 o
grestore
gsave
/o {
gsave
newpath
translate
0.7 setlinewidth
1 setlinejoin
0 setlinecap
0 0 m
0 3 l

gsave
0.000 setgray
fill
grestore
stroke
grestore
} bind def
338.818 43.2 o
grestore
gsave
/o {
gsave
newpath
translate
0.7 setlinewidth
1 setlinejoin
0 setlinecap
0 0 m
0 -3 l

gsave
0.000 setgray
fill
grestore
stroke
grestore
} bind def
338.818 259.2 o
grestore
gsave
/o {
gsave
newpath
translate
0.7 setlinewidth
1 setlinejoin
0 setlinecap
0 0 m
0 3 l

gsave
0.000 setgray
fill
grestore
stroke
grestore
} bind def
363.425 43.2 o
grestore
gsave
/o {
gsave
newpath
translate
0.7 setlinewidth
1 setlinejoin
0 setlinecap
0 0 m
0 -3 l

gsave
0.000 setgray
fill
grestore
stroke
grestore
} bind def
363.425 259.2 o
grestore
gsave
/o {
gsave
newpath
translate
0.7 setlinewidth
1 setlinejoin
0 setlinecap
0 0 m
0 3 l

gsave
0.000 setgray
fill
grestore
stroke
grestore
} bind def
375.729 43.2 o
grestore
gsave
/o {
gsave
newpath
translate
0.7 setlinewidth
1 setlinejoin
0 setlinecap
0 0 m
0 -3 l

gsave
0.000 setgray
fill
grestore
stroke
grestore
} bind def
375.729 259.2 o
grestore
gsave
/o {
gsave
newpath
translate
0.7 setlinewidth
1 setlinejoin
0 setlinecap
0 0 m
0 3 l

gsave
0.000 setgray
fill
grestore
stroke
grestore
} bind def
388.032 43.2 o
grestore
gsave
/o {
gsave
newpath
translate
0.7 setlinewidth
1 setlinejoin
0 setlinecap
0 0 m
0 -3 l

gsave
0.000 setgray
fill
grestore
stroke
grestore
} bind def
388.032 259.2 o
grestore
gsave
/o {
gsave
newpath
translate
0.7 setlinewidth
1 setlinejoin
0 setlinecap
0 0 m
0 3 l

gsave
0.000 setgray
fill
grestore
stroke
grestore
} bind def
412.639 43.2 o
grestore
gsave
/o {
gsave
newpath
translate
0.7 setlinewidth
1 setlinejoin
0 setlinecap
0 0 m
0 -3 l

gsave
0.000 setgray
fill
grestore
stroke
grestore
} bind def
412.639 259.2 o
grestore
gsave
/o {
gsave
newpath
translate
0.7 setlinewidth
1 setlinejoin
0 setlinecap
0 0 m
0 3 l

gsave
0.000 setgray
fill
grestore
stroke
grestore
} bind def
424.943 43.2 o
grestore
gsave
/o {
gsave
newpath
translate
0.7 setlinewidth
1 setlinejoin
0 setlinecap
0 0 m
0 -3 l

gsave
0.000 setgray
fill
grestore
stroke
grestore
} bind def
424.943 259.2 o
grestore
gsave
/o {
gsave
newpath
translate
0.7 setlinewidth
1 setlinejoin
0 setlinecap
0 0 m
0 3 l

gsave
0.000 setgray
fill
grestore
stroke
grestore
} bind def
437.246 43.2 o
grestore
gsave
/o {
gsave
newpath
translate
0.7 setlinewidth
1 setlinejoin
0 setlinecap
0 0 m
0 -3 l

gsave
0.000 setgray
fill
grestore
stroke
grestore
} bind def
437.246 259.2 o
grestore
gsave
/o {
gsave
newpath
translate
0.7 setlinewidth
1 setlinejoin
0 setlinecap
0 0 m
0 3 l

gsave
0.000 setgray
fill
grestore
stroke
grestore
} bind def
461.853 43.2 o
grestore
gsave
/o {
gsave
newpath
translate
0.7 setlinewidth
1 setlinejoin
0 setlinecap
0 0 m
0 -3 l

gsave
0.000 setgray
fill
grestore
stroke
grestore
} bind def
461.853 259.2 o
grestore
gsave
/o {
gsave
newpath
translate
0.7 setlinewidth
1 setlinejoin
0 setlinecap
0 0 m
0 3 l

gsave
0.000 setgray
fill
grestore
stroke
grestore
} bind def
474.157 43.2 o
grestore
gsave
/o {
gsave
newpath
translate
0.7 setlinewidth
1 setlinejoin
0 setlinecap
0 0 m
0 -3 l

gsave
0.000 setgray
fill
grestore
stroke
grestore
} bind def
474.157 259.2 o
grestore
gsave
/o {
gsave
newpath
translate
0.7 setlinewidth
1 setlinejoin
0 setlinecap
0 0 m
0 3 l

gsave
0.000 setgray
fill
grestore
stroke
grestore
} bind def
486.46 43.2 o
grestore
gsave
/o {
gsave
newpath
translate
0.7 setlinewidth
1 setlinejoin
0 setlinecap
0 0 m
0 -3 l

gsave
0.000 setgray
fill
grestore
stroke
grestore
} bind def
486.46 259.2 o
grestore
gsave
/o {
gsave
newpath
translate
0.7 setlinewidth
1 setlinejoin
0 setlinecap
0 0 m
0 3 l

gsave
0.000 setgray
fill
grestore
stroke
grestore
} bind def
511.067 43.2 o
grestore
gsave
/o {
gsave
newpath
translate
0.7 setlinewidth
1 setlinejoin
0 setlinecap
0 0 m
0 -3 l

gsave
0.000 setgray
fill
grestore
stroke
grestore
} bind def
511.067 259.2 o
grestore
gsave
284.400000 19.028125 translate
0.000000 rotate
/DejaVuSans-Oblique findfont
14.0 scalefont
setfont
0.000000 0.359375 moveto
/z glyphshow

/DejaVuSerif findfont
14.0 scalefont
setfont
7.348633 0.359375 moveto
/space glyphshow

11.798828 0.359375 moveto
/parenleft glyphshow

17.260742 0.359375 moveto
/m glyphshow

30.536133 0.359375 moveto
/parenright glyphshow


grestore
0.800 setlinewidth
2 setlinecap
0.690 setgray
gsave
432 216 86.4 43.2 clipbox
86.4 46.881382 m
518.4 46.881382 l
stroke
grestore
1.000 setlinewidth
0 setlinecap
0.000 setgray
gsave
/o {
gsave
newpath
translate
1.0 setlinewidth
1 setlinejoin
0 setlinecap
0 0 m
5 0 l

gsave
0.000 setgray
fill
grestore
stroke
grestore
} bind def
86.4 46.8814 o
grestore
gsave
/o {
gsave
newpath
translate
1.0 setlinewidth
1 setlinejoin
0 setlinecap
0 0 m
-5 0 l

gsave
0.000 setgray
fill
grestore
stroke
grestore
} bind def
518.4 46.8814 o
grestore
gsave
76.540625 43.084507 translate
0.000000 rotate
0.000000 0.000000 m /two glyphshow
grestore
0.800 setlinewidth
2 setlinecap
0.690 setgray
gsave
432 216 86.4 43.2 clipbox
86.4 86.743673 m
518.4 86.743673 l
stroke
grestore
1.000 setlinewidth
0 setlinecap
0.000 setgray
gsave
/o {
gsave
newpath
translate
1.0 setlinewidth
1 setlinejoin
0 setlinecap
0 0 m
5 0 l

gsave
0.000 setgray
fill
grestore
stroke
grestore
} bind def
86.4 86.7437 o
grestore
gsave
/o {
gsave
newpath
translate
1.0 setlinewidth
1 setlinejoin
0 setlinecap
0 0 m
-5 0 l

gsave
0.000 setgray
fill
grestore
stroke
grestore
} bind def
518.4 86.7437 o
grestore
gsave
76.540625 82.946798 translate
0.000000 rotate
0.000000 0.000000 m /four glyphshow
grestore
0.800 setlinewidth
2 setlinecap
0.690 setgray
gsave
432 216 86.4 43.2 clipbox
86.4 126.605963 m
518.4 126.605963 l
stroke
grestore
1.000 setlinewidth
0 setlinecap
0.000 setgray
gsave
/o {
gsave
newpath
translate
1.0 setlinewidth
1 setlinejoin
0 setlinecap
0 0 m
5 0 l

gsave
0.000 setgray
fill
grestore
stroke
grestore
} bind def
86.4 126.606 o
grestore
gsave
/o {
gsave
newpath
translate
1.0 setlinewidth
1 setlinejoin
0 setlinecap
0 0 m
-5 0 l

gsave
0.000 setgray
fill
grestore
stroke
grestore
} bind def
518.4 126.606 o
grestore
gsave
76.540625 122.809088 translate
0.000000 rotate
0.000000 0.000000 m /six glyphshow
grestore
0.800 setlinewidth
2 setlinecap
0.690 setgray
gsave
432 216 86.4 43.2 clipbox
86.4 166.468254 m
518.4 166.468254 l
stroke
grestore
1.000 setlinewidth
0 setlinecap
0.000 setgray
gsave
/o {
gsave
newpath
translate
1.0 setlinewidth
1 setlinejoin
0 setlinecap
0 0 m
5 0 l

gsave
0.000 setgray
fill
grestore
stroke
grestore
} bind def
86.4 166.468 o
grestore
gsave
/o {
gsave
newpath
translate
1.0 setlinewidth
1 setlinejoin
0 setlinecap
0 0 m
-5 0 l

gsave
0.000 setgray
fill
grestore
stroke
grestore
} bind def
518.4 166.468 o
grestore
gsave
76.540625 162.671379 translate
0.000000 rotate
0.000000 0.000000 m /eight glyphshow
grestore
0.800 setlinewidth
2 setlinecap
0.690 setgray
gsave
432 216 86.4 43.2 clipbox
86.4 206.330544 m
518.4 206.330544 l
stroke
grestore
1.000 setlinewidth
0 setlinecap
0.000 setgray
gsave
/o {
gsave
newpath
translate
1.0 setlinewidth
1 setlinejoin
0 setlinecap
0 0 m
5 0 l

gsave
0.000 setgray
fill
grestore
stroke
grestore
} bind def
86.4 206.331 o
grestore
gsave
/o {
gsave
newpath
translate
1.0 setlinewidth
1 setlinejoin
0 setlinecap
0 0 m
-5 0 l

gsave
0.000 setgray
fill
grestore
stroke
grestore
} bind def
518.4 206.331 o
grestore
gsave
70.181250 202.533669 translate
0.000000 rotate
0.000000 0.000000 m /one glyphshow
6.362305 0.000000 m /zero glyphshow
grestore
0.800 setlinewidth
2 setlinecap
0.690 setgray
gsave
432 216 86.4 43.2 clipbox
86.4 246.192835 m
518.4 246.192835 l
stroke
grestore
1.000 setlinewidth
0 setlinecap
0.000 setgray
gsave
/o {
gsave
newpath
translate
1.0 setlinewidth
1 setlinejoin
0 setlinecap
0 0 m
5 0 l

gsave
0.000 setgray
fill
grestore
stroke
grestore
} bind def
86.4 246.193 o
grestore
gsave
/o {
gsave
newpath
translate
1.0 setlinewidth
1 setlinejoin
0 setlinecap
0 0 m
-5 0 l

gsave
0.000 setgray
fill
grestore
stroke
grestore
} bind def
518.4 246.193 o
grestore
gsave
70.181250 242.395960 translate
0.000000 rotate
0.000000 0.000000 m /one glyphshow
6.362305 0.000000 m /two glyphshow
grestore
0.700 setlinewidth
gsave
/o {
gsave
newpath
translate
0.7 setlinewidth
1 setlinejoin
0 setlinecap
0 0 m
3 0 l

gsave
0.000 setgray
fill
grestore
stroke
grestore
} bind def
86.4 56.847 o
grestore
gsave
/o {
gsave
newpath
translate
0.7 setlinewidth
1 setlinejoin
0 setlinecap
0 0 m
-3 0 l

gsave
0.000 setgray
fill
grestore
stroke
grestore
} bind def
518.4 56.847 o
grestore
gsave
/o {
gsave
newpath
translate
0.7 setlinewidth
1 setlinejoin
0 setlinecap
0 0 m
3 0 l

gsave
0.000 setgray
fill
grestore
stroke
grestore
} bind def
86.4 66.8125 o
grestore
gsave
/o {
gsave
newpath
translate
0.7 setlinewidth
1 setlinejoin
0 setlinecap
0 0 m
-3 0 l

gsave
0.000 setgray
fill
grestore
stroke
grestore
} bind def
518.4 66.8125 o
grestore
gsave
/o {
gsave
newpath
translate
0.7 setlinewidth
1 setlinejoin
0 setlinecap
0 0 m
3 0 l

gsave
0.000 setgray
fill
grestore
stroke
grestore
} bind def
86.4 76.7781 o
grestore
gsave
/o {
gsave
newpath
translate
0.7 setlinewidth
1 setlinejoin
0 setlinecap
0 0 m
-3 0 l

gsave
0.000 setgray
fill
grestore
stroke
grestore
} bind def
518.4 76.7781 o
grestore
gsave
/o {
gsave
newpath
translate
0.7 setlinewidth
1 setlinejoin
0 setlinecap
0 0 m
3 0 l

gsave
0.000 setgray
fill
grestore
stroke
grestore
} bind def
86.4 96.7092 o
grestore
gsave
/o {
gsave
newpath
translate
0.7 setlinewidth
1 setlinejoin
0 setlinecap
0 0 m
-3 0 l

gsave
0.000 setgray
fill
grestore
stroke
grestore
} bind def
518.4 96.7092 o
grestore
gsave
/o {
gsave
newpath
translate
0.7 setlinewidth
1 setlinejoin
0 setlinecap
0 0 m
3 0 l

gsave
0.000 setgray
fill
grestore
stroke
grestore
} bind def
86.4 106.675 o
grestore
gsave
/o {
gsave
newpath
translate
0.7 setlinewidth
1 setlinejoin
0 setlinecap
0 0 m
-3 0 l

gsave
0.000 setgray
fill
grestore
stroke
grestore
} bind def
518.4 106.675 o
grestore
gsave
/o {
gsave
newpath
translate
0.7 setlinewidth
1 setlinejoin
0 setlinecap
0 0 m
3 0 l

gsave
0.000 setgray
fill
grestore
stroke
grestore
} bind def
86.4 116.64 o
grestore
gsave
/o {
gsave
newpath
translate
0.7 setlinewidth
1 setlinejoin
0 setlinecap
0 0 m
-3 0 l

gsave
0.000 setgray
fill
grestore
stroke
grestore
} bind def
518.4 116.64 o
grestore
gsave
/o {
gsave
newpath
translate
0.7 setlinewidth
1 setlinejoin
0 setlinecap
0 0 m
3 0 l

gsave
0.000 setgray
fill
grestore
stroke
grestore
} bind def
86.4 136.572 o
grestore
gsave
/o {
gsave
newpath
translate
0.7 setlinewidth
1 setlinejoin
0 setlinecap
0 0 m
-3 0 l

gsave
0.000 setgray
fill
grestore
stroke
grestore
} bind def
518.4 136.572 o
grestore
gsave
/o {
gsave
newpath
translate
0.7 setlinewidth
1 setlinejoin
0 setlinecap
0 0 m
3 0 l

gsave
0.000 setgray
fill
grestore
stroke
grestore
} bind def
86.4 146.537 o
grestore
gsave
/o {
gsave
newpath
translate
0.7 setlinewidth
1 setlinejoin
0 setlinecap
0 0 m
-3 0 l

gsave
0.000 setgray
fill
grestore
stroke
grestore
} bind def
518.4 146.537 o
grestore
gsave
/o {
gsave
newpath
translate
0.7 setlinewidth
1 setlinejoin
0 setlinecap
0 0 m
3 0 l

gsave
0.000 setgray
fill
grestore
stroke
grestore
} bind def
86.4 156.503 o
grestore
gsave
/o {
gsave
newpath
translate
0.7 setlinewidth
1 setlinejoin
0 setlinecap
0 0 m
-3 0 l

gsave
0.000 setgray
fill
grestore
stroke
grestore
} bind def
518.4 156.503 o
grestore
gsave
/o {
gsave
newpath
translate
0.7 setlinewidth
1 setlinejoin
0 setlinecap
0 0 m
3 0 l

gsave
0.000 setgray
fill
grestore
stroke
grestore
} bind def
86.4 176.434 o
grestore
gsave
/o {
gsave
newpath
translate
0.7 setlinewidth
1 setlinejoin
0 setlinecap
0 0 m
-3 0 l

gsave
0.000 setgray
fill
grestore
stroke
grestore
} bind def
518.4 176.434 o
grestore
gsave
/o {
gsave
newpath
translate
0.7 setlinewidth
1 setlinejoin
0 setlinecap
0 0 m
3 0 l

gsave
0.000 setgray
fill
grestore
stroke
grestore
} bind def
86.4 186.399 o
grestore
gsave
/o {
gsave
newpath
translate
0.7 setlinewidth
1 setlinejoin
0 setlinecap
0 0 m
-3 0 l

gsave
0.000 setgray
fill
grestore
stroke
grestore
} bind def
518.4 186.399 o
grestore
gsave
/o {
gsave
newpath
translate
0.7 setlinewidth
1 setlinejoin
0 setlinecap
0 0 m
3 0 l

gsave
0.000 setgray
fill
grestore
stroke
grestore
} bind def
86.4 196.365 o
grestore
gsave
/o {
gsave
newpath
translate
0.7 setlinewidth
1 setlinejoin
0 setlinecap
0 0 m
-3 0 l

gsave
0.000 setgray
fill
grestore
stroke
grestore
} bind def
518.4 196.365 o
grestore
gsave
/o {
gsave
newpath
translate
0.7 setlinewidth
1 setlinejoin
0 setlinecap
0 0 m
3 0 l

gsave
0.000 setgray
fill
grestore
stroke
grestore
} bind def
86.4 216.296 o
grestore
gsave
/o {
gsave
newpath
translate
0.7 setlinewidth
1 setlinejoin
0 setlinecap
0 0 m
-3 0 l

gsave
0.000 setgray
fill
grestore
stroke
grestore
} bind def
518.4 216.296 o
grestore
gsave
/o {
gsave
newpath
translate
0.7 setlinewidth
1 setlinejoin
0 setlinecap
0 0 m
3 0 l

gsave
0.000 setgray
fill
grestore
stroke
grestore
} bind def
86.4 226.262 o
grestore
gsave
/o {
gsave
newpath
translate
0.7 setlinewidth
1 setlinejoin
0 setlinecap
0 0 m
-3 0 l

gsave
0.000 setgray
fill
grestore
stroke
grestore
} bind def
518.4 226.262 o
grestore
gsave
/o {
gsave
newpath
translate
0.7 setlinewidth
1 setlinejoin
0 setlinecap
0 0 m
3 0 l

gsave
0.000 setgray
fill
grestore
stroke
grestore
} bind def
86.4 236.227 o
grestore
gsave
/o {
gsave
newpath
translate
0.7 setlinewidth
1 setlinejoin
0 setlinecap
0 0 m
-3 0 l

gsave
0.000 setgray
fill
grestore
stroke
grestore
} bind def
518.4 236.227 o
grestore
gsave
/o {
gsave
newpath
translate
0.7 setlinewidth
1 setlinejoin
0 setlinecap
0 0 m
3 0 l

gsave
0.000 setgray
fill
grestore
stroke
grestore
} bind def
86.4 256.158 o
grestore
gsave
/o {
gsave
newpath
translate
0.7 setlinewidth
1 setlinejoin
0 setlinecap
0 0 m
-3 0 l

gsave
0.000 setgray
fill
grestore
stroke
grestore
} bind def
518.4 256.158 o
grestore
gsave
67.181250 44.200000 translate
90.000000 rotate
/DejaVuSerif findfont
14.0 scalefont
setfont
0.000000 0.359375 moveto
/n glyphshow

9.016602 0.359375 moveto
/o glyphshow

17.445312 0.359375 moveto
/r glyphshow

24.137695 0.359375 moveto
/m glyphshow

37.413086 0.359375 moveto
/period glyphshow

41.863281 0.359375 moveto
/space glyphshow

46.313477 0.359375 moveto
/e glyphshow

54.598633 0.359375 moveto
/m glyphshow

67.874023 0.359375 moveto
/i glyphshow

72.351562 0.359375 moveto
/t glyphshow

77.977539 0.359375 moveto
/t glyphshow

83.603516 0.359375 moveto
/a glyphshow

91.950195 0.359375 moveto
/n glyphshow

100.966797 0.359375 moveto
/c glyphshow

108.807617 0.359375 moveto
/e glyphshow

117.092773 0.359375 moveto
/space glyphshow

121.542969 0.359375 moveto
/parenleft glyphshow

/DejaVuSans-Oblique findfont
14.0 scalefont
setfont
127.004883 0.359375 moveto
/pi glyphshow

/DejaVuSerif findfont
14.0 scalefont
setfont
135.433594 0.359375 moveto
/space glyphshow

139.883789 0.359375 moveto
/m glyphshow

153.159180 0.359375 moveto
/m glyphshow

166.434570 0.359375 moveto
/space glyphshow

170.884766 0.359375 moveto
/m glyphshow

184.160156 0.359375 moveto
/r glyphshow

190.852539 0.359375 moveto
/a glyphshow

199.199219 0.359375 moveto
/d glyphshow

208.161133 0.359375 moveto
/parenright glyphshow


grestore
2.000 setlinewidth
[7.4 3.2] 0 setdash
1.000 0.000 0.000 setrgbcolor
gsave
432 216 86.4 43.2 clipbox
106.036364 87.299752 m
107.018831 138.399222 l
108.004921 117.937908 l
108.987429 210.476223 l
109.973479 184.1412 l
110.957758 179.148448 l
111.942037 249.282162 l
112.926316 191.756891 l
113.910595 147.906378 l
114.894874 136.489818 l
115.879152 134.444883 l
116.863431 134.131964 l
120.859407 133.95657 l
122.769105 133.629699 l
124.737662 133.033758 l
126.70622 132.142835 l
128.674778 130.905111 l
130.643336 129.264778 l
132.611893 127.162042 l
134.580451 124.517179 l
136.549009 121.270396 l
138.675051 117.031041 l
140.486124 112.783714 l
142.454682 107.521892 l
144.42324 101.592376 l
146.391798 95.017091 l
149.344634 84.210424 l
153.28175 69.682612 l
154.266029 66.501602 l
155.250308 63.731172 l
156.234586 61.504863 l
157.218865 59.944255 l
158.203144 59.160961 l
159.187423 59.176906 l
161.154012 60.753459 l
162.14026 61.895514 l
163.124539 61.716134 l
164.106849 64.376942 l
165.091128 63.693303 l
166.077375 67.39651 l
167.061654 65.792053 l
168.045933 66.619195 l
169.030212 66.780638 l
170.014491 66.226552 l
170.99877 67.472248 l
171.983049 65.29776 l
172.967327 68.933201 l
173.951606 66.892252 l
174.935885 68.056231 l
175.920164 67.09555 l
176.904443 66.64112 l
177.888722 66.836445 l
178.873001 64.392886 l
179.85728 67.099536 l
180.841558 65.062573 l
181.825837 67.035756 l
182.810116 65.259891 l
183.794395 64.901131 l
184.778674 64.697833 l
185.762953 62.933927 l
186.747232 64.372955 l
187.731511 62.17455 l
188.715789 64.68986 l
189.700068 62.786436 l
190.684347 62.668842 l
197.574299 60.183429 l
205.44853 57.355199 l
210.369925 55.834453 l
214.30704 54.806006 l
218.244156 53.982849 l
222.181271 53.39488 l
226.118387 53.073989 l
230.055502 53.03612 l
233.008339 53.195569 l
236.945455 53.659965 l
240.88257 54.403396 l
244.819686 55.407926 l
248.756801 56.64565 l
252.693917 58.090658 l
257.615311 60.145559 l
262.536705 62.423689 l
269.426658 65.90566 l
277.300889 70.170925 l
289.112235 76.895694 l
333.404785 102.419518 l
348.168968 110.54744 l
363.91743 118.936459 l
378.681613 126.526239 l
392.461517 133.390525 l
407.225701 140.531854 l
421.989884 147.443976 l
437.738346 154.603243 l
454.471087 161.981753 l
472.188107 169.547616 l
491.873684 177.689489 l
498.763636 180.483835 l
498.763636 180.483835 l
stroke
grestore
[2 3.3] 0 setdash
0.000 0.000 1.000 setrgbcolor
gsave
432 216 86.4 43.2 clipbox
106.036364 87.363531 m
107.018831 138.365339 l
108.004921 117.97777 l
108.987429 210.456291 l
109.973479 184.133228 l
110.957758 179.297932 l
111.942037 249.381818 l
112.926316 191.814691 l
113.910595 147.934282 l
114.894874 136.505763 l
115.879152 134.458835 l
116.863431 134.143922 l
120.859407 133.972515 l
122.769105 133.647637 l
124.737662 133.053689 l
126.70622 132.16476 l
128.674778 130.927036 l
130.643336 129.288695 l
132.611893 127.183967 l
134.580451 124.541097 l
136.549009 121.29232 l
138.675051 117.041007 l
140.486124 112.7877 l
142.454682 107.529864 l
144.42324 101.608321 l
146.391798 95.05496 l
149.344634 84.316059 l
153.28175 69.913814 l
154.266029 66.7627 l
155.250308 64.022167 l
156.234586 61.817782 l
157.218865 60.279098 l
158.203144 59.50577 l
159.187423 59.495804 l
161.154012 61.08033 l
162.14026 62.20644 l
163.124539 62.041011 l
164.106849 64.646012 l
165.091128 63.99227 l
166.077375 67.60778 l
167.061654 66.029233 l
168.045933 66.832459 l
169.030212 66.987922 l
170.014491 66.433836 l
170.99877 67.653622 l
171.983049 65.518996 l
172.967327 69.080692 l
173.951606 67.06366 l
174.935885 68.193756 l
175.920164 67.241047 l
176.904443 66.782631 l
177.888722 66.96799 l
178.873001 64.552336 l
179.85728 67.21115 l
180.841558 65.198105 l
181.825837 67.129433 l
182.810116 65.367519 l
183.794395 65.004773 l
184.778674 64.795496 l
185.762953 63.045541 l
186.747232 64.460652 l
187.731511 62.290151 l
188.715789 64.761613 l
189.700068 62.87214 l
190.684347 62.748567 l
198.558578 59.874496 l
205.44853 57.395061 l
210.369925 55.864349 l
214.30704 54.831916 l
218.244156 54.006767 l
222.181271 53.420791 l
226.118387 53.105879 l
229.071224 53.054058 l
233.008339 53.239418 l
236.945455 53.713779 l
240.88257 54.467176 l
244.819686 55.481671 l
248.756801 56.731354 l
252.693917 58.188321 l
257.615311 60.257174 l
262.536705 62.551249 l
268.442379 65.534941 l
275.332331 69.24612 l
285.17512 74.818869 l
304.860697 86.305188 l
325.530554 98.275833 l
339.310458 106.02307 l
353.090362 113.553056 l
367.854545 121.364072 l
381.63445 128.421691 l
398.367191 136.711054 l
412.147095 143.320222 l
430.848394 151.99027 l
449.549692 160.359358 l
469.23527 168.856005 l
487.936569 176.661042 l
498.763636 181.079776 l
498.763636 181.079776 l
stroke
grestore
2 setlinecap
[] 0 setdash
1.000 0.000 0.000 setrgbcolor
gsave
432 216 86.4 43.2 clipbox
106.036364 87.299752 m
107.018831 138.399222 l
108.004921 117.937908 l
108.987429 210.476223 l
109.973479 184.1412 l
110.957758 179.148448 l
111.942037 249.282162 l
112.926316 191.756891 l
113.910595 147.906378 l
114.894874 136.489818 l
115.879152 134.444883 l
116.863431 134.131964 l
120.859407 133.95657 l
122.769105 133.629699 l
124.737662 133.033758 l
126.70622 132.142835 l
128.674778 130.905111 l
130.643336 129.264778 l
132.611893 127.162042 l
134.580451 124.517179 l
136.549009 121.270396 l
138.675051 117.031041 l
140.486124 112.783714 l
142.454682 107.521892 l
144.42324 101.592376 l
146.391798 95.017091 l
149.344634 84.210424 l
153.28175 69.682612 l
154.266029 66.501602 l
155.250308 63.731172 l
156.234586 61.504863 l
157.218865 59.944255 l
158.203144 59.160961 l
159.187423 59.176906 l
161.154012 60.753459 l
162.14026 61.895514 l
163.124539 61.716134 l
164.106849 64.376942 l
165.091128 63.693303 l
166.077375 67.39651 l
167.061654 65.792053 l
168.045933 66.619195 l
169.030212 66.780638 l
170.014491 66.226552 l
170.99877 67.472248 l
171.983049 65.29776 l
172.967327 68.933201 l
173.951606 66.892252 l
174.935885 68.056231 l
175.920164 67.09555 l
176.904443 66.64112 l
177.888722 66.836445 l
178.873001 64.392886 l
179.85728 67.099536 l
180.841558 65.062573 l
181.825837 67.035756 l
182.810116 65.259891 l
183.794395 64.901131 l
184.778674 64.697833 l
185.762953 62.933927 l
186.747232 64.372955 l
187.731511 62.17455 l
188.715789 64.68986 l
189.700068 62.786436 l
190.684347 62.668842 l
197.574299 60.183429 l
205.44853 57.355199 l
209.385646 56.119468 l
214.30704 55.312257 l
215.291319 53.865255 l
216.275598 55.136863 l
217.259877 55.226553 l
224.149829 54.686419 l
229.071224 54.511025 l
233.008339 54.548894 l
233.992618 54.608687 l
234.976897 55.34614 l
235.961176 90.44688 l
236.945455 55.100986 l
237.929733 54.871778 l
243.835407 55.495623 l
250.725359 56.502146 l
264.505263 58.772303 l
265.489542 59.027422 l
266.473821 59.71704 l
267.4581 59.208796 l
273.363773 60.002055 l
282.222283 61.098268 l
289.112235 61.736065 l
295.017908 62.046991 l
299.939303 62.11077 l
304.860697 61.987197 l
309.782092 61.664313 l
314.703486 61.136137 l
320.609159 60.285077 l
336.357621 57.869423 l
343.247573 57.149908 l
349.153247 56.755272 l
357.027478 56.374587 l
358.011757 55.136863 l
358.996036 56.40249 l
360.964593 56.494174 l
378.681613 56.840975 l
379.665892 56.896783 l
380.650171 56.809086 l
382.618729 56.954583 l
401.320027 57.223653 l
402.304306 57.570455 l
403.288585 58.092651 l
404.272864 57.257536 l
408.209979 57.307364 l
429.864115 57.700008 l
442.65974 57.518634 l
458.408202 57.339254 l
469.23527 57.444889 l
479.078059 57.763788 l
491.873684 58.429488 l
498.763636 58.871959 l
498.763636 58.871959 l
stroke
grestore
0.000 0.000 1.000 setrgbcolor
gsave
432 216 86.4 43.2 clipbox
106.036364 87.363531 m
107.018831 138.365339 l
108.004921 117.97777 l
108.987429 210.456291 l
109.973479 184.133228 l
110.957758 179.297932 l
111.942037 249.381818 l
112.926316 191.814691 l
113.910595 147.934282 l
114.894874 136.505763 l
115.879152 134.458835 l
116.863431 134.143922 l
120.859407 133.972515 l
122.769105 133.647637 l
124.737662 133.053689 l
126.70622 132.16476 l
128.674778 130.927036 l
130.643336 129.288695 l
132.611893 127.183967 l
134.580451 124.541097 l
136.549009 121.29232 l
138.675051 117.041007 l
140.486124 112.7877 l
142.454682 107.529864 l
144.42324 101.608321 l
146.391798 95.05496 l
149.344634 84.316059 l
153.28175 69.913814 l
154.266029 66.7627 l
155.250308 64.022167 l
156.234586 61.817782 l
157.218865 60.279098 l
158.203144 59.50577 l
159.187423 59.495804 l
161.154012 61.08033 l
162.14026 62.20644 l
163.124539 62.041011 l
164.106849 64.646012 l
165.091128 63.99227 l
166.077375 67.60778 l
167.061654 66.029233 l
168.045933 66.832459 l
169.030212 66.987922 l
170.014491 66.433836 l
170.99877 67.653622 l
171.983049 65.518996 l
172.967327 69.080692 l
173.951606 67.06366 l
174.935885 68.193756 l
175.920164 67.241047 l
176.904443 66.782631 l
177.888722 66.96799 l
178.873001 64.552336 l
179.85728 67.21115 l
180.841558 65.198105 l
181.825837 67.129433 l
182.810116 65.367519 l
183.794395 65.004773 l
184.778674 64.795496 l
185.762953 63.045541 l
186.747232 64.460652 l
187.731511 62.290151 l
188.715789 64.761613 l
189.700068 62.87214 l
190.684347 62.748567 l
198.558578 59.874496 l
205.44853 57.395061 l
209.385646 56.151358 l
213.322761 55.613217 l
214.30704 55.631155 l
215.291319 59.848585 l
216.275598 55.517547 l
217.259877 55.262429 l
222.181271 54.925592 l
228.086945 54.756178 l
234.976897 54.73824 l
235.961176 55.136863 l
236.945455 54.70037 l
242.851128 54.786074 l
253.678195 55.12889 l
262.536705 55.605244 l
264.505263 55.724831 l
265.489542 55.270401 l
266.473821 54.465183 l
267.4581 55.983936 l
269.426658 56.217131 l
276.31661 56.980493 l
281.238004 57.775746 l
288.127956 59.180892 l
299.939303 61.65634 l
305.844976 62.636953 l
311.750649 63.352481 l
316.672044 63.737152 l
322.577717 63.970346 l
329.467669 64.000243 l
345.216131 63.950415 l
356.043199 64.107871 l
357.027478 64.259348 l
358.011757 66.551429 l
358.996036 64.201547 l
360.964593 64.159692 l
367.854545 64.400859 l
373.760219 64.795496 l
379.665892 65.259891 l
380.650171 71.143565 l
381.63445 65.696383 l
391.634723 67.39651 l
401.320027 69.062754 l
403.288585 68.909284 l
404.272864 69.513198 l
410.178537 70.463913 l
422.974163 72.357372 l
432.816951 73.609048 l
442.65974 74.62753 l
452.502529 75.416803 l
461.361039 75.917075 l
472.188107 76.289787 l
483.999453 76.453222 l
494.826521 76.397415 l
498.763636 76.331642 l
498.763636 76.331642 l
stroke
grestore
0.800 setlinewidth
0 setlinejoin
[] 0 setdash
0.000 setgray
gsave
86.4 43.2 m
86.4 259.2 l
stroke
grestore
gsave
518.4 43.2 m
518.4 259.2 l
stroke
grestore
gsave
86.4 43.2 m
518.4 43.2 l
stroke
grestore
gsave
86.4 259.2 m
518.4 259.2 l
stroke
grestore
2.000 setlinewidth
1 setlinejoin
0 setlinecap
[7.4 3.2] 0 setdash
1.000 0.000 0.000 setrgbcolor
gsave
400.6 242.6 m
425.8 242.6 l
stroke
grestore
0.000 setgray
gsave
430.600000 238.400000 translate
0.000000 rotate
/DejaVuSans-Oblique findfont
12.0 scalefont
setfont
0.000000 0.875000 moveto
/x glyphshow

/DejaVuSerif findfont
12.0 scalefont
setfont
7.101562 0.875000 moveto
/comma glyphshow

10.916016 0.875000 moveto
/space glyphshow

14.730469 0.875000 moveto
/w glyphshow

25.001953 0.875000 moveto
/slash glyphshow

29.044922 0.875000 moveto
/o glyphshow

36.269531 0.875000 moveto
/space glyphshow

40.083984 0.875000 moveto
/q glyphshow

47.765625 0.875000 moveto
/u glyphshow

55.494141 0.875000 moveto
/a glyphshow

62.648438 0.875000 moveto
/d glyphshow

70.330078 0.875000 moveto
/s glyphshow


grestore
[2 3.3] 0 setdash
0.000 0.000 1.000 setrgbcolor
gsave
400.6 229 m
425.8 229 l
stroke
grestore
0.000 setgray
gsave
430.600000 224.800000 translate
0.000000 rotate
/DejaVuSans-Oblique findfont
12.0 scalefont
setfont
0.000000 0.875000 moveto
/y glyphshow

/DejaVuSerif findfont
12.0 scalefont
setfont
7.101562 0.875000 moveto
/comma glyphshow

10.916016 0.875000 moveto
/space glyphshow

14.730469 0.875000 moveto
/w glyphshow

25.001953 0.875000 moveto
/slash glyphshow

29.044922 0.875000 moveto
/o glyphshow

36.269531 0.875000 moveto
/space glyphshow

40.083984 0.875000 moveto
/q glyphshow

47.765625 0.875000 moveto
/u glyphshow

55.494141 0.875000 moveto
/a glyphshow

62.648438 0.875000 moveto
/d glyphshow

70.330078 0.875000 moveto
/s glyphshow


grestore
2 setlinecap
[] 0 setdash
1.000 0.000 0.000 setrgbcolor
gsave
400.6 215.4 m
425.8 215.4 l
stroke
grestore
0.000 setgray
gsave
430.600000 211.200000 translate
0.000000 rotate
/DejaVuSans-Oblique findfont
12.0 scalefont
setfont
0.000000 0.875000 moveto
/x glyphshow

/DejaVuSerif findfont
12.0 scalefont
setfont
7.101562 0.875000 moveto
/comma glyphshow

10.916016 0.875000 moveto
/space glyphshow

14.730469 0.875000 moveto
/w glyphshow

25.001953 0.875000 moveto
/slash glyphshow

29.044922 0.875000 moveto
/space glyphshow

32.859375 0.875000 moveto
/q glyphshow

40.541016 0.875000 moveto
/u glyphshow

48.269531 0.875000 moveto
/a glyphshow

55.423828 0.875000 moveto
/d glyphshow

63.105469 0.875000 moveto
/s glyphshow


grestore
0.000 0.000 1.000 setrgbcolor
gsave
400.6 201.8 m
425.8 201.8 l
stroke
grestore
0.000 setgray
gsave
430.600000 197.600000 translate
0.000000 rotate
/DejaVuSans-Oblique findfont
12.0 scalefont
setfont
0.000000 0.875000 moveto
/y glyphshow

/DejaVuSerif findfont
12.0 scalefont
setfont
7.101562 0.875000 moveto
/comma glyphshow

10.916016 0.875000 moveto
/space glyphshow

14.730469 0.875000 moveto
/w glyphshow

25.001953 0.875000 moveto
/slash glyphshow

29.044922 0.875000 moveto
/space glyphshow

32.859375 0.875000 moveto
/q glyphshow

40.541016 0.875000 moveto
/u glyphshow

48.269531 0.875000 moveto
/a glyphshow

55.423828 0.875000 moveto
/d glyphshow

63.105469 0.875000 moveto
/s glyphshow


grestore

end
showpage
