%!PS-Adobe-3.0 EPSF-3.0
%%Title: dQ_dt-t.eps
%%Creator: Matplotlib v3.4.1, https://matplotlib.org/
%%CreationDate: Fri Apr 30 14:40:35 2021
%%Orientation: portrait
%%BoundingBox: 162 252 450 540
%%HiResBoundingBox: 162.000000 252.000000 450.000000 540.000000
%%EndComments
%%BeginProlog
/mpldict 13 dict def
mpldict begin
/d { bind def } bind def
/m { moveto } d
/l { lineto } d
/r { rlineto } d
/c { curveto } d
/cl { closepath } d
/ce { closepath eofill } d
/box {
      m
      1 index 0 r
      0 exch r
      neg 0 r
      cl
    } d
/clipbox {
      box
      clip
      newpath
    } d
/sc { setcachedevice } d
%!PS-Adobe-3.0 Resource-Font
%%Creator: Converted from TrueType to Type 3 by Matplotlib.
10 dict begin
/FontName /DejaVuSerif def
/PaintType 0 def
/FontMatrix [0.00048828125 0 0 0.00048828125 0 0] def
/FontBBox [-1576 -710 4312 2272] def
/FontType 3 def
/Encoding [/space /A /parenleft /parenright /zero /one /two /three /p /s /six /seven /five] def
/CharStrings 14 dict dup begin
/.notdef 0 def
/space{651 0 0 0 0 0 sc
ce} d
/A{1479 0 -12 0 1499 1493 sc
410 541 m
958 541 l
684 1251 l
410 541 l

-12 0 m
-12 106 l
119 106 l
651 1493 l
819 1493 l
1352 106 l
1499 106 l
1499 0 l
956 0 l
956 106 l
1122 106 l
997 434 l
369 434 l
244 106 l
408 106 l
408 0 l
-12 0 l

ce} d
/parenleft{799 0 162 -319 653 1556 sc
653 -319 m
491 -246 369 -131 286 26 c
203 184 162 381 162 618 c
162 855 203 1053 286 1210 c
369 1368 491 1483 653 1556 c
653 1458 l
550 1387 477 1288 432 1159 c
387 1031 365 851 365 618 c
365 386 387 206 432 77 c
477 -51 550 -150 653 -221 c
653 -319 l

ce} d
/parenright{799 0 145 -319 637 1556 sc
145 -319 m
145 -221 l
248 -150 321 -51 366 77 c
411 206 434 386 434 618 c
434 851 411 1031 366 1159 c
321 1288 248 1387 145 1458 c
145 1556 l
308 1483 430 1368 513 1210 c
596 1053 637 855 637 618 c
637 381 596 184 513 26 c
430 -131 308 -246 145 -319 c

ce} d
/zero{1303 0 135 -29 1167 1520 sc
651 70 m
753 70 829 126 880 238 c
931 350 956 519 956 745 c
956 972 931 1141 880 1253 c
829 1365 753 1421 651 1421 c
549 1421 473 1365 422 1253 c
371 1141 346 972 346 745 c
346 519 371 350 422 238 c
473 126 549 70 651 70 c

651 -29 m
489 -29 362 39 271 175 c
180 311 135 501 135 745 c
135 990 180 1180 271 1316 c
362 1452 489 1520 651 1520 c
814 1520 940 1452 1031 1316 c
1122 1180 1167 990 1167 745 c
1167 501 1122 311 1031 175 c
940 39 814 -29 651 -29 c

ce} d
/one{1303 0 250 0 1012 1520 sc
291 0 m
291 106 l
551 106 l
551 1348 l
250 1153 l
250 1284 l
614 1520 l
752 1520 l
752 106 l
1012 106 l
1012 0 l
291 0 l

ce} d
/two{1303 0 139 0 1102 1520 sc
262 1137 m
150 1137 l
150 1403 l
221 1441 293 1470 365 1490 c
438 1510 509 1520 578 1520 c
733 1520 856 1482 946 1407 c
1036 1332 1081 1229 1081 1100 c
1081 954 979 779 775 576 c
759 561 747 549 739 541 c
362 164 l
985 164 l
985 348 l
1102 348 l
1102 0 l
139 0 l
139 109 l
592 561 l
692 661 763 753 806 836 c
849 920 870 1008 870 1100 c
870 1201 844 1279 791 1336 c
739 1393 667 1421 575 1421 c
480 1421 406 1397 354 1350 c
302 1303 271 1232 262 1137 c

ce} d
/three{1303 0 156 -29 1151 1520 sc
199 1430 m
277 1459 352 1482 423 1497 c
495 1512 562 1520 625 1520 c
771 1520 885 1488 967 1425 c
1049 1362 1090 1275 1090 1163 c
1090 1073 1062 998 1005 937 c
948 877 868 836 764 815 c
887 798 982 753 1049 681 c
1117 610 1151 517 1151 403 c
1151 264 1104 157 1010 82 c
917 8 782 -29 606 -29 c
528 -29 452 -21 377 -4 c
303 13 229 38 156 72 c
156 362 l
268 362 l
275 266 307 193 365 144 c
423 95 505 70 610 70 c
712 70 792 99 851 158 c
910 217 940 298 940 401 c
940 518 910 607 849 667 c
788 728 699 758 582 758 c
487 758 l
487 860 l
537 860 l
654 860 741 884 799 932 c
858 981 887 1054 887 1151 c
887 1238 863 1305 815 1351 c
767 1398 698 1421 608 1421 c
518 1421 448 1400 398 1357 c
349 1314 320 1251 311 1167 c
199 1167 l
199 1430 l

ce} d
/p{1311 0 59 -426 1208 1092 sc
420 584 m
420 479 l
420 351 444 253 493 186 c
542 119 614 86 707 86 c
801 86 872 124 920 199 c
969 274 993 385 993 532 c
993 679 969 790 920 865 c
872 940 801 977 707 977 c
614 977 542 943 493 876 c
444 809 420 711 420 584 c

236 956 m
59 956 l
59 1063 l
420 1063 l
420 897 l
456 964 502 1013 557 1044 c
613 1076 682 1092 764 1092 c
895 1092 1001 1040 1084 937 c
1167 834 1208 699 1208 532 c
1208 365 1167 230 1084 126 c
1001 23 895 -29 764 -29 c
682 -29 613 -13 557 18 c
502 50 456 99 420 166 c
420 -319 l
594 -319 l
594 -426 l
59 -426 l
59 -319 l
236 -319 l
236 956 l

ce} d
/s{1051 0 115 -29 946 1092 sc
115 59 m
115 307 l
221 307 l
224 228 248 168 295 129 c
342 90 412 70 504 70 c
587 70 650 85 693 116 c
736 147 758 193 758 252 c
758 299 742 336 710 365 c
679 394 612 424 510 457 c
377 502 l
286 531 219 568 178 612 c
137 656 117 712 117 780 c
117 877 153 954 224 1009 c
295 1064 394 1092 520 1092 c
576 1092 635 1085 697 1070 c
759 1055 823 1034 889 1006 c
889 774 l
783 774 l
780 843 756 896 711 935 c
666 974 604 993 526 993 c
449 993 390 979 350 952 c
311 925 291 884 291 829 c
291 784 306 748 336 721 c
366 694 426 667 516 639 c
662 594 l
763 563 835 523 879 476 c
924 429 946 369 946 295 c
946 194 907 115 830 57 c
753 -0 647 -29 512 -29 c
443 -29 376 -22 311 -7 c
246 8 180 30 115 59 c

ce} d
/six{1303 0 137 -29 1174 1520 sc
670 70 m
764 70 836 104 887 173 c
938 242 963 342 963 471 c
963 600 938 699 887 768 c
836 837 764 872 670 872 c
575 872 502 839 452 772 c
402 705 377 609 377 483 c
377 350 402 248 453 177 c
504 106 576 70 670 70 c

344 822 m
389 872 441 909 498 934 c
555 959 620 971 692 971 c
841 971 958 926 1044 837 c
1131 748 1174 626 1174 471 c
1174 320 1127 198 1034 107 c
941 16 817 -29 662 -29 c
493 -29 364 34 273 159 c
182 285 137 465 137 698 c
137 959 191 1162 298 1305 c
405 1448 557 1520 752 1520 c
805 1520 860 1515 918 1505 c
976 1495 1035 1480 1096 1460 c
1096 1214 l
983 1214 l
975 1281 949 1333 906 1368 c
863 1403 804 1421 731 1421 c
602 1421 505 1372 442 1274 c
379 1176 346 1025 344 822 c

ce} d
/seven{1303 0 172 0 1155 1493 sc
1155 1391 m
571 0 l
422 0 l
979 1329 l
289 1329 l
289 1145 l
172 1145 l
172 1493 l
1155 1493 l
1155 1391 l

ce} d
/five{1303 0 174 -29 1145 1493 sc
1030 1493 m
1030 1329 l
346 1329 l
346 901 l
381 925 421 943 467 955 c
514 967 566 973 623 973 c
784 973 912 928 1005 839 c
1098 750 1145 628 1145 473 c
1145 315 1098 192 1003 103 c
909 15 777 -29 606 -29 c
537 -29 467 -21 395 -4 c
323 13 249 38 174 72 c
174 362 l
287 362 l
293 267 323 195 377 145 c
432 95 508 70 606 70 c
711 70 792 105 849 174 c
906 243 934 343 934 473 c
934 602 906 701 849 770 c
793 839 712 874 606 874 c
546 874 493 863 447 842 c
402 821 361 788 326 743 c
240 743 l
240 1493 l
1030 1493 l

ce} d
end readonly def

/BuildGlyph {
 exch begin
 CharStrings exch
 2 copy known not {pop /.notdef} if
 true 3 1 roll get exec
 end
} d

/BuildChar {
 1 index /Encoding get exch get
 1 index /BuildGlyph get exec
} d

FontName currentdict end definefont pop
%!PS-Adobe-3.0 Resource-Font
%%Creator: Converted from TrueType to Type 3 by Matplotlib.
10 dict begin
/FontName /DejaVuSans-Oblique def
/PaintType 0 def
/FontMatrix [0.00048828125 0 0 0.00048828125 0 0] def
/FontBBox [-2080 -717 3398 2187] def
/FontType 3 def
/Encoding [/I /t] def
/CharStrings 3 dict dup begin
/.notdef 0 def
/I{604 0 55 0 549 1493 sc
346 1493 m
549 1493 l
258 0 l
55 0 l
346 1493 l

ce} d
/t{803 0 131 0 866 1438 sc
866 1120 m
838 977 l
471 977 l
352 369 l
348 346 345 327 343 312 c
341 297 340 285 340 276 c
340 233 353 202 378 183 c
404 164 445 154 502 154 c
688 154 l
657 0 l
481 0 l
372 0 290 21 236 64 c
183 107 156 171 156 258 c
156 273 157 290 159 308 c
161 327 164 347 168 369 c
287 977 l
131 977 l
160 1120 l
313 1120 l
375 1438 l
559 1438 l
498 1120 l
866 1120 l

ce} d
end readonly def

/BuildGlyph {
 exch begin
 CharStrings exch
 2 copy known not {pop /.notdef} if
 true 3 1 roll get exec
 end
} d

/BuildChar {
 1 index /Encoding get exch get
 1 index /BuildGlyph get exec
} d

FontName currentdict end definefont pop
%!PS-Adobe-3.0 Resource-Font
%%Creator: Converted from TrueType to Type 3 by Matplotlib.
10 dict begin
/FontName /DejaVuSans def
/PaintType 0 def
/FontMatrix [0.00048828125 0 0 0.00048828125 0 0] def
/FontBBox [-2090 -948 3673 2524] def
/FontType 3 def
/Encoding [/zero] def
/CharStrings 2 dict dup begin
/.notdef 0 def
/zero{1303 0 135 -29 1167 1520 sc
651 1360 m
547 1360 469 1309 416 1206 c
364 1104 338 950 338 745 c
338 540 364 387 416 284 c
469 182 547 131 651 131 c
756 131 834 182 886 284 c
939 387 965 540 965 745 c
965 950 939 1104 886 1206 c
834 1309 756 1360 651 1360 c

651 1520 m
818 1520 946 1454 1034 1321 c
1123 1189 1167 997 1167 745 c
1167 494 1123 302 1034 169 c
946 37 818 -29 651 -29 c
484 -29 356 37 267 169 c
179 302 135 494 135 745 c
135 997 179 1189 267 1321 c
356 1454 484 1520 651 1520 c

ce} d
end readonly def

/BuildGlyph {
 exch begin
 CharStrings exch
 2 copy known not {pop /.notdef} if
 true 3 1 roll get exec
 end
} d

/BuildChar {
 1 index /Encoding get exch get
 1 index /BuildGlyph get exec
} d

FontName currentdict end definefont pop
end
%%EndProlog
mpldict begin
162 252 translate
288 288 0 0 clipbox
gsave
0 0 m
288 0 l
288 288 l
0 288 l
cl
1.000 setgray
fill
grestore
gsave
43.2 43.2 m
259.2 43.2 l
259.2 259.2 l
43.2 259.2 l
cl
1.000 setgray
fill
grestore
0.800 setlinewidth
1 setlinejoin
2 setlinecap
[] 0 setdash
0.690 setgray
gsave
216 216 43.2 43.2 clipbox
81.199723 43.2 m
81.199723 259.2 l
stroke
grestore
1.000 setlinewidth
0 setlinecap
0.000 setgray
gsave
/o {
gsave
newpath
translate
1.0 setlinewidth
1 setlinejoin

0 setlinecap

0 0 m
0 5 l

gsave
0.000 setgray
fill
grestore
stroke
grestore
} bind def
81.1997 43.2 o
grestore
gsave
/o {
gsave
newpath
translate
1.0 setlinewidth
1 setlinejoin

0 setlinecap

0 0 m
0 -5 l

gsave
0.000 setgray
fill
grestore
stroke
grestore
} bind def
81.1997 259.2 o
grestore
/DejaVuSerif 10.000 selectfont
gsave

65.301285 32.106250 translate
0.000000 rotate
0.000000 0 m /one glyphshow
6.362305 0 m /seven glyphshow
12.724609 0 m /six glyphshow
19.086914 0 m /zero glyphshow
25.449219 0 m /zero glyphshow
grestore
0.800 setlinewidth
2 setlinecap
0.690 setgray
gsave
216 216 43.2 43.2 clipbox
137.721307 43.2 m
137.721307 259.2 l
stroke
grestore
1.000 setlinewidth
0 setlinecap
0.000 setgray
gsave
/o {
gsave
newpath
translate
1.0 setlinewidth
1 setlinejoin

0 setlinecap

0 0 m
0 5 l

gsave
0.000 setgray
fill
grestore
stroke
grestore
} bind def
137.721 43.2 o
grestore
gsave
/o {
gsave
newpath
translate
1.0 setlinewidth
1 setlinejoin

0 setlinecap

0 0 m
0 -5 l

gsave
0.000 setgray
fill
grestore
stroke
grestore
} bind def
137.721 259.2 o
grestore
gsave

121.822869 32.106250 translate
0.000000 rotate
0.000000 0 m /one glyphshow
6.362305 0 m /seven glyphshow
12.724609 0 m /six glyphshow
19.086914 0 m /one glyphshow
25.449219 0 m /zero glyphshow
grestore
0.800 setlinewidth
2 setlinecap
0.690 setgray
gsave
216 216 43.2 43.2 clipbox
194.24289 43.2 m
194.24289 259.2 l
stroke
grestore
1.000 setlinewidth
0 setlinecap
0.000 setgray
gsave
/o {
gsave
newpath
translate
1.0 setlinewidth
1 setlinejoin

0 setlinecap

0 0 m
0 5 l

gsave
0.000 setgray
fill
grestore
stroke
grestore
} bind def
194.243 43.2 o
grestore
gsave
/o {
gsave
newpath
translate
1.0 setlinewidth
1 setlinejoin

0 setlinecap

0 0 m
0 -5 l

gsave
0.000 setgray
fill
grestore
stroke
grestore
} bind def
194.243 259.2 o
grestore
gsave

178.344453 32.106250 translate
0.000000 rotate
0.000000 0 m /one glyphshow
6.362305 0 m /seven glyphshow
12.724609 0 m /six glyphshow
19.086914 0 m /two glyphshow
25.449219 0 m /zero glyphshow
grestore
0.800 setlinewidth
2 setlinecap
0.690 setgray
gsave
216 216 43.2 43.2 clipbox
250.764474 43.2 m
250.764474 259.2 l
stroke
grestore
1.000 setlinewidth
0 setlinecap
0.000 setgray
gsave
/o {
gsave
newpath
translate
1.0 setlinewidth
1 setlinejoin

0 setlinecap

0 0 m
0 5 l

gsave
0.000 setgray
fill
grestore
stroke
grestore
} bind def
250.764 43.2 o
grestore
gsave
/o {
gsave
newpath
translate
1.0 setlinewidth
1 setlinejoin

0 setlinecap

0 0 m
0 -5 l

gsave
0.000 setgray
fill
grestore
stroke
grestore
} bind def
250.764 259.2 o
grestore
gsave

234.866036 32.106250 translate
0.000000 rotate
0.000000 0 m /one glyphshow
6.362305 0 m /seven glyphshow
12.724609 0 m /six glyphshow
19.086914 0 m /three glyphshow
25.449219 0 m /zero glyphshow
grestore
0.700 setlinewidth
gsave
/o {
gsave
newpath
translate
0.7 setlinewidth
1 setlinejoin

0 setlinecap

0 0 m
0 3 l

gsave
0.000 setgray
fill
grestore
stroke
grestore
} bind def
47.2868 43.2 o
grestore
gsave
/o {
gsave
newpath
translate
0.7 setlinewidth
1 setlinejoin

0 setlinecap

0 0 m
0 -3 l

gsave
0.000 setgray
fill
grestore
stroke
grestore
} bind def
47.2868 259.2 o
grestore
gsave
/o {
gsave
newpath
translate
0.7 setlinewidth
1 setlinejoin

0 setlinecap

0 0 m
0 3 l

gsave
0.000 setgray
fill
grestore
stroke
grestore
} bind def
58.5911 43.2 o
grestore
gsave
/o {
gsave
newpath
translate
0.7 setlinewidth
1 setlinejoin

0 setlinecap

0 0 m
0 -3 l

gsave
0.000 setgray
fill
grestore
stroke
grestore
} bind def
58.5911 259.2 o
grestore
gsave
/o {
gsave
newpath
translate
0.7 setlinewidth
1 setlinejoin

0 setlinecap

0 0 m
0 3 l

gsave
0.000 setgray
fill
grestore
stroke
grestore
} bind def
69.8954 43.2 o
grestore
gsave
/o {
gsave
newpath
translate
0.7 setlinewidth
1 setlinejoin

0 setlinecap

0 0 m
0 -3 l

gsave
0.000 setgray
fill
grestore
stroke
grestore
} bind def
69.8954 259.2 o
grestore
gsave
/o {
gsave
newpath
translate
0.7 setlinewidth
1 setlinejoin

0 setlinecap

0 0 m
0 3 l

gsave
0.000 setgray
fill
grestore
stroke
grestore
} bind def
92.504 43.2 o
grestore
gsave
/o {
gsave
newpath
translate
0.7 setlinewidth
1 setlinejoin

0 setlinecap

0 0 m
0 -3 l

gsave
0.000 setgray
fill
grestore
stroke
grestore
} bind def
92.504 259.2 o
grestore
gsave
/o {
gsave
newpath
translate
0.7 setlinewidth
1 setlinejoin

0 setlinecap

0 0 m
0 3 l

gsave
0.000 setgray
fill
grestore
stroke
grestore
} bind def
103.808 43.2 o
grestore
gsave
/o {
gsave
newpath
translate
0.7 setlinewidth
1 setlinejoin

0 setlinecap

0 0 m
0 -3 l

gsave
0.000 setgray
fill
grestore
stroke
grestore
} bind def
103.808 259.2 o
grestore
gsave
/o {
gsave
newpath
translate
0.7 setlinewidth
1 setlinejoin

0 setlinecap

0 0 m
0 3 l

gsave
0.000 setgray
fill
grestore
stroke
grestore
} bind def
115.113 43.2 o
grestore
gsave
/o {
gsave
newpath
translate
0.7 setlinewidth
1 setlinejoin

0 setlinecap

0 0 m
0 -3 l

gsave
0.000 setgray
fill
grestore
stroke
grestore
} bind def
115.113 259.2 o
grestore
gsave
/o {
gsave
newpath
translate
0.7 setlinewidth
1 setlinejoin

0 setlinecap

0 0 m
0 3 l

gsave
0.000 setgray
fill
grestore
stroke
grestore
} bind def
126.417 43.2 o
grestore
gsave
/o {
gsave
newpath
translate
0.7 setlinewidth
1 setlinejoin

0 setlinecap

0 0 m
0 -3 l

gsave
0.000 setgray
fill
grestore
stroke
grestore
} bind def
126.417 259.2 o
grestore
gsave
/o {
gsave
newpath
translate
0.7 setlinewidth
1 setlinejoin

0 setlinecap

0 0 m
0 3 l

gsave
0.000 setgray
fill
grestore
stroke
grestore
} bind def
149.026 43.2 o
grestore
gsave
/o {
gsave
newpath
translate
0.7 setlinewidth
1 setlinejoin

0 setlinecap

0 0 m
0 -3 l

gsave
0.000 setgray
fill
grestore
stroke
grestore
} bind def
149.026 259.2 o
grestore
gsave
/o {
gsave
newpath
translate
0.7 setlinewidth
1 setlinejoin

0 setlinecap

0 0 m
0 3 l

gsave
0.000 setgray
fill
grestore
stroke
grestore
} bind def
160.33 43.2 o
grestore
gsave
/o {
gsave
newpath
translate
0.7 setlinewidth
1 setlinejoin

0 setlinecap

0 0 m
0 -3 l

gsave
0.000 setgray
fill
grestore
stroke
grestore
} bind def
160.33 259.2 o
grestore
gsave
/o {
gsave
newpath
translate
0.7 setlinewidth
1 setlinejoin

0 setlinecap

0 0 m
0 3 l

gsave
0.000 setgray
fill
grestore
stroke
grestore
} bind def
171.634 43.2 o
grestore
gsave
/o {
gsave
newpath
translate
0.7 setlinewidth
1 setlinejoin

0 setlinecap

0 0 m
0 -3 l

gsave
0.000 setgray
fill
grestore
stroke
grestore
} bind def
171.634 259.2 o
grestore
gsave
/o {
gsave
newpath
translate
0.7 setlinewidth
1 setlinejoin

0 setlinecap

0 0 m
0 3 l

gsave
0.000 setgray
fill
grestore
stroke
grestore
} bind def
182.939 43.2 o
grestore
gsave
/o {
gsave
newpath
translate
0.7 setlinewidth
1 setlinejoin

0 setlinecap

0 0 m
0 -3 l

gsave
0.000 setgray
fill
grestore
stroke
grestore
} bind def
182.939 259.2 o
grestore
gsave
/o {
gsave
newpath
translate
0.7 setlinewidth
1 setlinejoin

0 setlinecap

0 0 m
0 3 l

gsave
0.000 setgray
fill
grestore
stroke
grestore
} bind def
205.547 43.2 o
grestore
gsave
/o {
gsave
newpath
translate
0.7 setlinewidth
1 setlinejoin

0 setlinecap

0 0 m
0 -3 l

gsave
0.000 setgray
fill
grestore
stroke
grestore
} bind def
205.547 259.2 o
grestore
gsave
/o {
gsave
newpath
translate
0.7 setlinewidth
1 setlinejoin

0 setlinecap

0 0 m
0 3 l

gsave
0.000 setgray
fill
grestore
stroke
grestore
} bind def
216.852 43.2 o
grestore
gsave
/o {
gsave
newpath
translate
0.7 setlinewidth
1 setlinejoin

0 setlinecap

0 0 m
0 -3 l

gsave
0.000 setgray
fill
grestore
stroke
grestore
} bind def
216.852 259.2 o
grestore
gsave
/o {
gsave
newpath
translate
0.7 setlinewidth
1 setlinejoin

0 setlinecap

0 0 m
0 3 l

gsave
0.000 setgray
fill
grestore
stroke
grestore
} bind def
228.156 43.2 o
grestore
gsave
/o {
gsave
newpath
translate
0.7 setlinewidth
1 setlinejoin

0 setlinecap

0 0 m
0 -3 l

gsave
0.000 setgray
fill
grestore
stroke
grestore
} bind def
228.156 259.2 o
grestore
gsave
/o {
gsave
newpath
translate
0.7 setlinewidth
1 setlinejoin

0 setlinecap

0 0 m
0 3 l

gsave
0.000 setgray
fill
grestore
stroke
grestore
} bind def
239.46 43.2 o
grestore
gsave
/o {
gsave
newpath
translate
0.7 setlinewidth
1 setlinejoin

0 setlinecap

0 0 m
0 -3 l

gsave
0.000 setgray
fill
grestore
stroke
grestore
} bind def
239.46 259.2 o
grestore
gsave
129.200000 19.028125 translate
0.000000 rotate
/DejaVuSans-Oblique 14.0 selectfont
0.000000 0.359375 moveto
/t glyphshow
/DejaVuSans 9.799999999999999 selectfont
5.489258 -1.937500 moveto
/zero glyphshow
/DejaVuSerif 14.0 selectfont
12.107129 0.359375 moveto
/space glyphshow
16.557324 0.359375 moveto
/parenleft glyphshow
22.019238 0.359375 moveto
/p glyphshow
30.981152 0.359375 moveto
/s glyphshow
38.165723 0.359375 moveto
/parenright glyphshow
grestore
0.800 setlinewidth
2 setlinecap
0.690 setgray
gsave
216 216 43.2 43.2 clipbox
43.2 52.967594 m
259.2 52.967594 l
stroke
grestore
1.000 setlinewidth
0 setlinecap
0.000 setgray
gsave
/o {
gsave
newpath
translate
1.0 setlinewidth
1 setlinejoin

0 setlinecap

0 0 m
5 0 l

gsave
0.000 setgray
fill
grestore
stroke
grestore
} bind def
43.2 52.9676 o
grestore
gsave
/o {
gsave
newpath
translate
1.0 setlinewidth
1 setlinejoin

0 setlinecap

-0 0 m
-5 0 l

gsave
0.000 setgray
fill
grestore
stroke
grestore
} bind def
259.2 52.9676 o
grestore
gsave

33.340625 49.170719 translate
0.000000 rotate
0.000000 0 m /zero glyphshow
grestore
0.800 setlinewidth
2 setlinecap
0.690 setgray
gsave
216 216 43.2 43.2 clipbox
43.2 79.473233 m
259.2 79.473233 l
stroke
grestore
1.000 setlinewidth
0 setlinecap
0.000 setgray
gsave
/o {
gsave
newpath
translate
1.0 setlinewidth
1 setlinejoin

0 setlinecap

0 0 m
5 0 l

gsave
0.000 setgray
fill
grestore
stroke
grestore
} bind def
43.2 79.4732 o
grestore
gsave
/o {
gsave
newpath
translate
1.0 setlinewidth
1 setlinejoin

0 setlinecap

-0 0 m
-5 0 l

gsave
0.000 setgray
fill
grestore
stroke
grestore
} bind def
259.2 79.4732 o
grestore
gsave

26.981250 75.676358 translate
0.000000 rotate
0.000000 0 m /two glyphshow
6.362305 0 m /five glyphshow
grestore
0.800 setlinewidth
2 setlinecap
0.690 setgray
gsave
216 216 43.2 43.2 clipbox
43.2 105.978873 m
259.2 105.978873 l
stroke
grestore
1.000 setlinewidth
0 setlinecap
0.000 setgray
gsave
/o {
gsave
newpath
translate
1.0 setlinewidth
1 setlinejoin

0 setlinecap

0 0 m
5 0 l

gsave
0.000 setgray
fill
grestore
stroke
grestore
} bind def
43.2 105.979 o
grestore
gsave
/o {
gsave
newpath
translate
1.0 setlinewidth
1 setlinejoin

0 setlinecap

-0 0 m
-5 0 l

gsave
0.000 setgray
fill
grestore
stroke
grestore
} bind def
259.2 105.979 o
grestore
gsave

26.981250 102.181998 translate
0.000000 rotate
0.000000 0 m /five glyphshow
6.362305 0 m /zero glyphshow
grestore
0.800 setlinewidth
2 setlinecap
0.690 setgray
gsave
216 216 43.2 43.2 clipbox
43.2 132.484512 m
259.2 132.484512 l
stroke
grestore
1.000 setlinewidth
0 setlinecap
0.000 setgray
gsave
/o {
gsave
newpath
translate
1.0 setlinewidth
1 setlinejoin

0 setlinecap

0 0 m
5 0 l

gsave
0.000 setgray
fill
grestore
stroke
grestore
} bind def
43.2 132.485 o
grestore
gsave
/o {
gsave
newpath
translate
1.0 setlinewidth
1 setlinejoin

0 setlinecap

-0 0 m
-5 0 l

gsave
0.000 setgray
fill
grestore
stroke
grestore
} bind def
259.2 132.485 o
grestore
gsave

26.981250 128.687637 translate
0.000000 rotate
0.000000 0 m /seven glyphshow
6.362305 0 m /five glyphshow
grestore
0.800 setlinewidth
2 setlinecap
0.690 setgray
gsave
216 216 43.2 43.2 clipbox
43.2 158.990151 m
259.2 158.990151 l
stroke
grestore
1.000 setlinewidth
0 setlinecap
0.000 setgray
gsave
/o {
gsave
newpath
translate
1.0 setlinewidth
1 setlinejoin

0 setlinecap

0 0 m
5 0 l

gsave
0.000 setgray
fill
grestore
stroke
grestore
} bind def
43.2 158.99 o
grestore
gsave
/o {
gsave
newpath
translate
1.0 setlinewidth
1 setlinejoin

0 setlinecap

-0 0 m
-5 0 l

gsave
0.000 setgray
fill
grestore
stroke
grestore
} bind def
259.2 158.99 o
grestore
gsave

20.621875 155.193276 translate
0.000000 rotate
0.000000 0 m /one glyphshow
6.362305 0 m /zero glyphshow
12.724609 0 m /zero glyphshow
grestore
0.800 setlinewidth
2 setlinecap
0.690 setgray
gsave
216 216 43.2 43.2 clipbox
43.2 185.49579 m
259.2 185.49579 l
stroke
grestore
1.000 setlinewidth
0 setlinecap
0.000 setgray
gsave
/o {
gsave
newpath
translate
1.0 setlinewidth
1 setlinejoin

0 setlinecap

0 0 m
5 0 l

gsave
0.000 setgray
fill
grestore
stroke
grestore
} bind def
43.2 185.496 o
grestore
gsave
/o {
gsave
newpath
translate
1.0 setlinewidth
1 setlinejoin

0 setlinecap

-0 0 m
-5 0 l

gsave
0.000 setgray
fill
grestore
stroke
grestore
} bind def
259.2 185.496 o
grestore
gsave

20.621875 181.698915 translate
0.000000 rotate
0.000000 0 m /one glyphshow
6.362305 0 m /two glyphshow
12.724609 0 m /five glyphshow
grestore
0.800 setlinewidth
2 setlinecap
0.690 setgray
gsave
216 216 43.2 43.2 clipbox
43.2 212.00143 m
259.2 212.00143 l
stroke
grestore
1.000 setlinewidth
0 setlinecap
0.000 setgray
gsave
/o {
gsave
newpath
translate
1.0 setlinewidth
1 setlinejoin

0 setlinecap

0 0 m
5 0 l

gsave
0.000 setgray
fill
grestore
stroke
grestore
} bind def
43.2 212.001 o
grestore
gsave
/o {
gsave
newpath
translate
1.0 setlinewidth
1 setlinejoin

0 setlinecap

-0 0 m
-5 0 l

gsave
0.000 setgray
fill
grestore
stroke
grestore
} bind def
259.2 212.001 o
grestore
gsave

20.621875 208.204555 translate
0.000000 rotate
0.000000 0 m /one glyphshow
6.362305 0 m /five glyphshow
12.724609 0 m /zero glyphshow
grestore
0.800 setlinewidth
2 setlinecap
0.690 setgray
gsave
216 216 43.2 43.2 clipbox
43.2 238.507069 m
259.2 238.507069 l
stroke
grestore
1.000 setlinewidth
0 setlinecap
0.000 setgray
gsave
/o {
gsave
newpath
translate
1.0 setlinewidth
1 setlinejoin

0 setlinecap

0 0 m
5 0 l

gsave
0.000 setgray
fill
grestore
stroke
grestore
} bind def
43.2 238.507 o
grestore
gsave
/o {
gsave
newpath
translate
1.0 setlinewidth
1 setlinejoin

0 setlinecap

-0 0 m
-5 0 l

gsave
0.000 setgray
fill
grestore
stroke
grestore
} bind def
259.2 238.507 o
grestore
gsave

20.621875 234.710194 translate
0.000000 rotate
0.000000 0 m /one glyphshow
6.362305 0 m /seven glyphshow
12.724609 0 m /five glyphshow
grestore
0.700 setlinewidth
gsave
/o {
gsave
newpath
translate
0.7 setlinewidth
1 setlinejoin

0 setlinecap

0 0 m
3 0 l

gsave
0.000 setgray
fill
grestore
stroke
grestore
} bind def
43.2 47.6665 o
grestore
gsave
/o {
gsave
newpath
translate
0.7 setlinewidth
1 setlinejoin

0 setlinecap

-0 0 m
-3 0 l

gsave
0.000 setgray
fill
grestore
stroke
grestore
} bind def
259.2 47.6665 o
grestore
gsave
/o {
gsave
newpath
translate
0.7 setlinewidth
1 setlinejoin

0 setlinecap

0 0 m
3 0 l

gsave
0.000 setgray
fill
grestore
stroke
grestore
} bind def
43.2 58.2687 o
grestore
gsave
/o {
gsave
newpath
translate
0.7 setlinewidth
1 setlinejoin

0 setlinecap

-0 0 m
-3 0 l

gsave
0.000 setgray
fill
grestore
stroke
grestore
} bind def
259.2 58.2687 o
grestore
gsave
/o {
gsave
newpath
translate
0.7 setlinewidth
1 setlinejoin

0 setlinecap

0 0 m
3 0 l

gsave
0.000 setgray
fill
grestore
stroke
grestore
} bind def
43.2 63.5698 o
grestore
gsave
/o {
gsave
newpath
translate
0.7 setlinewidth
1 setlinejoin

0 setlinecap

-0 0 m
-3 0 l

gsave
0.000 setgray
fill
grestore
stroke
grestore
} bind def
259.2 63.5698 o
grestore
gsave
/o {
gsave
newpath
translate
0.7 setlinewidth
1 setlinejoin

0 setlinecap

0 0 m
3 0 l

gsave
0.000 setgray
fill
grestore
stroke
grestore
} bind def
43.2 68.871 o
grestore
gsave
/o {
gsave
newpath
translate
0.7 setlinewidth
1 setlinejoin

0 setlinecap

-0 0 m
-3 0 l

gsave
0.000 setgray
fill
grestore
stroke
grestore
} bind def
259.2 68.871 o
grestore
gsave
/o {
gsave
newpath
translate
0.7 setlinewidth
1 setlinejoin

0 setlinecap

0 0 m
3 0 l

gsave
0.000 setgray
fill
grestore
stroke
grestore
} bind def
43.2 74.1721 o
grestore
gsave
/o {
gsave
newpath
translate
0.7 setlinewidth
1 setlinejoin

0 setlinecap

-0 0 m
-3 0 l

gsave
0.000 setgray
fill
grestore
stroke
grestore
} bind def
259.2 74.1721 o
grestore
gsave
/o {
gsave
newpath
translate
0.7 setlinewidth
1 setlinejoin

0 setlinecap

0 0 m
3 0 l

gsave
0.000 setgray
fill
grestore
stroke
grestore
} bind def
43.2 84.7744 o
grestore
gsave
/o {
gsave
newpath
translate
0.7 setlinewidth
1 setlinejoin

0 setlinecap

-0 0 m
-3 0 l

gsave
0.000 setgray
fill
grestore
stroke
grestore
} bind def
259.2 84.7744 o
grestore
gsave
/o {
gsave
newpath
translate
0.7 setlinewidth
1 setlinejoin

0 setlinecap

0 0 m
3 0 l

gsave
0.000 setgray
fill
grestore
stroke
grestore
} bind def
43.2 90.0755 o
grestore
gsave
/o {
gsave
newpath
translate
0.7 setlinewidth
1 setlinejoin

0 setlinecap

-0 0 m
-3 0 l

gsave
0.000 setgray
fill
grestore
stroke
grestore
} bind def
259.2 90.0755 o
grestore
gsave
/o {
gsave
newpath
translate
0.7 setlinewidth
1 setlinejoin

0 setlinecap

0 0 m
3 0 l

gsave
0.000 setgray
fill
grestore
stroke
grestore
} bind def
43.2 95.3766 o
grestore
gsave
/o {
gsave
newpath
translate
0.7 setlinewidth
1 setlinejoin

0 setlinecap

-0 0 m
-3 0 l

gsave
0.000 setgray
fill
grestore
stroke
grestore
} bind def
259.2 95.3766 o
grestore
gsave
/o {
gsave
newpath
translate
0.7 setlinewidth
1 setlinejoin

0 setlinecap

0 0 m
3 0 l

gsave
0.000 setgray
fill
grestore
stroke
grestore
} bind def
43.2 100.678 o
grestore
gsave
/o {
gsave
newpath
translate
0.7 setlinewidth
1 setlinejoin

0 setlinecap

-0 0 m
-3 0 l

gsave
0.000 setgray
fill
grestore
stroke
grestore
} bind def
259.2 100.678 o
grestore
gsave
/o {
gsave
newpath
translate
0.7 setlinewidth
1 setlinejoin

0 setlinecap

0 0 m
3 0 l

gsave
0.000 setgray
fill
grestore
stroke
grestore
} bind def
43.2 111.28 o
grestore
gsave
/o {
gsave
newpath
translate
0.7 setlinewidth
1 setlinejoin

0 setlinecap

-0 0 m
-3 0 l

gsave
0.000 setgray
fill
grestore
stroke
grestore
} bind def
259.2 111.28 o
grestore
gsave
/o {
gsave
newpath
translate
0.7 setlinewidth
1 setlinejoin

0 setlinecap

0 0 m
3 0 l

gsave
0.000 setgray
fill
grestore
stroke
grestore
} bind def
43.2 116.581 o
grestore
gsave
/o {
gsave
newpath
translate
0.7 setlinewidth
1 setlinejoin

0 setlinecap

-0 0 m
-3 0 l

gsave
0.000 setgray
fill
grestore
stroke
grestore
} bind def
259.2 116.581 o
grestore
gsave
/o {
gsave
newpath
translate
0.7 setlinewidth
1 setlinejoin

0 setlinecap

0 0 m
3 0 l

gsave
0.000 setgray
fill
grestore
stroke
grestore
} bind def
43.2 121.882 o
grestore
gsave
/o {
gsave
newpath
translate
0.7 setlinewidth
1 setlinejoin

0 setlinecap

-0 0 m
-3 0 l

gsave
0.000 setgray
fill
grestore
stroke
grestore
} bind def
259.2 121.882 o
grestore
gsave
/o {
gsave
newpath
translate
0.7 setlinewidth
1 setlinejoin

0 setlinecap

0 0 m
3 0 l

gsave
0.000 setgray
fill
grestore
stroke
grestore
} bind def
43.2 127.183 o
grestore
gsave
/o {
gsave
newpath
translate
0.7 setlinewidth
1 setlinejoin

0 setlinecap

-0 0 m
-3 0 l

gsave
0.000 setgray
fill
grestore
stroke
grestore
} bind def
259.2 127.183 o
grestore
gsave
/o {
gsave
newpath
translate
0.7 setlinewidth
1 setlinejoin

0 setlinecap

0 0 m
3 0 l

gsave
0.000 setgray
fill
grestore
stroke
grestore
} bind def
43.2 137.786 o
grestore
gsave
/o {
gsave
newpath
translate
0.7 setlinewidth
1 setlinejoin

0 setlinecap

-0 0 m
-3 0 l

gsave
0.000 setgray
fill
grestore
stroke
grestore
} bind def
259.2 137.786 o
grestore
gsave
/o {
gsave
newpath
translate
0.7 setlinewidth
1 setlinejoin

0 setlinecap

0 0 m
3 0 l

gsave
0.000 setgray
fill
grestore
stroke
grestore
} bind def
43.2 143.087 o
grestore
gsave
/o {
gsave
newpath
translate
0.7 setlinewidth
1 setlinejoin

0 setlinecap

-0 0 m
-3 0 l

gsave
0.000 setgray
fill
grestore
stroke
grestore
} bind def
259.2 143.087 o
grestore
gsave
/o {
gsave
newpath
translate
0.7 setlinewidth
1 setlinejoin

0 setlinecap

0 0 m
3 0 l

gsave
0.000 setgray
fill
grestore
stroke
grestore
} bind def
43.2 148.388 o
grestore
gsave
/o {
gsave
newpath
translate
0.7 setlinewidth
1 setlinejoin

0 setlinecap

-0 0 m
-3 0 l

gsave
0.000 setgray
fill
grestore
stroke
grestore
} bind def
259.2 148.388 o
grestore
gsave
/o {
gsave
newpath
translate
0.7 setlinewidth
1 setlinejoin

0 setlinecap

0 0 m
3 0 l

gsave
0.000 setgray
fill
grestore
stroke
grestore
} bind def
43.2 153.689 o
grestore
gsave
/o {
gsave
newpath
translate
0.7 setlinewidth
1 setlinejoin

0 setlinecap

-0 0 m
-3 0 l

gsave
0.000 setgray
fill
grestore
stroke
grestore
} bind def
259.2 153.689 o
grestore
gsave
/o {
gsave
newpath
translate
0.7 setlinewidth
1 setlinejoin

0 setlinecap

0 0 m
3 0 l

gsave
0.000 setgray
fill
grestore
stroke
grestore
} bind def
43.2 164.291 o
grestore
gsave
/o {
gsave
newpath
translate
0.7 setlinewidth
1 setlinejoin

0 setlinecap

-0 0 m
-3 0 l

gsave
0.000 setgray
fill
grestore
stroke
grestore
} bind def
259.2 164.291 o
grestore
gsave
/o {
gsave
newpath
translate
0.7 setlinewidth
1 setlinejoin

0 setlinecap

0 0 m
3 0 l

gsave
0.000 setgray
fill
grestore
stroke
grestore
} bind def
43.2 169.592 o
grestore
gsave
/o {
gsave
newpath
translate
0.7 setlinewidth
1 setlinejoin

0 setlinecap

-0 0 m
-3 0 l

gsave
0.000 setgray
fill
grestore
stroke
grestore
} bind def
259.2 169.592 o
grestore
gsave
/o {
gsave
newpath
translate
0.7 setlinewidth
1 setlinejoin

0 setlinecap

0 0 m
3 0 l

gsave
0.000 setgray
fill
grestore
stroke
grestore
} bind def
43.2 174.894 o
grestore
gsave
/o {
gsave
newpath
translate
0.7 setlinewidth
1 setlinejoin

0 setlinecap

-0 0 m
-3 0 l

gsave
0.000 setgray
fill
grestore
stroke
grestore
} bind def
259.2 174.894 o
grestore
gsave
/o {
gsave
newpath
translate
0.7 setlinewidth
1 setlinejoin

0 setlinecap

0 0 m
3 0 l

gsave
0.000 setgray
fill
grestore
stroke
grestore
} bind def
43.2 180.195 o
grestore
gsave
/o {
gsave
newpath
translate
0.7 setlinewidth
1 setlinejoin

0 setlinecap

-0 0 m
-3 0 l

gsave
0.000 setgray
fill
grestore
stroke
grestore
} bind def
259.2 180.195 o
grestore
gsave
/o {
gsave
newpath
translate
0.7 setlinewidth
1 setlinejoin

0 setlinecap

0 0 m
3 0 l

gsave
0.000 setgray
fill
grestore
stroke
grestore
} bind def
43.2 190.797 o
grestore
gsave
/o {
gsave
newpath
translate
0.7 setlinewidth
1 setlinejoin

0 setlinecap

-0 0 m
-3 0 l

gsave
0.000 setgray
fill
grestore
stroke
grestore
} bind def
259.2 190.797 o
grestore
gsave
/o {
gsave
newpath
translate
0.7 setlinewidth
1 setlinejoin

0 setlinecap

0 0 m
3 0 l

gsave
0.000 setgray
fill
grestore
stroke
grestore
} bind def
43.2 196.098 o
grestore
gsave
/o {
gsave
newpath
translate
0.7 setlinewidth
1 setlinejoin

0 setlinecap

-0 0 m
-3 0 l

gsave
0.000 setgray
fill
grestore
stroke
grestore
} bind def
259.2 196.098 o
grestore
gsave
/o {
gsave
newpath
translate
0.7 setlinewidth
1 setlinejoin

0 setlinecap

0 0 m
3 0 l

gsave
0.000 setgray
fill
grestore
stroke
grestore
} bind def
43.2 201.399 o
grestore
gsave
/o {
gsave
newpath
translate
0.7 setlinewidth
1 setlinejoin

0 setlinecap

-0 0 m
-3 0 l

gsave
0.000 setgray
fill
grestore
stroke
grestore
} bind def
259.2 201.399 o
grestore
gsave
/o {
gsave
newpath
translate
0.7 setlinewidth
1 setlinejoin

0 setlinecap

0 0 m
3 0 l

gsave
0.000 setgray
fill
grestore
stroke
grestore
} bind def
43.2 206.7 o
grestore
gsave
/o {
gsave
newpath
translate
0.7 setlinewidth
1 setlinejoin

0 setlinecap

-0 0 m
-3 0 l

gsave
0.000 setgray
fill
grestore
stroke
grestore
} bind def
259.2 206.7 o
grestore
gsave
/o {
gsave
newpath
translate
0.7 setlinewidth
1 setlinejoin

0 setlinecap

0 0 m
3 0 l

gsave
0.000 setgray
fill
grestore
stroke
grestore
} bind def
43.2 217.303 o
grestore
gsave
/o {
gsave
newpath
translate
0.7 setlinewidth
1 setlinejoin

0 setlinecap

-0 0 m
-3 0 l

gsave
0.000 setgray
fill
grestore
stroke
grestore
} bind def
259.2 217.303 o
grestore
gsave
/o {
gsave
newpath
translate
0.7 setlinewidth
1 setlinejoin

0 setlinecap

0 0 m
3 0 l

gsave
0.000 setgray
fill
grestore
stroke
grestore
} bind def
43.2 222.604 o
grestore
gsave
/o {
gsave
newpath
translate
0.7 setlinewidth
1 setlinejoin

0 setlinecap

-0 0 m
-3 0 l

gsave
0.000 setgray
fill
grestore
stroke
grestore
} bind def
259.2 222.604 o
grestore
gsave
/o {
gsave
newpath
translate
0.7 setlinewidth
1 setlinejoin

0 setlinecap

0 0 m
3 0 l

gsave
0.000 setgray
fill
grestore
stroke
grestore
} bind def
43.2 227.905 o
grestore
gsave
/o {
gsave
newpath
translate
0.7 setlinewidth
1 setlinejoin

0 setlinecap

-0 0 m
-3 0 l

gsave
0.000 setgray
fill
grestore
stroke
grestore
} bind def
259.2 227.905 o
grestore
gsave
/o {
gsave
newpath
translate
0.7 setlinewidth
1 setlinejoin

0 setlinecap

0 0 m
3 0 l

gsave
0.000 setgray
fill
grestore
stroke
grestore
} bind def
43.2 233.206 o
grestore
gsave
/o {
gsave
newpath
translate
0.7 setlinewidth
1 setlinejoin

0 setlinecap

-0 0 m
-3 0 l

gsave
0.000 setgray
fill
grestore
stroke
grestore
} bind def
259.2 233.206 o
grestore
gsave
/o {
gsave
newpath
translate
0.7 setlinewidth
1 setlinejoin

0 setlinecap

0 0 m
3 0 l

gsave
0.000 setgray
fill
grestore
stroke
grestore
} bind def
43.2 243.808 o
grestore
gsave
/o {
gsave
newpath
translate
0.7 setlinewidth
1 setlinejoin

0 setlinecap

-0 0 m
-3 0 l

gsave
0.000 setgray
fill
grestore
stroke
grestore
} bind def
259.2 243.808 o
grestore
gsave
/o {
gsave
newpath
translate
0.7 setlinewidth
1 setlinejoin

0 setlinecap

0 0 m
3 0 l

gsave
0.000 setgray
fill
grestore
stroke
grestore
} bind def
43.2 249.109 o
grestore
gsave
/o {
gsave
newpath
translate
0.7 setlinewidth
1 setlinejoin

0 setlinecap

-0 0 m
-3 0 l

gsave
0.000 setgray
fill
grestore
stroke
grestore
} bind def
259.2 249.109 o
grestore
gsave
/o {
gsave
newpath
translate
0.7 setlinewidth
1 setlinejoin

0 setlinecap

0 0 m
3 0 l

gsave
0.000 setgray
fill
grestore
stroke
grestore
} bind def
43.2 254.41 o
grestore
gsave
/o {
gsave
newpath
translate
0.7 setlinewidth
1 setlinejoin

0 setlinecap

-0 0 m
-3 0 l

gsave
0.000 setgray
fill
grestore
stroke
grestore
} bind def
259.2 254.41 o
grestore
gsave
17.621875 136.200000 translate
90.000000 rotate
/DejaVuSans-Oblique 14.0 selectfont
0.000000 0.359375 moveto
/I glyphshow
/DejaVuSerif 14.0 selectfont
4.128906 0.359375 moveto
/space glyphshow
8.579102 0.359375 moveto
/parenleft glyphshow
14.041016 0.359375 moveto
/A glyphshow
24.151367 0.359375 moveto
/parenright glyphshow
grestore
2.000 setlinewidth
2 setlinecap
1.000 0.000 0.000 setrgbcolor
gsave
216 216 43.2 43.2 clipbox
53.018182 54.073598 m
55.001653 59.12576 l
56.985124 78.52701 l
58.968595 87.908585 l
60.952066 98.173855 l
62.935537 99.702196 l
64.919008 111.418412 l
66.902479 121.53509 l
68.88595 129.20516 l
70.869421 126.662167 l
72.852893 131.911113 l
74.836364 158.395705 l
76.819835 166.932927 l
78.803306 164.898202 l
80.786777 155.536869 l
82.770248 146.945823 l
84.753719 152.441062 l
86.73719 158.938869 l
88.720661 125.757463 l
90.704132 123.194929 l
92.687603 134.635939 l
94.671074 146.841967 l
96.654545 159.46082 l
98.638017 146.423652 l
100.621488 156.277755 l
102.604959 165.368338 l
104.58843 166.672323 l
106.571901 169.486116 l
108.555372 178.555683 l
110.538843 181.37805 l
112.522314 185.946519 l
114.505785 192.273086 l
116.489256 191.175977 l
118.472727 203.582655 l
120.456198 205.080924 l
122.439669 203.871571 l
124.42314 214.472055 l
126.406612 214.091615 l
128.390083 216.848374 l
130.373554 227.924483 l
132.357025 221.853696 l
134.340496 225.230683 l
136.323967 234.98833 l
138.307438 230.552612 l
140.290909 231.057099 l
142.27438 235.944261 l
144.257851 241.751727 l
146.241322 237.589611 l
148.224793 239.393693 l
150.208264 247.616666 l
152.191736 238.110819 l
154.175207 247.459745 l
156.158678 247.460678 l
158.142149 244.659055 l
160.12562 246.506556 l
162.109091 243.739117 l
164.092562 249.381818 l
166.076033 244.647442 l
168.059504 244.630471 l
170.042975 246.10823 l
172.026446 242.566528 l
174.009917 243.943834 l
175.993388 240.263207 l
177.97686 239.686167 l
179.960331 238.719128 l
181.943802 234.23904 l
183.927273 233.987154 l
185.910744 230.746916 l
187.894215 227.40146 l
189.877686 224.464536 l
191.861157 221.435489 l
193.844628 218.012897 l
195.828099 214.865956 l
197.81157 207.440823 l
199.795041 202.07976 l
201.778512 202.955743 l
203.761983 192.524595 l
205.745455 190.126994 l
207.728926 182.284389 l
209.712397 175.385087 l
211.695868 169.051327 l
213.679339 161.201525 l
215.66281 155.276619 l
217.646281 145.88224 l
219.629752 138.008792 l
221.613223 128.60063 l
223.596694 121.257806 l
225.580165 111.942356 l
227.563636 101.731828 l
229.547107 91.314863 l
231.530579 83.203134 l
233.51405 74.377816 l
235.497521 65.8316 l
237.480992 59.988964 l
239.464463 56.294751 l
241.447934 54.127667 l
243.431405 53.518758 l
245.414876 53.327526 l
247.398347 53.018182 l
249.381818 53.02004 l
stroke
grestore
0.800 setlinewidth
0 setlinejoin
0.000 setgray
gsave
43.2 43.2 m
43.2 259.2 l
stroke
grestore
gsave
259.2 43.2 m
259.2 259.2 l
stroke
grestore
gsave
43.2 43.2 m
259.2 43.2 l
stroke
grestore
gsave
43.2 259.2 m
259.2 259.2 l
stroke
grestore

end
showpage
