O    0.291750    0.000000    0.000000    0.000000     0
Q    0.067500    0.000000    0.000000    0.000000     0
O    0.182500    0.000000    0.000000    0.000000     0
Q    0.067500   -0.190968   -1.500000    1.500000    0
O    0.727500    0.000000    0.000000    0.000000    0
Q    0.067500    0.000000    0.000000    0.000000    0
O    0.177500    0.000000    0.000000    0.000000    0
Q    0.067500    0.340006   -1.500000    1.500000    0
O    1.220000    0.000000    0.000000    0.000000    0
Q    0.067500   -0.163554   -1.500000    1.500000    0
O    0.407500    0.000000    0.000000    0.000000     0
Q    0.067500    0.000000    0.000000    0.000000     0
O    1.485500    0.000000    0.000000    0.000000     0
Q    0.067500    0.000000    0.000000    0.000000     0
O    0.112500    0.000000    0.000000    0.000000     0
Q    0.067500    0.000000    0.000000    0.000000     0
O    1.632500    0.000000    0.000000    0.000000     0
Q    0.067500    0.000000    0.000000    0.000000     0
O    0.312500    0.000000    0.000000    0.000000     0
Q    0.067500    0.250000   -1.500000    1.500000     0
O    0.312500    0.000000    0.000000    0.000000     0
Q    0.067500    0.000000    0.000000    0.000000     0
O    0.312500    0.000000    0.000000    0.000000     0
Q    0.067500    0.000000    0.000000    0.000000     0
O    0.312500    0.000000    0.000000    0.000000     0
Q    0.067500   -0.465000   -1.500000    1.500000     0
O    0.312500    0.000000    0.000000    0.000000     0
Q    0.067500    0.000000    0.000000    0.000000     0 
O    0.312500    0.000000    0.000000    0.000000     0
Q    0.067500    0.000000    0.000000    0.000000     0
O    0.312500    0.000000    0.000000    0.000000     0
Q    0.067500    0.257000   -1.500000    1.500000     0
O    0.312500    0.000000    0.000000    0.000000     0
Q    0.067500    0.000000    0.000000    0.000000     0
O    1.439500    0.000000    0.000000    0.000000     0
Q    0.067500    0.000000    0.000000    0.000000     0
O    0.032500    0.000000    0.000000    0.000000     0
Q    0.067500    0.000000    0.000000    0.000000     0
O    3.184500    0.000000    0.000000    0.000000     0
Q    0.067500    0.000000    0.000000    0.000000     0
O   -0.020750    0.000000    0.000000    0.000000     0
