%!PS-Adobe-3.0 EPSF-3.0
%%Title: sco-rms_xy-z.eps
%%Creator: matplotlib version 2.2.3, http://matplotlib.org/
%%CreationDate: Mon Nov 26 17:03:12 2018
%%Orientation: portrait
%%BoundingBox: 18 252 594 540
%%EndComments
%%BeginProlog
/mpldict 9 dict def
mpldict begin
/m { moveto } bind def
/l { lineto } bind def
/r { rlineto } bind def
/c { curveto } bind def
/cl { closepath } bind def
/box {
m
1 index 0 r
0 exch r
neg 0 r
cl
} bind def
/clipbox {
box
clip
newpath
} bind def
%!PS-Adobe-3.0 Resource-Font
%%Title: DejaVu Sans Oblique
%%Copyright: Copyright (c) 2003 by Bitstream, Inc. All Rights Reserved. Copyright (c) 2006 by Tavmjong Bah. All Rights Reserved. DejaVu changes are in public domain 
%%Creator: Converted from TrueType to type 3 by PPR
25 dict begin
/_d{bind def}bind def
/_m{moveto}_d
/_l{lineto}_d
/_cl{closepath eofill}_d
/_c{curveto}_d
/_sc{7 -1 roll{setcachedevice}{pop pop pop pop pop pop}ifelse}_d
/_e{exec}_d
/FontName /DejaVuSans-Oblique def
/PaintType 0 def
/FontMatrix[.001 0 0 .001 0 0]def
/FontBBox[-1016 -350 1659 1068]def
/FontType 3 def
/Encoding [ /x /y /z /sigma ] def
/FontInfo 10 dict dup begin
/FamilyName (DejaVu Sans) def
/FullName (DejaVu Sans Oblique) def
/Notice (Copyright (c) 2003 by Bitstream, Inc. All Rights Reserved. Copyright (c) 2006 by Tavmjong Bah. All Rights Reserved. DejaVu changes are in public domain ) def
/Weight (Oblique) def
/Version (Version 2.35) def
/ItalicAngle -11.0 def
/isFixedPitch false def
/UnderlinePosition -130 def
/UnderlineThickness 90 def
end readonly def
/CharStrings 5 dict dup begin
/.notdef 0 def
/x{592 0 -25 0 600 547 _sc
600 547 _m
349 279 _l
503 0 _l
400 0 _l
284 217 _l
83 0 _l
-25 0 _l
243 288 _l
100 547 _l
203 547 _l
308 349 _l
491 547 _l
600 547 _l
_cl}_d
/y{592 0 -24 -207 603 547 _sc
248 -50 _m
206 -120 172 -163 146 -181 _c
120 -198 86 -207 46 -207 _c
-24 -207 _l
-9 -132 _l
42 -132 _l
67 -132 88 -125 106 -111 _c
123 -97 143 -71 165 -31 _c
193 20 _l
72 547 _l
167 547 _l
258 128 _l
509 547 _l
603 547 _l
248 -50 _l
_cl}_d
/z{525 0 -2 0 543 547 _sc
116 547 _m
543 547 _l
527 465 _l
115 72 _l
455 72 _l
441 0 _l
-2 0 _l
13 82 _l
425 475 _l
102 475 _l
116 547 _l
_cl}_d
/sigma{{634 0 57 -13 659 547 _sc
347 476 _m
297 476 255 458 222 422 _c
186 384 163 335 151 273 _c
138 207 142 156 163 118 _c
183 80 218 62 267 62 _c
314 62 355 81 391 119 _c
426 156 450 207 463 273 _c
474 332 470 382 450 422 _c
431 458 397 476 347 476 _c
361 547 _m
659 547 _l
642 457 _l
541 457 _l
566 406 572 345 559 273 _c
541 183 505 113 451 63 _c
396 12 329 -13 251 -13 _c
}_e{173 -13 116 12 82 63 _c
47 113 39 183 57 273 _c
74 363 110 433 164 484 _c
209 526 275 547 361 547 _c
_cl}_e}_d
end readonly def

/BuildGlyph
 {exch begin
 CharStrings exch
 2 copy known not{pop /.notdef}if
 true 3 1 roll get exec
 end}_d

/BuildChar {
 1 index /Encoding get exch get
 1 index /BuildGlyph get exec
}_d

FontName currentdict end definefont pop
%!PS-Adobe-3.0 Resource-Font
%%Title: DejaVu Sans
%%Copyright: Copyright (c) 2003 by Bitstream, Inc. All Rights Reserved. Copyright (c) 2006 by Tavmjong Bah. All Rights Reserved. DejaVu changes are in public domain 
%%Creator: Converted from TrueType to type 3 by PPR
25 dict begin
/_d{bind def}bind def
/_m{moveto}_d
/_l{lineto}_d
/_cl{closepath eofill}_d
/_c{curveto}_d
/_sc{7 -1 roll{setcachedevice}{pop pop pop pop pop pop}ifelse}_d
/_e{exec}_d
/FontName /DejaVuSans def
/PaintType 0 def
/FontMatrix[.001 0 0 .001 0 0]def
/FontBBox[-1021 -463 1793 1232]def
/FontType 3 def
/Encoding [ /space /parenleft /parenright /period /slash /zero /one /two /three /four /five /six /eight /m /x /y ] def
/FontInfo 10 dict dup begin
/FamilyName (DejaVu Sans) def
/FullName (DejaVu Sans) def
/Notice (Copyright (c) 2003 by Bitstream, Inc. All Rights Reserved. Copyright (c) 2006 by Tavmjong Bah. All Rights Reserved. DejaVu changes are in public domain ) def
/Weight (Book) def
/Version (Version 2.35) def
/ItalicAngle 0.0 def
/isFixedPitch false def
/UnderlinePosition -130 def
/UnderlineThickness 90 def
end readonly def
/CharStrings 17 dict dup begin
/.notdef 0 def
/space{318 0 0 0 0 0 _sc
}_d
/parenleft{390 0 86 -131 310 759 _sc
310 759 _m
266 683 234 609 213 536 _c
191 463 181 389 181 314 _c
181 238 191 164 213 91 _c
234 17 266 -56 310 -131 _c
232 -131 _l
183 -54 146 20 122 94 _c
98 168 86 241 86 314 _c
86 386 98 459 122 533 _c
146 607 182 682 232 759 _c
310 759 _l
_cl}_d
/parenright{390 0 80 -131 304 759 _sc
80 759 _m
158 759 _l
206 682 243 607 267 533 _c
291 459 304 386 304 314 _c
304 241 291 168 267 94 _c
243 20 206 -54 158 -131 _c
80 -131 _l
123 -56 155 17 177 91 _c
198 164 209 238 209 314 _c
209 389 198 463 177 536 _c
155 609 123 683 80 759 _c
_cl}_d
/period{318 0 107 0 210 124 _sc
107 124 _m
210 124 _l
210 0 _l
107 0 _l
107 124 _l
_cl}_d
/slash{337 0 0 -92 337 729 _sc
254 729 _m
337 729 _l
83 -92 _l
0 -92 _l
254 729 _l
_cl}_d
/zero{636 0 66 -13 570 742 _sc
318 664 _m
267 664 229 639 203 589 _c
177 539 165 464 165 364 _c
165 264 177 189 203 139 _c
229 89 267 64 318 64 _c
369 64 407 89 433 139 _c
458 189 471 264 471 364 _c
471 464 458 539 433 589 _c
407 639 369 664 318 664 _c
318 742 _m
399 742 461 709 505 645 _c
548 580 570 486 570 364 _c
570 241 548 147 505 83 _c
461 19 399 -13 318 -13 _c
236 -13 173 19 130 83 _c
87 147 66 241 66 364 _c
66 486 87 580 130 645 _c
173 709 236 742 318 742 _c
_cl}_d
/one{636 0 110 0 544 729 _sc
124 83 _m
285 83 _l
285 639 _l
110 604 _l
110 694 _l
284 729 _l
383 729 _l
383 83 _l
544 83 _l
544 0 _l
124 0 _l
124 83 _l
_cl}_d
/two{{636 0 73 0 536 742 _sc
192 83 _m
536 83 _l
536 0 _l
73 0 _l
73 83 _l
110 121 161 173 226 239 _c
290 304 331 346 348 365 _c
380 400 402 430 414 455 _c
426 479 433 504 433 528 _c
433 566 419 598 392 622 _c
365 646 330 659 286 659 _c
255 659 222 653 188 643 _c
154 632 117 616 78 594 _c
78 694 _l
118 710 155 722 189 730 _c
223 738 255 742 284 742 _c
}_e{359 742 419 723 464 685 _c
509 647 532 597 532 534 _c
532 504 526 475 515 449 _c
504 422 484 390 454 354 _c
446 344 420 317 376 272 _c
332 227 271 164 192 83 _c
_cl}_e}_d
/three{{636 0 76 -13 556 742 _sc
406 393 _m
453 383 490 362 516 330 _c
542 298 556 258 556 212 _c
556 140 531 84 482 45 _c
432 6 362 -13 271 -13 _c
240 -13 208 -10 176 -4 _c
144 1 110 10 76 22 _c
76 117 _l
103 101 133 89 166 81 _c
198 73 232 69 268 69 _c
330 69 377 81 409 105 _c
441 129 458 165 458 212 _c
458 254 443 288 413 312 _c
383 336 341 349 287 349 _c
}_e{202 349 _l
202 430 _l
291 430 _l
339 430 376 439 402 459 _c
428 478 441 506 441 543 _c
441 580 427 609 401 629 _c
374 649 336 659 287 659 _c
260 659 231 656 200 650 _c
169 644 135 635 98 623 _c
98 711 _l
135 721 170 729 203 734 _c
235 739 266 742 296 742 _c
370 742 429 725 473 691 _c
517 657 539 611 539 553 _c
539 513 527 479 504 451 _c
481 423 448 403 406 393 _c
_cl}_e}_d
/four{636 0 49 0 580 729 _sc
378 643 _m
129 254 _l
378 254 _l
378 643 _l
352 729 _m
476 729 _l
476 254 _l
580 254 _l
580 172 _l
476 172 _l
476 0 _l
378 0 _l
378 172 _l
49 172 _l
49 267 _l
352 729 _l
_cl}_d
/five{{636 0 77 -13 549 729 _sc
108 729 _m
495 729 _l
495 646 _l
198 646 _l
198 467 _l
212 472 227 476 241 478 _c
255 480 270 482 284 482 _c
365 482 429 459 477 415 _c
525 370 549 310 549 234 _c
549 155 524 94 475 51 _c
426 8 357 -13 269 -13 _c
238 -13 207 -10 175 -6 _c
143 -1 111 6 77 17 _c
77 116 _l
106 100 136 88 168 80 _c
199 72 232 69 267 69 _c
}_e{323 69 368 83 401 113 _c
433 143 450 183 450 234 _c
450 284 433 324 401 354 _c
368 384 323 399 267 399 _c
241 399 214 396 188 390 _c
162 384 135 375 108 363 _c
108 729 _l
_cl}_e}_d
/six{{636 0 70 -13 573 742 _sc
330 404 _m
286 404 251 388 225 358 _c
199 328 186 286 186 234 _c
186 181 199 139 225 109 _c
251 79 286 64 330 64 _c
374 64 409 79 435 109 _c
461 139 474 181 474 234 _c
474 286 461 328 435 358 _c
409 388 374 404 330 404 _c
526 713 _m
526 623 _l
501 635 476 644 451 650 _c
425 656 400 659 376 659 _c
310 659 260 637 226 593 _c
}_e{192 549 172 482 168 394 _c
187 422 211 444 240 459 _c
269 474 301 482 336 482 _c
409 482 467 459 509 415 _c
551 371 573 310 573 234 _c
573 159 550 99 506 54 _c
462 9 403 -13 330 -13 _c
246 -13 181 19 137 83 _c
92 147 70 241 70 364 _c
70 479 97 571 152 639 _c
206 707 280 742 372 742 _c
396 742 421 739 447 735 _c
472 730 498 723 526 713 _c
_cl}_e}_d
/eight{{636 0 68 -13 568 742 _sc
318 346 _m
271 346 234 333 207 308 _c
180 283 167 249 167 205 _c
167 161 180 126 207 101 _c
234 76 271 64 318 64 _c
364 64 401 76 428 102 _c
455 127 469 161 469 205 _c
469 249 455 283 429 308 _c
402 333 365 346 318 346 _c
219 388 _m
177 398 144 418 120 447 _c
96 476 85 511 85 553 _c
85 611 105 657 147 691 _c
188 725 245 742 318 742 _c
}_e{390 742 447 725 489 691 _c
530 657 551 611 551 553 _c
551 511 539 476 515 447 _c
491 418 459 398 417 388 _c
464 377 501 355 528 323 _c
554 291 568 251 568 205 _c
568 134 546 80 503 43 _c
459 5 398 -13 318 -13 _c
237 -13 175 5 132 43 _c
89 80 68 134 68 205 _c
68 251 81 291 108 323 _c
134 355 171 377 219 388 _c
183 544 _m
183 506 194 476 218 455 _c
}_e{242 434 275 424 318 424 _c
360 424 393 434 417 455 _c
441 476 453 506 453 544 _c
453 582 441 611 417 632 _c
393 653 360 664 318 664 _c
275 664 242 653 218 632 _c
194 611 183 582 183 544 _c
_cl}_e}_d
/m{{974 0 91 0 889 560 _sc
520 442 _m
542 482 569 511 600 531 _c
631 550 668 560 711 560 _c
767 560 811 540 842 500 _c
873 460 889 403 889 330 _c
889 0 _l
799 0 _l
799 327 _l
799 379 789 418 771 444 _c
752 469 724 482 686 482 _c
639 482 602 466 575 435 _c
548 404 535 362 535 309 _c
535 0 _l
445 0 _l
445 327 _l
445 379 435 418 417 444 _c
398 469 369 482 331 482 _c
}_e{285 482 248 466 221 435 _c
194 404 181 362 181 309 _c
181 0 _l
91 0 _l
91 547 _l
181 547 _l
181 462 _l
201 495 226 520 255 536 _c
283 552 317 560 357 560 _c
397 560 430 550 458 530 _c
486 510 506 480 520 442 _c
_cl}_e}_d
/x{592 0 29 0 559 547 _sc
549 547 _m
351 281 _l
559 0 _l
453 0 _l
294 215 _l
135 0 _l
29 0 _l
241 286 _l
47 547 _l
153 547 _l
298 352 _l
443 547 _l
549 547 _l
_cl}_d
/y{592 0 30 -207 562 547 _sc
322 -50 _m
296 -114 271 -157 247 -177 _c
223 -197 191 -207 151 -207 _c
79 -207 _l
79 -132 _l
132 -132 _l
156 -132 175 -126 189 -114 _c
203 -102 218 -75 235 -31 _c
251 9 _l
30 547 _l
125 547 _l
296 119 _l
467 547 _l
562 547 _l
322 -50 _l
_cl}_d
end readonly def

/BuildGlyph
 {exch begin
 CharStrings exch
 2 copy known not{pop /.notdef}if
 true 3 1 roll get exec
 end}_d

/BuildChar {
 1 index /Encoding get exch get
 1 index /BuildGlyph get exec
}_d

FontName currentdict end definefont pop
end
%%EndProlog
mpldict begin
18 252 translate
576 288 0 0 clipbox
gsave
0 0 m
576 0 l
576 288 l
0 288 l
cl
1.000 setgray
fill
grestore
gsave
72 31.68 m
518.4 31.68 l
518.4 253.44 l
72 253.44 l
cl
1.000 setgray
fill
grestore
0.800 setlinewidth
1 setlinejoin
2 setlinecap
[] 0 setdash
0.690 setgray
gsave
446.4 221.8 72 31.68 clipbox
92.263338 31.68 m
92.263338 253.44 l
stroke
grestore
0 setlinecap
0.000 setgray
gsave
/o {
gsave
newpath
translate
0.8 setlinewidth
1 setlinejoin
0 setlinecap
0 0 m
0 -3.5 l

gsave
0.000 setgray
fill
grestore
stroke
grestore
} bind def
92.2633 31.68 o
grestore
/DejaVuSans findfont
10.000 scalefont
setfont
gsave
89.083651 17.086250 translate
0.000000 rotate
0.000000 0.000000 m /zero glyphshow
grestore
2 setlinecap
0.690 setgray
gsave
446.4 221.8 72 31.68 clipbox
147.405424 31.68 m
147.405424 253.44 l
stroke
grestore
0 setlinecap
0.000 setgray
gsave
/o {
gsave
newpath
translate
0.8 setlinewidth
1 setlinejoin
0 setlinecap
0 0 m
0 -3.5 l

gsave
0.000 setgray
fill
grestore
stroke
grestore
} bind def
147.405 31.68 o
grestore
gsave
144.225737 17.086250 translate
0.000000 rotate
0.000000 0.000000 m /two glyphshow
grestore
2 setlinecap
0.690 setgray
gsave
446.4 221.8 72 31.68 clipbox
202.54751 31.68 m
202.54751 253.44 l
stroke
grestore
0 setlinecap
0.000 setgray
gsave
/o {
gsave
newpath
translate
0.8 setlinewidth
1 setlinejoin
0 setlinecap
0 0 m
0 -3.5 l

gsave
0.000 setgray
fill
grestore
stroke
grestore
} bind def
202.548 31.68 o
grestore
gsave
199.367823 17.086250 translate
0.000000 rotate
0.000000 0.000000 m /four glyphshow
grestore
2 setlinecap
0.690 setgray
gsave
446.4 221.8 72 31.68 clipbox
257.689596 31.68 m
257.689596 253.44 l
stroke
grestore
0 setlinecap
0.000 setgray
gsave
/o {
gsave
newpath
translate
0.8 setlinewidth
1 setlinejoin
0 setlinecap
0 0 m
0 -3.5 l

gsave
0.000 setgray
fill
grestore
stroke
grestore
} bind def
257.69 31.68 o
grestore
gsave
254.509909 17.086250 translate
0.000000 rotate
0.000000 0.000000 m /six glyphshow
grestore
2 setlinecap
0.690 setgray
gsave
446.4 221.8 72 31.68 clipbox
312.831682 31.68 m
312.831682 253.44 l
stroke
grestore
0 setlinecap
0.000 setgray
gsave
/o {
gsave
newpath
translate
0.8 setlinewidth
1 setlinejoin
0 setlinecap
0 0 m
0 -3.5 l

gsave
0.000 setgray
fill
grestore
stroke
grestore
} bind def
312.832 31.68 o
grestore
gsave
309.651994 17.086250 translate
0.000000 rotate
0.000000 0.000000 m /eight glyphshow
grestore
2 setlinecap
0.690 setgray
gsave
446.4 221.8 72 31.68 clipbox
367.973768 31.68 m
367.973768 253.44 l
stroke
grestore
0 setlinecap
0.000 setgray
gsave
/o {
gsave
newpath
translate
0.8 setlinewidth
1 setlinejoin
0 setlinecap
0 0 m
0 -3.5 l

gsave
0.000 setgray
fill
grestore
stroke
grestore
} bind def
367.974 31.68 o
grestore
gsave
361.614393 17.086250 translate
0.000000 rotate
0.000000 0.000000 m /one glyphshow
6.362305 0.000000 m /zero glyphshow
grestore
2 setlinecap
0.690 setgray
gsave
446.4 221.8 72 31.68 clipbox
423.115854 31.68 m
423.115854 253.44 l
stroke
grestore
0 setlinecap
0.000 setgray
gsave
/o {
gsave
newpath
translate
0.8 setlinewidth
1 setlinejoin
0 setlinecap
0 0 m
0 -3.5 l

gsave
0.000 setgray
fill
grestore
stroke
grestore
} bind def
423.116 31.68 o
grestore
gsave
416.756479 17.086250 translate
0.000000 rotate
0.000000 0.000000 m /one glyphshow
6.362305 0.000000 m /two glyphshow
grestore
2 setlinecap
0.690 setgray
gsave
446.4 221.8 72 31.68 clipbox
478.25794 31.68 m
478.25794 253.44 l
stroke
grestore
0 setlinecap
0.000 setgray
gsave
/o {
gsave
newpath
translate
0.8 setlinewidth
1 setlinejoin
0 setlinecap
0 0 m
0 -3.5 l

gsave
0.000 setgray
fill
grestore
stroke
grestore
} bind def
478.258 31.68 o
grestore
gsave
471.898565 17.086250 translate
0.000000 rotate
0.000000 0.000000 m /one glyphshow
6.362305 0.000000 m /four glyphshow
grestore
gsave
282.200000 3.086250 translate
0.000000 rotate
/DejaVuSans-Oblique findfont
10.0 scalefont
setfont
0.000000 0.406250 moveto
/z glyphshow

/DejaVuSans findfont
10.0 scalefont
setfont
5.249023 0.406250 moveto
/space glyphshow

8.427734 0.406250 moveto
/parenleft glyphshow

12.329102 0.406250 moveto
/m glyphshow

22.070312 0.406250 moveto
/parenright glyphshow


grestore
2 setlinecap
0.690 setgray
gsave
446.4 221.8 72 31.68 clipbox
72 66.312222 m
518.4 66.312222 l
stroke
grestore
0 setlinecap
0.000 setgray
gsave
/o {
gsave
newpath
translate
0.8 setlinewidth
1 setlinejoin
0 setlinecap
0 0 m
-3.5 0 l

gsave
0.000 setgray
fill
grestore
stroke
grestore
} bind def
72 66.3122 o
grestore
gsave
49.093750 62.515347 translate
0.000000 rotate
0.000000 0.000000 m /zero glyphshow
6.362305 0.000000 m /period glyphshow
9.541016 0.000000 m /five glyphshow
grestore
2 setlinecap
0.690 setgray
gsave
446.4 221.8 72 31.68 clipbox
72 101.659707 m
518.4 101.659707 l
stroke
grestore
0 setlinecap
0.000 setgray
gsave
/o {
gsave
newpath
translate
0.8 setlinewidth
1 setlinejoin
0 setlinecap
0 0 m
-3.5 0 l

gsave
0.000 setgray
fill
grestore
stroke
grestore
} bind def
72 101.66 o
grestore
gsave
49.093750 97.862832 translate
0.000000 rotate
0.000000 0.000000 m /one glyphshow
6.362305 0.000000 m /period glyphshow
9.541016 0.000000 m /zero glyphshow
grestore
2 setlinecap
0.690 setgray
gsave
446.4 221.8 72 31.68 clipbox
72 137.007193 m
518.4 137.007193 l
stroke
grestore
0 setlinecap
0.000 setgray
gsave
/o {
gsave
newpath
translate
0.8 setlinewidth
1 setlinejoin
0 setlinecap
0 0 m
-3.5 0 l

gsave
0.000 setgray
fill
grestore
stroke
grestore
} bind def
72 137.007 o
grestore
gsave
49.093750 133.210318 translate
0.000000 rotate
0.000000 0.000000 m /one glyphshow
6.362305 0.000000 m /period glyphshow
9.541016 0.000000 m /five glyphshow
grestore
2 setlinecap
0.690 setgray
gsave
446.4 221.8 72 31.68 clipbox
72 172.354678 m
518.4 172.354678 l
stroke
grestore
0 setlinecap
0.000 setgray
gsave
/o {
gsave
newpath
translate
0.8 setlinewidth
1 setlinejoin
0 setlinecap
0 0 m
-3.5 0 l

gsave
0.000 setgray
fill
grestore
stroke
grestore
} bind def
72 172.355 o
grestore
gsave
49.093750 168.557803 translate
0.000000 rotate
0.000000 0.000000 m /two glyphshow
6.362305 0.000000 m /period glyphshow
9.541016 0.000000 m /zero glyphshow
grestore
2 setlinecap
0.690 setgray
gsave
446.4 221.8 72 31.68 clipbox
72 207.702164 m
518.4 207.702164 l
stroke
grestore
0 setlinecap
0.000 setgray
gsave
/o {
gsave
newpath
translate
0.8 setlinewidth
1 setlinejoin
0 setlinecap
0 0 m
-3.5 0 l

gsave
0.000 setgray
fill
grestore
stroke
grestore
} bind def
72 207.702 o
grestore
gsave
49.093750 203.905289 translate
0.000000 rotate
0.000000 0.000000 m /two glyphshow
6.362305 0.000000 m /period glyphshow
9.541016 0.000000 m /five glyphshow
grestore
2 setlinecap
0.690 setgray
gsave
446.4 221.8 72 31.68 clipbox
72 243.049649 m
518.4 243.049649 l
stroke
grestore
0 setlinecap
0.000 setgray
gsave
/o {
gsave
newpath
translate
0.8 setlinewidth
1 setlinejoin
0 setlinecap
0 0 m
-3.5 0 l

gsave
0.000 setgray
fill
grestore
stroke
grestore
} bind def
72 243.05 o
grestore
gsave
49.093750 239.252774 translate
0.000000 rotate
0.000000 0.000000 m /three glyphshow
6.362305 0.000000 m /period glyphshow
9.541016 0.000000 m /zero glyphshow
grestore
gsave
41.093750 118.560000 translate
90.000000 rotate
/DejaVuSans-Oblique findfont
10.0 scalefont
setfont
0.000000 0.406250 moveto
/sigma glyphshow

/DejaVuSans-Oblique findfont
7.0 scalefont
setfont
6.337891 -1.234375 moveto
/x glyphshow

/DejaVuSans findfont
7.0 scalefont
setfont
10.480469 -1.234375 moveto
/slash glyphshow

/DejaVuSans-Oblique findfont
7.0 scalefont
setfont
12.838867 -1.234375 moveto
/y glyphshow

/DejaVuSans findfont
10.0 scalefont
setfont
17.254883 0.406250 moveto
/space glyphshow

20.433594 0.406250 moveto
/parenleft glyphshow

24.334961 0.406250 moveto
/m glyphshow

34.076172 0.406250 moveto
/m glyphshow

43.817383 0.406250 moveto
/parenright glyphshow


grestore
1.500 setlinewidth
2 setlinecap
0.122 0.467 0.706 setrgbcolor
gsave
446.4 221.8 72 31.68 clipbox
92.290909 163.661318 m
96.847024 165.875484 l
97.343303 166.454476 l
97.922295 167.500762 l
98.625356 169.273791 l
114.616561 213.058722 l
117.938872 221.965581 l
118.297295 222.25543 l
118.573006 222.210186 l
118.848716 221.933061 l
119.20714 221.224698 l
120.185912 218.411745 l
132.04146 184.400394 l
138.975578 164.99816 l
139.637283 163.831693 l
140.188704 163.252701 l
141.884323 162.212778 l
147.37096 158.966465 l
152.333748 156.167651 l
161.542476 151.334943 l
166.119269 149.112293 l
174.556009 145.340716 l
178.912233 143.562737 l
186.825123 140.638087 l
194.710441 138.126294 l
202.34762 136.087451 l
209.819373 134.47702 l
217.15327 133.272378 l
224.432025 132.450195 l
231.68321 132.003403 l
238.906823 131.929173 l
242.766769 132.040164 l
246.48886 132.246593 l
253.464334 132.894159 l
257.406993 133.408819 l
264.74089 134.649516 l
268.766263 135.483716 l
276.348299 137.346529 l
284.426615 139.739553 l
292.697928 142.613304 l
301.272522 146.029285 l
304.236409 147.438236 l
304.705117 148.097113 l
305.256538 149.2961 l
305.9596 151.43745 l
319.772692 196.796757 l
333.806353 243.244767 l
334.082063 243.355758 l
334.302632 243.207299 l
334.578342 242.724452 l
334.936766 241.605351 l
335.639827 238.395092 l
348.901499 177.036099 l
360.343482 125.039948 l
363.376297 111.931687 l
363.98286 110.436488 l
364.479138 109.753575 l
365.70605 108.829591 l
370.446891 105.441888 l
374.38955 102.845969 l
379.68319 99.717999 l
383.37771 97.807185 l
386.989516 96.179928 l
390.51861 94.833542 l
394.020132 93.737629 l
397.494084 92.88123 l
400.940464 92.250843 l
404.579842 91.812251 l
408.219219 91.596349 l
411.886168 91.593168 l
415.773685 91.812746 l
419.716344 92.257135 l
423.907143 92.959984 l
428.153084 93.899167 l
432.757448 95.158739 l
437.444525 96.680236 l
442.269458 98.479423 l
447.535527 100.691398 l
452.967022 103.221359 l
458.591515 106.084506 l
460.447046 106.911637 l
461.219035 106.94345 l
470.289909 105.888681 l
470.620761 106.302953 l
471.006756 107.188761 l
471.475463 108.855042 l
472.095812 111.985415 l
481.125328 160.019113 l
481.538894 160.873108 l
481.842176 161.071761 l
482.090315 160.965011 l
482.379811 160.540842 l
489.934277 146.826724 l
496.854608 134.633256 l
498.109091 132.469283 l
498.109091 132.469283 l
stroke
grestore
1.000 0.498 0.055 setrgbcolor
gsave
446.4 221.8 72 31.68 clipbox
92.290909 164.419168 m
97.122734 166.534361 l
97.563871 166.320862 l
98.032579 165.842964 l
98.652927 164.85889 l
109.29535 147.065673 l
117.773446 133.359332 l
118.214582 133.031308 l
118.600577 133.005857 l
118.986571 133.225719 l
119.413923 133.748862 l
125.42441 142.573008 l
135.377557 157.573774 l
139.003149 162.965679 l
139.499427 163.25977 l
139.940564 163.280979 l
140.423057 163.057583 l
145.854553 159.844496 l
155.697415 154.419364 l
164.768288 149.891351 l
173.591022 145.941623 l
182.00019 142.611183 l
190.133648 139.808128 l
198.074108 137.480849 l
202.154623 136.445168 l
206.069711 135.555825 l
209.902086 134.784543 l
217.070557 133.610299 l
221.068358 133.107658 l
228.236829 132.483422 l
232.179488 132.291131 l
239.34796 132.218315 l
243.290619 132.329307 l
250.514232 132.810739 l
258.096269 133.699375 l
262.09407 134.323612 l
269.565823 135.776393 l
277.561425 137.735351 l
285.61217 140.120599 l
293.993767 143.031111 l
302.595932 146.458403 l
304.26398 147.028912 l
304.677546 146.810464 l
305.118683 146.300047 l
305.642533 145.322335 l
321.31667 109.829218 l
329.008991 92.941038 l
333.833924 82.725898 l
334.440487 82.000709 l
334.964337 81.686328 l
335.832825 81.531294 l
341.016181 80.806317 l
345.978968 80.332307 l
350.831472 80.095126 l
355.518549 80.097459 l
359.819632 80.317744 l
363.21087 80.483665 l
363.679578 80.107144 l
364.203428 79.374815 l
364.93406 77.90139 l
370.612317 66.19197 l
374.996113 57.628476 l
378.304638 51.619121 l
380.73089 47.645074 l
382.523007 45.109104 l
383.90156 43.51783 l
385.004401 42.558924 l
385.941817 42.019875 l
386.768948 41.786369 l
387.568508 41.790894 l
388.368068 42.021783 l
389.222771 42.504206 l
390.215328 43.334024 l
391.400883 44.636508 l
392.862148 46.594051 l
394.736979 49.500887 l
397.245944 53.83767 l
400.554469 60.036842 l
404.855552 68.603305 l
410.011337 79.378491 l
416.132109 92.697706 l
423.217867 108.682546 l
432.592021 130.593038 l
442.021318 153.365302 l
453.408159 181.689242 l
460.309191 199.500133 l
461.274177 203.015087 l
467.243308 227.81559 l
470.345051 240.259319 l
470.565619 240.353343 l
470.731045 240.168122 l
470.979185 239.478846 l
471.310037 237.794892 l
471.751174 234.202173 l
473.584648 214.766005 l
481.235613 134.66931 l
482.007602 129.348807 l
482.903661 124.909869 l
493.490941 74.688516 l
498.109091 53.263486 l
498.109091 53.263486 l
stroke
grestore
0.800 setlinewidth
0 setlinejoin
[] 0 setdash
0.000 setgray
gsave
72 31.68 m
72 253.44 l
stroke
grestore
gsave
518.4 31.68 m
518.4 253.44 l
stroke
grestore
gsave
72 31.68 m
518.4 31.68 l
stroke
grestore
gsave
72 253.44 m
518.4 253.44 l
stroke
grestore
1.000 setlinewidth
0 setlinecap
0.800 setgray
gsave
79 36.68 m
116.921875 36.68 l
118.255208 36.68 118.921875 37.346667 118.921875 38.68 c
118.921875 67.02375 l
118.921875 68.357083 118.255208 69.02375 116.921875 69.02375 c
79 69.02375 l
77.666667 69.02375 77 68.357083 77 67.02375 c
77 38.68 l
77 37.346667 77.666667 36.68 79 36.68 c
cl
gsave
1.000 setgray
fill
grestore
stroke
grestore
1.500 setlinewidth
1 setlinejoin
2 setlinecap
[] 0 setdash
0.122 0.467 0.706 setrgbcolor
gsave
81 60.93 m
101 60.93 l
stroke
grestore
0.000 setgray
gsave
109.000000 57.430000 translate
0.000000 rotate
0.000000 0.000000 m /x glyphshow
grestore
1.000 0.498 0.055 setrgbcolor
gsave
81 46.258125 m
101 46.258125 l
stroke
grestore
0.000 setgray
gsave
109.000000 42.758125 translate
0.000000 rotate
0.000000 0.000000 m /y glyphshow
grestore

end
showpage
