# Screen        Zpos	        Xrms   Yrms
#LOW.SCR1	0.803000	3.27   3.37
#LOW.SCR2	1.379000	2.50   2.33
#LOW.SCR3	1.708000	2.20   1.97
#HIGH1.SCR1	5.277000	1.73   1.10
#HIGH1.SCR2	6.250000	2.80   0.79
#HIGH1.SCR3	7.125000	2.83   0.78
#HIGH1.SCR4	8.410000	1.10   1.20
#HIGH1.SCR5	8.920000	0.66   0.83
#PST.SCR1	12.278000	2.00   0.88
PST.SCR2	13.038000	2.77   1.16
PST.SCR3	13.798000	4.36   1.02
PST.SCR4	14.558000	3.51   1.50
PST.SCR5	15.318000	2.49   1.91
HIGH2.SCR1	16.303000	1.94   1.57
HIGH2.SCR2	18.262000	1.15   0.82