O    0.256250    0.000000    0.000000    0.000000     0
Q    0.067500    0.000000    0.000000    0.000000     0
O    0.147500    0.000000    0.000000    0.000000     0
Q    0.067500   -0.900000   -1.500000    1.500000     0
O    0.530000    0.000000    0.000000    0.000000     0
Q    0.067500    0.000000    0.000000    0.000000     0
O    0.182500    0.000000    0.000000    0.000000     0
Q    0.067500    1.182500   -1.500000    1.500000     0
O    0.727500    0.000000    0.000000    0.000000     0
Q    0.067500   -0.640000   -1.500000    1.500000     0
O    0.177500    0.000000    0.000000    0.000000     0
Q    0.067500    0.000000    0.000000    0.000000     0
O    1.220000    0.000000    0.000000    0.000000     0
Q    0.067500    0.000000    0.000000    0.000000     0
O    0.407500    0.000000    0.000000    0.000000     0
Q    0.067500    0.000000    0.000000    0.000000     0
O    0.311250    0.000000    0.000000    0.000000     0
