%!PS-Adobe-3.0 EPSF-3.0
%%Title: rms-z.eps
%%Creator: matplotlib version 3.1.1, http://matplotlib.org/
%%CreationDate: Fri Jan 10 15:52:45 2020
%%Orientation: portrait
%%BoundingBox: 18.0 252.0 594.0 540.0
%%EndComments
%%BeginProlog
/mpldict 9 dict def
mpldict begin
/m { moveto } bind def
/l { lineto } bind def
/r { rlineto } bind def
/c { curveto } bind def
/cl { closepath } bind def
/box {
m
1 index 0 r
0 exch r
neg 0 r
cl
} bind def
/clipbox {
box
clip
newpath
} bind def
%!PS-Adobe-3.0 Resource-Font
%%Title: DejaVu Serif
%%Copyright: Copyright (c) 2003 by Bitstream, Inc. All Rights Reserved. DejaVu changes are in public domain 
%%Creator: Converted from TrueType to type 3 by PPR
25 dict begin
/_d{bind def}bind def
/_m{moveto}_d
/_l{lineto}_d
/_cl{closepath eofill}_d
/_c{curveto}_d
/_sc{7 -1 roll{setcachedevice}{pop pop pop pop pop pop}ifelse}_d
/_e{exec}_d
/FontName /DejaVuSerif def
/PaintType 0 def
/FontMatrix[.001 0 0 .001 0 0]def
/FontBBox[-770 -347 2105 1109]def
/FontType 3 def
/Encoding [ /space /parenleft /parenright /period /zero /one /two /three /four /five /E /M /R /S /e /i /m /s /t /z ] def
/FontInfo 10 dict dup begin
/FamilyName (DejaVu Serif) def
/FullName (DejaVu Serif) def
/Notice (Copyright (c) 2003 by Bitstream, Inc. All Rights Reserved. DejaVu changes are in public domain ) def
/Weight (Book) def
/Version (Version 2.35) def
/ItalicAngle 0.0 def
/isFixedPitch false def
/UnderlinePosition -130 def
/UnderlineThickness 90 def
end readonly def
/CharStrings 21 dict dup begin
/.notdef 0 def
/space{318 0 0 0 0 0 _sc
}_d
/parenleft{390 0 79 -155 319 760 _sc
319 -155 _m
239 -119 179 -63 139 13 _c
99 89 79 186 79 302 _c
79 418 99 514 139 591 _c
179 668 239 724 319 760 _c
319 712 _l
269 677 233 628 211 566 _c
189 503 178 415 178 302 _c
178 188 189 100 211 38 _c
233 -24 269 -72 319 -107 _c
319 -155 _l
_cl}_d
/parenright{390 0 71 -155 311 760 _sc
71 -155 _m
71 -107 _l
121 -72 157 -24 179 38 _c
201 100 212 188 212 302 _c
212 415 201 503 179 566 _c
157 628 121 677 71 712 _c
71 760 _l
150 724 210 668 250 591 _c
290 514 311 418 311 302 _c
311 186 290 89 250 13 _c
210 -63 150 -119 71 -155 _c
_cl}_d
/period{318 0 94 -13 224 116 _sc
94 51 _m
94 69 100 84 112 97 _c
124 109 140 116 159 116 _c
177 116 192 109 205 97 _c
217 84 224 69 224 51 _c
224 33 217 17 205 5 _c
192 -7 177 -13 159 -13 _c
140 -13 124 -7 112 5 _c
100 17 94 32 94 51 _c
_cl}_d
/zero{636 0 66 -13 570 742 _sc
318 34 _m
368 34 405 61 430 116 _c
454 170 467 253 467 364 _c
467 474 454 557 430 612 _c
405 666 368 694 318 694 _c
268 694 230 666 206 612 _c
181 557 169 474 169 364 _c
169 253 181 170 206 116 _c
230 61 268 34 318 34 _c
318 -13 _m
238 -13 176 20 132 86 _c
88 152 66 244 66 364 _c
66 483 88 576 132 642 _c
176 708 238 742 318 742 _c
397 742 459 708 503 642 _c
547 576 570 483 570 364 _c
570 244 547 152 503 86 _c
459 20 397 -13 318 -13 _c
_cl}_d
/one{636 0 122 0 494 742 _sc
142 0 _m
142 52 _l
269 52 _l
269 658 _l
122 563 _l
122 627 _l
300 742 _l
367 742 _l
367 52 _l
494 52 _l
494 0 _l
142 0 _l
_cl}_d
/two{{636 0 68 0 538 742 _sc
128 555 _m
73 555 _l
73 685 _l
107 703 142 717 178 727 _c
213 737 248 742 282 742 _c
358 742 418 723 462 687 _c
506 650 528 600 528 537 _c
528 465 478 380 378 281 _c
370 273 365 268 361 264 _c
177 80 _l
481 80 _l
481 170 _l
538 170 _l
538 0 _l
68 0 _l
68 53 _l
289 274 _l
337 322 372 367 393 408 _c
414 449 425 492 425 537 _c
}_e{425 586 412 624 386 652 _c
360 680 325 694 281 694 _c
234 694 198 682 173 659 _c
147 636 132 601 128 555 _c
_cl}_e}_d
/three{{636 0 76 -13 562 742 _sc
97 698 _m
135 712 171 723 206 731 _c
241 738 274 742 305 742 _c
376 742 432 726 472 696 _c
512 665 532 622 532 568 _c
532 524 518 487 490 458 _c
462 428 423 408 373 398 _c
433 389 479 367 512 332 _c
545 297 562 252 562 197 _c
562 129 539 77 493 41 _c
447 5 382 -13 296 -13 _c
258 -13 220 -9 184 -1 _c
148 6 112 18 76 35 _c
76 177 _l
}_e{131 177 _l
134 129 150 94 178 70 _c
206 46 246 34 298 34 _c
348 34 387 48 416 77 _c
444 106 459 146 459 196 _c
459 253 444 296 414 326 _c
384 355 341 370 284 370 _c
238 370 _l
238 420 _l
262 420 _l
319 420 362 431 390 455 _c
418 479 433 514 433 562 _c
433 604 421 637 398 660 _c
374 682 341 694 297 694 _c
253 694 218 683 194 662 _c
170 641 156 610 152 570 _c
}_e{97 570 _l
97 698 _l
_cl}_e}_d
/four{636 0 31 0 586 742 _sc
349 247 _m
349 635 _l
100 247 _l
349 247 _l
564 0 _m
232 0 _l
232 52 _l
349 52 _l
349 195 _l
31 195 _l
31 248 _l
350 742 _l
447 742 _l
447 247 _l
586 247 _l
586 195 _l
447 195 _l
447 52 _l
564 52 _l
564 0 _l
_cl}_d
/five{{636 0 85 -13 559 729 _sc
503 729 _m
503 649 _l
169 649 _l
169 440 _l
185 452 205 460 228 466 _c
250 472 276 475 304 475 _c
382 475 444 453 490 409 _c
536 365 559 306 559 231 _c
559 153 536 93 490 51 _c
444 8 379 -13 296 -13 _c
262 -13 228 -9 193 -1 _c
157 6 121 18 85 35 _c
85 177 _l
140 177 _l
143 130 158 94 184 70 _c
210 46 248 34 296 34 _c
}_e{347 34 386 51 414 85 _c
442 119 456 167 456 231 _c
456 294 442 342 415 376 _c
387 410 348 427 296 427 _c
266 427 240 421 218 411 _c
196 401 176 385 159 363 _c
117 363 _l
117 729 _l
503 729 _l
_cl}_e}_d
/E{730 0 55 0 650 729 _sc
55 0 _m
55 52 _l
148 52 _l
148 677 _l
55 677 _l
55 729 _l
642 729 _l
642 567 _l
582 567 _l
582 669 _l
247 669 _l
247 425 _l
486 425 _l
486 516 _l
546 516 _l
546 274 _l
486 274 _l
486 365 _l
247 365 _l
247 60 _l
590 60 _l
590 162 _l
650 162 _l
650 0 _l
55 0 _l
_cl}_d
/M{1024 0 50 0 973 729 _sc
55 0 _m
55 52 _l
148 52 _l
148 677 _l
50 677 _l
50 729 _l
262 729 _l
518 210 _l
774 729 _l
973 729 _l
973 677 _l
876 677 _l
876 52 _l
969 52 _l
969 0 _l
684 0 _l
684 52 _l
777 52 _l
777 615 _l
527 107 _l
458 107 _l
208 615 _l
208 52 _l
301 52 _l
301 0 _l
55 0 _l
_cl}_d
/R{{753 0 55 0 777 729 _sc
479 362 _m
501 356 521 345 538 330 _c
554 315 569 294 582 268 _c
688 52 _l
777 52 _l
777 0 _l
605 0 _l
491 232 _l
469 276 449 305 431 319 _c
413 332 388 339 356 339 _c
247 339 _l
247 52 _l
350 52 _l
350 0 _l
55 0 _l
55 52 _l
148 52 _l
148 677 _l
55 677 _l
55 729 _l
425 729 _l
495 729 550 712 589 678 _c
}_e{627 644 647 596 647 534 _c
647 484 633 444 605 416 _c
577 387 535 369 479 362 _c
247 391 _m
391 391 _l
440 391 476 402 500 426 _c
523 449 535 485 535 534 _c
535 582 523 618 500 642 _c
476 665 440 677 391 677 _c
247 677 _l
247 391 _l
_cl}_e}_d
/S{{685 0 84 -13 612 742 _sc
93 35 _m
93 201 _l
149 201 _l
150 145 166 104 197 78 _c
227 51 274 38 336 38 _c
394 38 438 49 468 72 _c
498 95 514 129 514 173 _c
514 208 504 235 486 254 _c
468 272 429 291 370 309 _c
274 338 _l
204 359 154 385 126 417 _c
98 448 84 491 84 547 _c
84 609 106 657 150 691 _c
194 725 255 742 335 742 _c
369 742 406 738 446 731 _c
}_e{486 723 529 713 575 699 _c
575 544 _l
520 544 _l
514 595 497 632 468 655 _c
439 678 395 690 337 690 _c
285 690 246 679 219 658 _c
192 637 179 607 179 567 _c
179 532 189 505 209 485 _c
229 465 272 445 338 426 _c
428 399 _l
494 379 541 353 569 323 _c
597 292 612 251 612 199 _c
612 128 589 75 544 40 _c
498 4 431 -13 342 -13 _c
302 -13 261 -9 219 -1 _c
}_e{177 6 135 18 93 35 _c
_cl}_e}_d
/e{{592 0 50 -13 542 533 _sc
542 250 _m
155 250 _l
155 246 _l
155 176 168 123 194 87 _c
220 51 259 34 311 34 _c
350 34 382 44 408 65 _c
433 85 451 116 461 157 _c
533 157 _l
519 100 492 57 454 29 _c
415 1 364 -13 302 -13 _c
226 -13 165 11 119 61 _c
73 111 50 177 50 260 _c
50 342 72 408 118 458 _c
163 508 222 533 296 533 _c
374 533 435 508 477 460 _c
}_e{519 412 540 342 542 250 _c
436 302 _m
434 362 421 408 397 439 _c
373 469 340 485 296 485 _c
254 485 222 469 198 438 _c
174 407 160 362 155 302 _c
436 302 _l
_cl}_e}_d
/i{320 0 36 0 297 736 _sc
97 680 _m
97 695 102 708 113 719 _c
124 730 137 736 153 736 _c
167 736 180 730 191 719 _c
202 708 208 695 208 680 _c
208 664 202 651 192 641 _c
181 630 168 625 153 625 _c
137 625 124 630 113 641 _c
102 651 97 664 97 680 _c
212 52 _m
297 52 _l
297 0 _l
36 0 _l
36 52 _l
122 52 _l
122 467 _l
36 467 _l
36 519 _l
212 519 _l
212 52 _l
_cl}_d
/m{{948 0 36 0 921 533 _sc
518 418 _m
535 456 557 484 584 504 _c
611 523 642 533 678 533 _c
732 533 773 516 800 482 _c
826 448 840 398 840 330 _c
840 52 _l
921 52 _l
921 0 _l
672 0 _l
672 52 _l
750 52 _l
750 320 _l
750 372 742 410 726 433 _c
710 455 685 467 649 467 _c
609 467 578 451 557 421 _c
536 391 526 347 526 289 _c
526 52 _l
604 52 _l
604 0 _l
358 0 _l
}_e{358 52 _l
436 52 _l
436 323 _l
436 375 428 412 412 434 _c
396 456 371 467 335 467 _c
295 467 264 451 243 421 _c
222 391 212 347 212 289 _c
212 52 _l
290 52 _l
290 0 _l
41 0 _l
41 52 _l
122 52 _l
122 468 _l
36 468 _l
36 519 _l
212 519 _l
212 427 _l
228 461 249 488 275 506 _c
301 524 330 533 363 533 _c
403 533 436 523 463 503 _c
}_e{490 483 508 454 518 418 _c
_cl}_e}_d
/s{{513 0 56 -13 462 533 _sc
56 29 _m
56 150 _l
108 150 _l
109 111 121 82 144 63 _c
167 43 201 34 246 34 _c
286 34 317 41 338 57 _c
359 72 370 94 370 123 _c
370 145 362 164 347 178 _c
331 192 299 207 249 223 _c
184 245 _l
139 259 107 277 87 299 _c
67 320 57 347 57 381 _c
57 428 74 465 109 492 _c
144 519 192 533 254 533 _c
281 533 310 529 340 522 _c
}_e{370 515 402 505 434 491 _c
434 378 _l
382 378 _l
380 411 369 437 347 456 _c
325 475 295 485 257 485 _c
219 485 190 478 171 465 _c
151 451 142 431 142 405 _c
142 383 149 365 164 352 _c
178 339 208 326 252 312 _c
323 290 _l
372 274 407 255 429 232 _c
451 209 462 180 462 144 _c
462 94 443 56 405 28 _c
367 0 316 -13 250 -13 _c
216 -13 184 -9 152 -3 _c
}_e{120 3 88 14 56 29 _c
_cl}_e}_d
/t{402 0 29 -13 394 680 _sc
108 467 _m
29 467 _l
29 519 _l
108 519 _l
108 680 _l
198 680 _l
198 519 _l
367 519 _l
367 467 _l
198 467 _l
198 137 _l
198 93 202 64 211 52 _c
219 40 235 34 258 34 _c
281 34 298 41 309 55 _c
319 69 325 91 326 122 _c
394 122 _l
391 74 378 40 355 19 _c
332 -2 297 -13 250 -13 _c
198 -13 161 -1 140 21 _c
118 43 108 82 108 137 _c
108 467 _l
_cl}_d
/z{527 0 40 0 490 519 _sc
40 0 _m
40 42 _l
365 467 _l
108 467 _l
108 377 _l
56 377 _l
56 519 _l
481 519 _l
481 477 _l
156 52 _l
438 52 _l
438 146 _l
490 146 _l
490 0 _l
40 0 _l
_cl}_d
end readonly def

/BuildGlyph
 {exch begin
 CharStrings exch
 2 copy known not{pop /.notdef}if
 true 3 1 roll get exec
 end}_d

/BuildChar {
 1 index /Encoding get exch get
 1 index /BuildGlyph get exec
}_d

FontName currentdict end definefont pop
%!PS-Adobe-3.0 Resource-Font
%%Title: DejaVu Sans Oblique
%%Copyright: Copyright (c) 2003 by Bitstream, Inc. All Rights Reserved. Copyright (c) 2006 by Tavmjong Bah. All Rights Reserved. DejaVu changes are in public domain 
%%Creator: Converted from TrueType to type 3 by PPR
25 dict begin
/_d{bind def}bind def
/_m{moveto}_d
/_l{lineto}_d
/_cl{closepath eofill}_d
/_c{curveto}_d
/_sc{7 -1 roll{setcachedevice}{pop pop pop pop pop pop}ifelse}_d
/_e{exec}_d
/FontName /DejaVuSans-Oblique def
/PaintType 0 def
/FontMatrix[.001 0 0 .001 0 0]def
/FontBBox[-1016 -350 1659 1068]def
/FontType 3 def
/Encoding [ /x /y /z /mu /uni03BC ] def
/FontInfo 10 dict dup begin
/FamilyName (DejaVu Sans) def
/FullName (DejaVu Sans Oblique) def
/Notice (Copyright (c) 2003 by Bitstream, Inc. All Rights Reserved. Copyright (c) 2006 by Tavmjong Bah. All Rights Reserved. DejaVu changes are in public domain ) def
/Weight (Oblique) def
/Version (Version 2.35) def
/ItalicAngle -11.0 def
/isFixedPitch false def
/UnderlinePosition -130 def
/UnderlineThickness 90 def
end readonly def
/CharStrings 6 dict dup begin
/.notdef 0 def
/x{592 0 -25 0 600 547 _sc
600 547 _m
349 279 _l
503 0 _l
400 0 _l
284 217 _l
83 0 _l
-25 0 _l
243 288 _l
100 547 _l
203 547 _l
308 349 _l
491 547 _l
600 547 _l
_cl}_d
/y{592 0 -24 -207 603 547 _sc
248 -50 _m
206 -120 172 -163 146 -181 _c
120 -198 86 -207 46 -207 _c
-24 -207 _l
-9 -132 _l
42 -132 _l
67 -132 88 -125 106 -111 _c
123 -97 143 -71 165 -31 _c
193 20 _l
72 547 _l
167 547 _l
258 128 _l
509 547 _l
603 547 _l
248 -50 _l
_cl}_d
/z{525 0 -2 0 543 547 _sc
116 547 _m
543 547 _l
527 465 _l
115 72 _l
455 72 _l
441 0 _l
-2 0 _l
13 82 _l
425 475 _l
102 475 _l
116 547 _l
_cl}_d
/mu{{636 0 -12 -207 592 547 _sc
-12 -207 _m
134 547 _l
224 547 _l
158 207 _l
156 199 155 191 154 183 _c
153 175 153 166 153 158 _c
153 128 162 104 181 88 _c
200 72 227 64 263 64 _c
311 64 349 77 379 105 _c
409 132 429 173 440 228 _c
502 547 _l
592 547 _l
510 126 _l
508 120 507 114 507 110 _c
507 106 507 102 507 98 _c
507 88 509 80 513 76 _c
517 71 523 69 532 69 _c
}_e{535 69 539 69 545 71 _c
551 73 559 76 570 80 _c
556 8 _l
542 1 528 -3 515 -7 _c
502 -11 489 -13 477 -13 _c
455 -13 438 -6 426 7 _c
414 20 408 39 408 63 _c
390 37 368 17 343 5 _c
317 -7 288 -13 254 -13 _c
223 -13 196 -6 174 7 _c
152 21 137 39 130 62 _c
77 -207 _l
-12 -207 _l
_cl}_e}_d
/uni03BC{636 0 -12 -207 592 547 _sc
false CharStrings /mu get exec
}_d
end readonly def

/BuildGlyph
 {exch begin
 CharStrings exch
 2 copy known not{pop /.notdef}if
 true 3 1 roll get exec
 end}_d

/BuildChar {
 1 index /Encoding get exch get
 1 index /BuildGlyph get exec
}_d

FontName currentdict end definefont pop
end
%%EndProlog
mpldict begin
18 252 translate
576 288 0 0 clipbox
gsave
0 0 m
576 0 l
576 288 l
0 288 l
cl
1.000 setgray
fill
grestore
gsave
42.87 172.529205 m
560.88 172.529205 l
560.88 267.970909 l
42.87 267.970909 l
cl
1.000 setgray
fill
grestore
0.800 setlinewidth
1 setlinejoin
2 setlinecap
[] 0 setdash
0.690 setgray
gsave
518 95.44 42.87 172.5 clipbox
42.87 172.529205 m
42.87 267.970909 l
stroke
grestore
1.000 setlinewidth
0 setlinecap
0.000 setgray
gsave
/o {
gsave
newpath
translate
1.0 setlinewidth
1 setlinejoin
0 setlinecap
0 0 m
0 5 l

gsave
0.000 setgray
fill
grestore
stroke
grestore
} bind def
42.87 172.529 o
grestore
gsave
/o {
gsave
newpath
translate
1.0 setlinewidth
1 setlinejoin
0 setlinecap
0 0 m
0 -5 l

gsave
0.000 setgray
fill
grestore
stroke
grestore
} bind def
42.87 267.971 o
grestore
/DejaVuSerif findfont
10.000 scalefont
setfont
gsave
39.690313 161.435455 translate
0.000000 rotate
0.000000 0.000000 m /zero glyphshow
grestore
0.800 setlinewidth
2 setlinecap
0.690 setgray
gsave
518 95.44 42.87 172.5 clipbox
123.809063 172.529205 m
123.809063 267.970909 l
stroke
grestore
1.000 setlinewidth
0 setlinecap
0.000 setgray
gsave
/o {
gsave
newpath
translate
1.0 setlinewidth
1 setlinejoin
0 setlinecap
0 0 m
0 5 l

gsave
0.000 setgray
fill
grestore
stroke
grestore
} bind def
123.809 172.529 o
grestore
gsave
/o {
gsave
newpath
translate
1.0 setlinewidth
1 setlinejoin
0 setlinecap
0 0 m
0 -5 l

gsave
0.000 setgray
fill
grestore
stroke
grestore
} bind def
123.809 267.971 o
grestore
gsave
120.629375 161.435455 translate
0.000000 rotate
0.000000 0.000000 m /five glyphshow
grestore
0.800 setlinewidth
2 setlinecap
0.690 setgray
gsave
518 95.44 42.87 172.5 clipbox
204.748125 172.529205 m
204.748125 267.970909 l
stroke
grestore
1.000 setlinewidth
0 setlinecap
0.000 setgray
gsave
/o {
gsave
newpath
translate
1.0 setlinewidth
1 setlinejoin
0 setlinecap
0 0 m
0 5 l

gsave
0.000 setgray
fill
grestore
stroke
grestore
} bind def
204.748 172.529 o
grestore
gsave
/o {
gsave
newpath
translate
1.0 setlinewidth
1 setlinejoin
0 setlinecap
0 0 m
0 -5 l

gsave
0.000 setgray
fill
grestore
stroke
grestore
} bind def
204.748 267.971 o
grestore
gsave
198.388750 161.435455 translate
0.000000 rotate
0.000000 0.000000 m /one glyphshow
6.362305 0.000000 m /zero glyphshow
grestore
0.800 setlinewidth
2 setlinecap
0.690 setgray
gsave
518 95.44 42.87 172.5 clipbox
285.687187 172.529205 m
285.687187 267.970909 l
stroke
grestore
1.000 setlinewidth
0 setlinecap
0.000 setgray
gsave
/o {
gsave
newpath
translate
1.0 setlinewidth
1 setlinejoin
0 setlinecap
0 0 m
0 5 l

gsave
0.000 setgray
fill
grestore
stroke
grestore
} bind def
285.687 172.529 o
grestore
gsave
/o {
gsave
newpath
translate
1.0 setlinewidth
1 setlinejoin
0 setlinecap
0 0 m
0 -5 l

gsave
0.000 setgray
fill
grestore
stroke
grestore
} bind def
285.687 267.971 o
grestore
gsave
279.327812 161.435455 translate
0.000000 rotate
0.000000 0.000000 m /one glyphshow
6.362305 0.000000 m /five glyphshow
grestore
0.800 setlinewidth
2 setlinecap
0.690 setgray
gsave
518 95.44 42.87 172.5 clipbox
366.62625 172.529205 m
366.62625 267.970909 l
stroke
grestore
1.000 setlinewidth
0 setlinecap
0.000 setgray
gsave
/o {
gsave
newpath
translate
1.0 setlinewidth
1 setlinejoin
0 setlinecap
0 0 m
0 5 l

gsave
0.000 setgray
fill
grestore
stroke
grestore
} bind def
366.626 172.529 o
grestore
gsave
/o {
gsave
newpath
translate
1.0 setlinewidth
1 setlinejoin
0 setlinecap
0 0 m
0 -5 l

gsave
0.000 setgray
fill
grestore
stroke
grestore
} bind def
366.626 267.971 o
grestore
gsave
360.266875 161.435455 translate
0.000000 rotate
0.000000 0.000000 m /two glyphshow
6.362305 0.000000 m /zero glyphshow
grestore
0.800 setlinewidth
2 setlinecap
0.690 setgray
gsave
518 95.44 42.87 172.5 clipbox
447.565313 172.529205 m
447.565313 267.970909 l
stroke
grestore
1.000 setlinewidth
0 setlinecap
0.000 setgray
gsave
/o {
gsave
newpath
translate
1.0 setlinewidth
1 setlinejoin
0 setlinecap
0 0 m
0 5 l

gsave
0.000 setgray
fill
grestore
stroke
grestore
} bind def
447.565 172.529 o
grestore
gsave
/o {
gsave
newpath
translate
1.0 setlinewidth
1 setlinejoin
0 setlinecap
0 0 m
0 -5 l

gsave
0.000 setgray
fill
grestore
stroke
grestore
} bind def
447.565 267.971 o
grestore
gsave
441.205938 161.435455 translate
0.000000 rotate
0.000000 0.000000 m /two glyphshow
6.362305 0.000000 m /five glyphshow
grestore
0.800 setlinewidth
2 setlinecap
0.690 setgray
gsave
518 95.44 42.87 172.5 clipbox
528.504375 172.529205 m
528.504375 267.970909 l
stroke
grestore
1.000 setlinewidth
0 setlinecap
0.000 setgray
gsave
/o {
gsave
newpath
translate
1.0 setlinewidth
1 setlinejoin
0 setlinecap
0 0 m
0 5 l

gsave
0.000 setgray
fill
grestore
stroke
grestore
} bind def
528.504 172.529 o
grestore
gsave
/o {
gsave
newpath
translate
1.0 setlinewidth
1 setlinejoin
0 setlinecap
0 0 m
0 -5 l

gsave
0.000 setgray
fill
grestore
stroke
grestore
} bind def
528.504 267.971 o
grestore
gsave
522.145000 161.435455 translate
0.000000 rotate
0.000000 0.000000 m /three glyphshow
6.362305 0.000000 m /zero glyphshow
grestore
0.700 setlinewidth
gsave
/o {
gsave
newpath
translate
0.7 setlinewidth
1 setlinejoin
0 setlinecap
0 0 m
0 3 l

gsave
0.000 setgray
fill
grestore
stroke
grestore
} bind def
59.0578 172.529 o
grestore
gsave
/o {
gsave
newpath
translate
0.7 setlinewidth
1 setlinejoin
0 setlinecap
0 0 m
0 -3 l

gsave
0.000 setgray
fill
grestore
stroke
grestore
} bind def
59.0578 267.971 o
grestore
gsave
/o {
gsave
newpath
translate
0.7 setlinewidth
1 setlinejoin
0 setlinecap
0 0 m
0 3 l

gsave
0.000 setgray
fill
grestore
stroke
grestore
} bind def
75.2456 172.529 o
grestore
gsave
/o {
gsave
newpath
translate
0.7 setlinewidth
1 setlinejoin
0 setlinecap
0 0 m
0 -3 l

gsave
0.000 setgray
fill
grestore
stroke
grestore
} bind def
75.2456 267.971 o
grestore
gsave
/o {
gsave
newpath
translate
0.7 setlinewidth
1 setlinejoin
0 setlinecap
0 0 m
0 3 l

gsave
0.000 setgray
fill
grestore
stroke
grestore
} bind def
91.4334 172.529 o
grestore
gsave
/o {
gsave
newpath
translate
0.7 setlinewidth
1 setlinejoin
0 setlinecap
0 0 m
0 -3 l

gsave
0.000 setgray
fill
grestore
stroke
grestore
} bind def
91.4334 267.971 o
grestore
gsave
/o {
gsave
newpath
translate
0.7 setlinewidth
1 setlinejoin
0 setlinecap
0 0 m
0 3 l

gsave
0.000 setgray
fill
grestore
stroke
grestore
} bind def
107.621 172.529 o
grestore
gsave
/o {
gsave
newpath
translate
0.7 setlinewidth
1 setlinejoin
0 setlinecap
0 0 m
0 -3 l

gsave
0.000 setgray
fill
grestore
stroke
grestore
} bind def
107.621 267.971 o
grestore
gsave
/o {
gsave
newpath
translate
0.7 setlinewidth
1 setlinejoin
0 setlinecap
0 0 m
0 3 l

gsave
0.000 setgray
fill
grestore
stroke
grestore
} bind def
139.997 172.529 o
grestore
gsave
/o {
gsave
newpath
translate
0.7 setlinewidth
1 setlinejoin
0 setlinecap
0 0 m
0 -3 l

gsave
0.000 setgray
fill
grestore
stroke
grestore
} bind def
139.997 267.971 o
grestore
gsave
/o {
gsave
newpath
translate
0.7 setlinewidth
1 setlinejoin
0 setlinecap
0 0 m
0 3 l

gsave
0.000 setgray
fill
grestore
stroke
grestore
} bind def
156.185 172.529 o
grestore
gsave
/o {
gsave
newpath
translate
0.7 setlinewidth
1 setlinejoin
0 setlinecap
0 0 m
0 -3 l

gsave
0.000 setgray
fill
grestore
stroke
grestore
} bind def
156.185 267.971 o
grestore
gsave
/o {
gsave
newpath
translate
0.7 setlinewidth
1 setlinejoin
0 setlinecap
0 0 m
0 3 l

gsave
0.000 setgray
fill
grestore
stroke
grestore
} bind def
172.373 172.529 o
grestore
gsave
/o {
gsave
newpath
translate
0.7 setlinewidth
1 setlinejoin
0 setlinecap
0 0 m
0 -3 l

gsave
0.000 setgray
fill
grestore
stroke
grestore
} bind def
172.373 267.971 o
grestore
gsave
/o {
gsave
newpath
translate
0.7 setlinewidth
1 setlinejoin
0 setlinecap
0 0 m
0 3 l

gsave
0.000 setgray
fill
grestore
stroke
grestore
} bind def
188.56 172.529 o
grestore
gsave
/o {
gsave
newpath
translate
0.7 setlinewidth
1 setlinejoin
0 setlinecap
0 0 m
0 -3 l

gsave
0.000 setgray
fill
grestore
stroke
grestore
} bind def
188.56 267.971 o
grestore
gsave
/o {
gsave
newpath
translate
0.7 setlinewidth
1 setlinejoin
0 setlinecap
0 0 m
0 3 l

gsave
0.000 setgray
fill
grestore
stroke
grestore
} bind def
220.936 172.529 o
grestore
gsave
/o {
gsave
newpath
translate
0.7 setlinewidth
1 setlinejoin
0 setlinecap
0 0 m
0 -3 l

gsave
0.000 setgray
fill
grestore
stroke
grestore
} bind def
220.936 267.971 o
grestore
gsave
/o {
gsave
newpath
translate
0.7 setlinewidth
1 setlinejoin
0 setlinecap
0 0 m
0 3 l

gsave
0.000 setgray
fill
grestore
stroke
grestore
} bind def
237.124 172.529 o
grestore
gsave
/o {
gsave
newpath
translate
0.7 setlinewidth
1 setlinejoin
0 setlinecap
0 0 m
0 -3 l

gsave
0.000 setgray
fill
grestore
stroke
grestore
} bind def
237.124 267.971 o
grestore
gsave
/o {
gsave
newpath
translate
0.7 setlinewidth
1 setlinejoin
0 setlinecap
0 0 m
0 3 l

gsave
0.000 setgray
fill
grestore
stroke
grestore
} bind def
253.312 172.529 o
grestore
gsave
/o {
gsave
newpath
translate
0.7 setlinewidth
1 setlinejoin
0 setlinecap
0 0 m
0 -3 l

gsave
0.000 setgray
fill
grestore
stroke
grestore
} bind def
253.312 267.971 o
grestore
gsave
/o {
gsave
newpath
translate
0.7 setlinewidth
1 setlinejoin
0 setlinecap
0 0 m
0 3 l

gsave
0.000 setgray
fill
grestore
stroke
grestore
} bind def
269.499 172.529 o
grestore
gsave
/o {
gsave
newpath
translate
0.7 setlinewidth
1 setlinejoin
0 setlinecap
0 0 m
0 -3 l

gsave
0.000 setgray
fill
grestore
stroke
grestore
} bind def
269.499 267.971 o
grestore
gsave
/o {
gsave
newpath
translate
0.7 setlinewidth
1 setlinejoin
0 setlinecap
0 0 m
0 3 l

gsave
0.000 setgray
fill
grestore
stroke
grestore
} bind def
301.875 172.529 o
grestore
gsave
/o {
gsave
newpath
translate
0.7 setlinewidth
1 setlinejoin
0 setlinecap
0 0 m
0 -3 l

gsave
0.000 setgray
fill
grestore
stroke
grestore
} bind def
301.875 267.971 o
grestore
gsave
/o {
gsave
newpath
translate
0.7 setlinewidth
1 setlinejoin
0 setlinecap
0 0 m
0 3 l

gsave
0.000 setgray
fill
grestore
stroke
grestore
} bind def
318.063 172.529 o
grestore
gsave
/o {
gsave
newpath
translate
0.7 setlinewidth
1 setlinejoin
0 setlinecap
0 0 m
0 -3 l

gsave
0.000 setgray
fill
grestore
stroke
grestore
} bind def
318.063 267.971 o
grestore
gsave
/o {
gsave
newpath
translate
0.7 setlinewidth
1 setlinejoin
0 setlinecap
0 0 m
0 3 l

gsave
0.000 setgray
fill
grestore
stroke
grestore
} bind def
334.251 172.529 o
grestore
gsave
/o {
gsave
newpath
translate
0.7 setlinewidth
1 setlinejoin
0 setlinecap
0 0 m
0 -3 l

gsave
0.000 setgray
fill
grestore
stroke
grestore
} bind def
334.251 267.971 o
grestore
gsave
/o {
gsave
newpath
translate
0.7 setlinewidth
1 setlinejoin
0 setlinecap
0 0 m
0 3 l

gsave
0.000 setgray
fill
grestore
stroke
grestore
} bind def
350.438 172.529 o
grestore
gsave
/o {
gsave
newpath
translate
0.7 setlinewidth
1 setlinejoin
0 setlinecap
0 0 m
0 -3 l

gsave
0.000 setgray
fill
grestore
stroke
grestore
} bind def
350.438 267.971 o
grestore
gsave
/o {
gsave
newpath
translate
0.7 setlinewidth
1 setlinejoin
0 setlinecap
0 0 m
0 3 l

gsave
0.000 setgray
fill
grestore
stroke
grestore
} bind def
382.814 172.529 o
grestore
gsave
/o {
gsave
newpath
translate
0.7 setlinewidth
1 setlinejoin
0 setlinecap
0 0 m
0 -3 l

gsave
0.000 setgray
fill
grestore
stroke
grestore
} bind def
382.814 267.971 o
grestore
gsave
/o {
gsave
newpath
translate
0.7 setlinewidth
1 setlinejoin
0 setlinecap
0 0 m
0 3 l

gsave
0.000 setgray
fill
grestore
stroke
grestore
} bind def
399.002 172.529 o
grestore
gsave
/o {
gsave
newpath
translate
0.7 setlinewidth
1 setlinejoin
0 setlinecap
0 0 m
0 -3 l

gsave
0.000 setgray
fill
grestore
stroke
grestore
} bind def
399.002 267.971 o
grestore
gsave
/o {
gsave
newpath
translate
0.7 setlinewidth
1 setlinejoin
0 setlinecap
0 0 m
0 3 l

gsave
0.000 setgray
fill
grestore
stroke
grestore
} bind def
415.19 172.529 o
grestore
gsave
/o {
gsave
newpath
translate
0.7 setlinewidth
1 setlinejoin
0 setlinecap
0 0 m
0 -3 l

gsave
0.000 setgray
fill
grestore
stroke
grestore
} bind def
415.19 267.971 o
grestore
gsave
/o {
gsave
newpath
translate
0.7 setlinewidth
1 setlinejoin
0 setlinecap
0 0 m
0 3 l

gsave
0.000 setgray
fill
grestore
stroke
grestore
} bind def
431.377 172.529 o
grestore
gsave
/o {
gsave
newpath
translate
0.7 setlinewidth
1 setlinejoin
0 setlinecap
0 0 m
0 -3 l

gsave
0.000 setgray
fill
grestore
stroke
grestore
} bind def
431.377 267.971 o
grestore
gsave
/o {
gsave
newpath
translate
0.7 setlinewidth
1 setlinejoin
0 setlinecap
0 0 m
0 3 l

gsave
0.000 setgray
fill
grestore
stroke
grestore
} bind def
463.753 172.529 o
grestore
gsave
/o {
gsave
newpath
translate
0.7 setlinewidth
1 setlinejoin
0 setlinecap
0 0 m
0 -3 l

gsave
0.000 setgray
fill
grestore
stroke
grestore
} bind def
463.753 267.971 o
grestore
gsave
/o {
gsave
newpath
translate
0.7 setlinewidth
1 setlinejoin
0 setlinecap
0 0 m
0 3 l

gsave
0.000 setgray
fill
grestore
stroke
grestore
} bind def
479.941 172.529 o
grestore
gsave
/o {
gsave
newpath
translate
0.7 setlinewidth
1 setlinejoin
0 setlinecap
0 0 m
0 -3 l

gsave
0.000 setgray
fill
grestore
stroke
grestore
} bind def
479.941 267.971 o
grestore
gsave
/o {
gsave
newpath
translate
0.7 setlinewidth
1 setlinejoin
0 setlinecap
0 0 m
0 3 l

gsave
0.000 setgray
fill
grestore
stroke
grestore
} bind def
496.129 172.529 o
grestore
gsave
/o {
gsave
newpath
translate
0.7 setlinewidth
1 setlinejoin
0 setlinecap
0 0 m
0 -3 l

gsave
0.000 setgray
fill
grestore
stroke
grestore
} bind def
496.129 267.971 o
grestore
gsave
/o {
gsave
newpath
translate
0.7 setlinewidth
1 setlinejoin
0 setlinecap
0 0 m
0 3 l

gsave
0.000 setgray
fill
grestore
stroke
grestore
} bind def
512.317 172.529 o
grestore
gsave
/o {
gsave
newpath
translate
0.7 setlinewidth
1 setlinejoin
0 setlinecap
0 0 m
0 -3 l

gsave
0.000 setgray
fill
grestore
stroke
grestore
} bind def
512.317 267.971 o
grestore
gsave
/o {
gsave
newpath
translate
0.7 setlinewidth
1 setlinejoin
0 setlinecap
0 0 m
0 3 l

gsave
0.000 setgray
fill
grestore
stroke
grestore
} bind def
544.692 172.529 o
grestore
gsave
/o {
gsave
newpath
translate
0.7 setlinewidth
1 setlinejoin
0 setlinecap
0 0 m
0 -3 l

gsave
0.000 setgray
fill
grestore
stroke
grestore
} bind def
544.692 267.971 o
grestore
gsave
/o {
gsave
newpath
translate
0.7 setlinewidth
1 setlinejoin
0 setlinecap
0 0 m
0 3 l

gsave
0.000 setgray
fill
grestore
stroke
grestore
} bind def
560.88 172.529 o
grestore
gsave
/o {
gsave
newpath
translate
0.7 setlinewidth
1 setlinejoin
0 setlinecap
0 0 m
0 -3 l

gsave
0.000 setgray
fill
grestore
stroke
grestore
} bind def
560.88 267.971 o
grestore
0.800 setlinewidth
2 setlinecap
0.690 setgray
gsave
518 95.44 42.87 172.5 clipbox
42.87 172.529205 m
560.88 172.529205 l
stroke
grestore
1.000 setlinewidth
0 setlinecap
0.000 setgray
gsave
/o {
gsave
newpath
translate
1.0 setlinewidth
1 setlinejoin
0 setlinecap
0 0 m
5 0 l

gsave
0.000 setgray
fill
grestore
stroke
grestore
} bind def
42.87 172.529 o
grestore
gsave
/o {
gsave
newpath
translate
1.0 setlinewidth
1 setlinejoin
0 setlinecap
0 0 m
-5 0 l

gsave
0.000 setgray
fill
grestore
stroke
grestore
} bind def
560.88 172.529 o
grestore
gsave
33.010625 168.732330 translate
0.000000 rotate
0.000000 0.000000 m /zero glyphshow
grestore
0.800 setlinewidth
2 setlinecap
0.690 setgray
gsave
518 95.44 42.87 172.5 clipbox
42.87 191.617545 m
560.88 191.617545 l
stroke
grestore
1.000 setlinewidth
0 setlinecap
0.000 setgray
gsave
/o {
gsave
newpath
translate
1.0 setlinewidth
1 setlinejoin
0 setlinecap
0 0 m
5 0 l

gsave
0.000 setgray
fill
grestore
stroke
grestore
} bind def
42.87 191.618 o
grestore
gsave
/o {
gsave
newpath
translate
1.0 setlinewidth
1 setlinejoin
0 setlinecap
0 0 m
-5 0 l

gsave
0.000 setgray
fill
grestore
stroke
grestore
} bind def
560.88 191.618 o
grestore
gsave
33.010625 187.820670 translate
0.000000 rotate
0.000000 0.000000 m /one glyphshow
grestore
0.800 setlinewidth
2 setlinecap
0.690 setgray
gsave
518 95.44 42.87 172.5 clipbox
42.87 210.705886 m
560.88 210.705886 l
stroke
grestore
1.000 setlinewidth
0 setlinecap
0.000 setgray
gsave
/o {
gsave
newpath
translate
1.0 setlinewidth
1 setlinejoin
0 setlinecap
0 0 m
5 0 l

gsave
0.000 setgray
fill
grestore
stroke
grestore
} bind def
42.87 210.706 o
grestore
gsave
/o {
gsave
newpath
translate
1.0 setlinewidth
1 setlinejoin
0 setlinecap
0 0 m
-5 0 l

gsave
0.000 setgray
fill
grestore
stroke
grestore
} bind def
560.88 210.706 o
grestore
gsave
33.010625 206.909011 translate
0.000000 rotate
0.000000 0.000000 m /two glyphshow
grestore
0.800 setlinewidth
2 setlinecap
0.690 setgray
gsave
518 95.44 42.87 172.5 clipbox
42.87 229.794227 m
560.88 229.794227 l
stroke
grestore
1.000 setlinewidth
0 setlinecap
0.000 setgray
gsave
/o {
gsave
newpath
translate
1.0 setlinewidth
1 setlinejoin
0 setlinecap
0 0 m
5 0 l

gsave
0.000 setgray
fill
grestore
stroke
grestore
} bind def
42.87 229.794 o
grestore
gsave
/o {
gsave
newpath
translate
1.0 setlinewidth
1 setlinejoin
0 setlinecap
0 0 m
-5 0 l

gsave
0.000 setgray
fill
grestore
stroke
grestore
} bind def
560.88 229.794 o
grestore
gsave
33.010625 225.997352 translate
0.000000 rotate
0.000000 0.000000 m /three glyphshow
grestore
0.800 setlinewidth
2 setlinecap
0.690 setgray
gsave
518 95.44 42.87 172.5 clipbox
42.87 248.882568 m
560.88 248.882568 l
stroke
grestore
1.000 setlinewidth
0 setlinecap
0.000 setgray
gsave
/o {
gsave
newpath
translate
1.0 setlinewidth
1 setlinejoin
0 setlinecap
0 0 m
5 0 l

gsave
0.000 setgray
fill
grestore
stroke
grestore
} bind def
42.87 248.883 o
grestore
gsave
/o {
gsave
newpath
translate
1.0 setlinewidth
1 setlinejoin
0 setlinecap
0 0 m
-5 0 l

gsave
0.000 setgray
fill
grestore
stroke
grestore
} bind def
560.88 248.883 o
grestore
gsave
33.010625 245.085693 translate
0.000000 rotate
0.000000 0.000000 m /four glyphshow
grestore
0.800 setlinewidth
2 setlinecap
0.690 setgray
gsave
518 95.44 42.87 172.5 clipbox
42.87 267.970909 m
560.88 267.970909 l
stroke
grestore
1.000 setlinewidth
0 setlinecap
0.000 setgray
gsave
/o {
gsave
newpath
translate
1.0 setlinewidth
1 setlinejoin
0 setlinecap
0 0 m
5 0 l

gsave
0.000 setgray
fill
grestore
stroke
grestore
} bind def
42.87 267.971 o
grestore
gsave
/o {
gsave
newpath
translate
1.0 setlinewidth
1 setlinejoin
0 setlinecap
0 0 m
-5 0 l

gsave
0.000 setgray
fill
grestore
stroke
grestore
} bind def
560.88 267.971 o
grestore
gsave
33.010625 264.174034 translate
0.000000 rotate
0.000000 0.000000 m /five glyphshow
grestore
0.700 setlinewidth
gsave
/o {
gsave
newpath
translate
0.7 setlinewidth
1 setlinejoin
0 setlinecap
0 0 m
3 0 l

gsave
0.000 setgray
fill
grestore
stroke
grestore
} bind def
42.87 176.347 o
grestore
gsave
/o {
gsave
newpath
translate
0.7 setlinewidth
1 setlinejoin
0 setlinecap
0 0 m
-3 0 l

gsave
0.000 setgray
fill
grestore
stroke
grestore
} bind def
560.88 176.347 o
grestore
gsave
/o {
gsave
newpath
translate
0.7 setlinewidth
1 setlinejoin
0 setlinecap
0 0 m
3 0 l

gsave
0.000 setgray
fill
grestore
stroke
grestore
} bind def
42.87 180.165 o
grestore
gsave
/o {
gsave
newpath
translate
0.7 setlinewidth
1 setlinejoin
0 setlinecap
0 0 m
-3 0 l

gsave
0.000 setgray
fill
grestore
stroke
grestore
} bind def
560.88 180.165 o
grestore
gsave
/o {
gsave
newpath
translate
0.7 setlinewidth
1 setlinejoin
0 setlinecap
0 0 m
3 0 l

gsave
0.000 setgray
fill
grestore
stroke
grestore
} bind def
42.87 183.982 o
grestore
gsave
/o {
gsave
newpath
translate
0.7 setlinewidth
1 setlinejoin
0 setlinecap
0 0 m
-3 0 l

gsave
0.000 setgray
fill
grestore
stroke
grestore
} bind def
560.88 183.982 o
grestore
gsave
/o {
gsave
newpath
translate
0.7 setlinewidth
1 setlinejoin
0 setlinecap
0 0 m
3 0 l

gsave
0.000 setgray
fill
grestore
stroke
grestore
} bind def
42.87 187.8 o
grestore
gsave
/o {
gsave
newpath
translate
0.7 setlinewidth
1 setlinejoin
0 setlinecap
0 0 m
-3 0 l

gsave
0.000 setgray
fill
grestore
stroke
grestore
} bind def
560.88 187.8 o
grestore
gsave
/o {
gsave
newpath
translate
0.7 setlinewidth
1 setlinejoin
0 setlinecap
0 0 m
3 0 l

gsave
0.000 setgray
fill
grestore
stroke
grestore
} bind def
42.87 195.435 o
grestore
gsave
/o {
gsave
newpath
translate
0.7 setlinewidth
1 setlinejoin
0 setlinecap
0 0 m
-3 0 l

gsave
0.000 setgray
fill
grestore
stroke
grestore
} bind def
560.88 195.435 o
grestore
gsave
/o {
gsave
newpath
translate
0.7 setlinewidth
1 setlinejoin
0 setlinecap
0 0 m
3 0 l

gsave
0.000 setgray
fill
grestore
stroke
grestore
} bind def
42.87 199.253 o
grestore
gsave
/o {
gsave
newpath
translate
0.7 setlinewidth
1 setlinejoin
0 setlinecap
0 0 m
-3 0 l

gsave
0.000 setgray
fill
grestore
stroke
grestore
} bind def
560.88 199.253 o
grestore
gsave
/o {
gsave
newpath
translate
0.7 setlinewidth
1 setlinejoin
0 setlinecap
0 0 m
3 0 l

gsave
0.000 setgray
fill
grestore
stroke
grestore
} bind def
42.87 203.071 o
grestore
gsave
/o {
gsave
newpath
translate
0.7 setlinewidth
1 setlinejoin
0 setlinecap
0 0 m
-3 0 l

gsave
0.000 setgray
fill
grestore
stroke
grestore
} bind def
560.88 203.071 o
grestore
gsave
/o {
gsave
newpath
translate
0.7 setlinewidth
1 setlinejoin
0 setlinecap
0 0 m
3 0 l

gsave
0.000 setgray
fill
grestore
stroke
grestore
} bind def
42.87 206.888 o
grestore
gsave
/o {
gsave
newpath
translate
0.7 setlinewidth
1 setlinejoin
0 setlinecap
0 0 m
-3 0 l

gsave
0.000 setgray
fill
grestore
stroke
grestore
} bind def
560.88 206.888 o
grestore
gsave
/o {
gsave
newpath
translate
0.7 setlinewidth
1 setlinejoin
0 setlinecap
0 0 m
3 0 l

gsave
0.000 setgray
fill
grestore
stroke
grestore
} bind def
42.87 214.524 o
grestore
gsave
/o {
gsave
newpath
translate
0.7 setlinewidth
1 setlinejoin
0 setlinecap
0 0 m
-3 0 l

gsave
0.000 setgray
fill
grestore
stroke
grestore
} bind def
560.88 214.524 o
grestore
gsave
/o {
gsave
newpath
translate
0.7 setlinewidth
1 setlinejoin
0 setlinecap
0 0 m
3 0 l

gsave
0.000 setgray
fill
grestore
stroke
grestore
} bind def
42.87 218.341 o
grestore
gsave
/o {
gsave
newpath
translate
0.7 setlinewidth
1 setlinejoin
0 setlinecap
0 0 m
-3 0 l

gsave
0.000 setgray
fill
grestore
stroke
grestore
} bind def
560.88 218.341 o
grestore
gsave
/o {
gsave
newpath
translate
0.7 setlinewidth
1 setlinejoin
0 setlinecap
0 0 m
3 0 l

gsave
0.000 setgray
fill
grestore
stroke
grestore
} bind def
42.87 222.159 o
grestore
gsave
/o {
gsave
newpath
translate
0.7 setlinewidth
1 setlinejoin
0 setlinecap
0 0 m
-3 0 l

gsave
0.000 setgray
fill
grestore
stroke
grestore
} bind def
560.88 222.159 o
grestore
gsave
/o {
gsave
newpath
translate
0.7 setlinewidth
1 setlinejoin
0 setlinecap
0 0 m
3 0 l

gsave
0.000 setgray
fill
grestore
stroke
grestore
} bind def
42.87 225.977 o
grestore
gsave
/o {
gsave
newpath
translate
0.7 setlinewidth
1 setlinejoin
0 setlinecap
0 0 m
-3 0 l

gsave
0.000 setgray
fill
grestore
stroke
grestore
} bind def
560.88 225.977 o
grestore
gsave
/o {
gsave
newpath
translate
0.7 setlinewidth
1 setlinejoin
0 setlinecap
0 0 m
3 0 l

gsave
0.000 setgray
fill
grestore
stroke
grestore
} bind def
42.87 233.612 o
grestore
gsave
/o {
gsave
newpath
translate
0.7 setlinewidth
1 setlinejoin
0 setlinecap
0 0 m
-3 0 l

gsave
0.000 setgray
fill
grestore
stroke
grestore
} bind def
560.88 233.612 o
grestore
gsave
/o {
gsave
newpath
translate
0.7 setlinewidth
1 setlinejoin
0 setlinecap
0 0 m
3 0 l

gsave
0.000 setgray
fill
grestore
stroke
grestore
} bind def
42.87 237.43 o
grestore
gsave
/o {
gsave
newpath
translate
0.7 setlinewidth
1 setlinejoin
0 setlinecap
0 0 m
-3 0 l

gsave
0.000 setgray
fill
grestore
stroke
grestore
} bind def
560.88 237.43 o
grestore
gsave
/o {
gsave
newpath
translate
0.7 setlinewidth
1 setlinejoin
0 setlinecap
0 0 m
3 0 l

gsave
0.000 setgray
fill
grestore
stroke
grestore
} bind def
42.87 241.247 o
grestore
gsave
/o {
gsave
newpath
translate
0.7 setlinewidth
1 setlinejoin
0 setlinecap
0 0 m
-3 0 l

gsave
0.000 setgray
fill
grestore
stroke
grestore
} bind def
560.88 241.247 o
grestore
gsave
/o {
gsave
newpath
translate
0.7 setlinewidth
1 setlinejoin
0 setlinecap
0 0 m
3 0 l

gsave
0.000 setgray
fill
grestore
stroke
grestore
} bind def
42.87 245.065 o
grestore
gsave
/o {
gsave
newpath
translate
0.7 setlinewidth
1 setlinejoin
0 setlinecap
0 0 m
-3 0 l

gsave
0.000 setgray
fill
grestore
stroke
grestore
} bind def
560.88 245.065 o
grestore
gsave
/o {
gsave
newpath
translate
0.7 setlinewidth
1 setlinejoin
0 setlinecap
0 0 m
3 0 l

gsave
0.000 setgray
fill
grestore
stroke
grestore
} bind def
42.87 252.7 o
grestore
gsave
/o {
gsave
newpath
translate
0.7 setlinewidth
1 setlinejoin
0 setlinecap
0 0 m
-3 0 l

gsave
0.000 setgray
fill
grestore
stroke
grestore
} bind def
560.88 252.7 o
grestore
gsave
/o {
gsave
newpath
translate
0.7 setlinewidth
1 setlinejoin
0 setlinecap
0 0 m
3 0 l

gsave
0.000 setgray
fill
grestore
stroke
grestore
} bind def
42.87 256.518 o
grestore
gsave
/o {
gsave
newpath
translate
0.7 setlinewidth
1 setlinejoin
0 setlinecap
0 0 m
-3 0 l

gsave
0.000 setgray
fill
grestore
stroke
grestore
} bind def
560.88 256.518 o
grestore
gsave
/o {
gsave
newpath
translate
0.7 setlinewidth
1 setlinejoin
0 setlinecap
0 0 m
3 0 l

gsave
0.000 setgray
fill
grestore
stroke
grestore
} bind def
42.87 260.336 o
grestore
gsave
/o {
gsave
newpath
translate
0.7 setlinewidth
1 setlinejoin
0 setlinecap
0 0 m
-3 0 l

gsave
0.000 setgray
fill
grestore
stroke
grestore
} bind def
560.88 260.336 o
grestore
gsave
/o {
gsave
newpath
translate
0.7 setlinewidth
1 setlinejoin
0 setlinecap
0 0 m
3 0 l

gsave
0.000 setgray
fill
grestore
stroke
grestore
} bind def
42.87 264.153 o
grestore
gsave
/o {
gsave
newpath
translate
0.7 setlinewidth
1 setlinejoin
0 setlinecap
0 0 m
-3 0 l

gsave
0.000 setgray
fill
grestore
stroke
grestore
} bind def
560.88 264.153 o
grestore
/DejaVuSerif findfont
14.000 scalefont
setfont
gsave
30.104375 166.140682 translate
90.000000 rotate
0.000000 0.000000 m /R glyphshow
10.541016 0.000000 m /M glyphshow
24.875977 0.000000 m /S glyphshow
34.466797 0.000000 m /space glyphshow
38.916992 0.000000 m /s glyphshow
46.101562 0.000000 m /i glyphshow
50.579102 0.000000 m /z glyphshow
57.955078 0.000000 m /e glyphshow
66.240234 0.000000 m /space glyphshow
70.690430 0.000000 m /parenleft glyphshow
76.152344 0.000000 m /m glyphshow
89.427734 0.000000 m /m glyphshow
102.703125 0.000000 m /parenright glyphshow
grestore
2.000 setlinewidth
2 setlinecap
1.000 0.000 0.000 setrgbcolor
gsave
518 95.44 42.87 172.5 clipbox
43.679391 207.781553 m
44.488781 226.537756 l
45.298172 227.593342 l
46.107563 234.491868 l
46.916953 243.77071 l
47.726344 249.308238 l
48.535734 251.142628 l
49.345125 251.08918 l
50.154516 250.48408 l
50.963906 249.758723 l
51.773297 249.020004 l
52.582688 248.294647 l
53.392078 247.588379 l
54.201469 246.906925 l
55.010859 246.246468 l
55.82025 245.612735 l
56.629641 245.001908 l
57.439031 244.417805 l
58.248422 243.856608 l
59.057813 243.322134 l
59.867203 242.814385 l
60.676594 242.329541 l
61.485984 241.873329 l
62.295375 241.441933 l
63.104766 241.035351 l
63.914156 240.657402 l
64.723547 240.304268 l
65.532938 239.979766 l
66.342328 239.680079 l
67.151719 239.407116 l
67.961109 239.160876 l
68.7705 238.94136 l
69.579891 238.750477 l
70.389281 238.584408 l
71.198672 238.446972 l
72.008063 238.33626 l
72.817453 238.252271 l
73.626844 238.195006 l
74.436234 238.164465 l
75.245625 238.160647 l
76.055016 238.183553 l
76.864406 238.235092 l
77.673797 238.311445 l
78.483188 238.414522 l
79.292578 238.544323 l
80.101969 238.702756 l
80.911359 238.884095 l
81.72075 239.094067 l
82.530141 239.328854 l
83.339531 239.590364 l
84.148922 239.876689 l
84.958313 240.189738 l
85.767703 240.527601 l
86.577094 240.89028 l
87.386484 241.270138 l
88.195875 238.561502 l
89.005266 236.750019 l
89.814656 235.432923 l
90.624047 232.892265 l
91.433437 232.37688 l
92.242828 229.803771 l
93.052219 229.292204 l
93.861609 227.295563 l
94.671 226.228525 l
95.480391 225.010689 l
96.289781 223.422539 l
97.099172 222.784988 l
97.908563 220.99832 l
98.717953 220.542108 l
99.527344 218.986409 l
100.336734 218.262961 l
101.146125 217.169199 l
101.955516 216.079254 l
102.764906 215.411162 l
103.574297 214.099793 l
104.383688 213.653126 l
105.193078 212.400931 l
106.002469 211.858822 l
106.811859 210.883408 l
107.62125 210.089333 l
108.430641 209.428876 l
109.240031 208.434374 l
110.049422 207.98198 l
110.858813 206.958845 l
111.668203 206.515996 l
112.477594 205.649385 l
113.286984 205.03474 l
114.096375 204.706421 l
114.905766 204.38001 l
115.715156 204.055508 l
116.524547 203.731007 l
117.333937 203.410322 l
118.143328 203.089638 l
118.952719 202.770863 l
119.762109 202.455905 l
120.5715 202.140948 l
121.380891 201.827899 l
122.190281 201.516759 l
122.999672 201.207528 l
123.809063 200.900206 l
124.618453 200.594792 l
125.427844 200.291288 l
126.237234 199.991601 l
127.046625 199.691914 l
127.856016 199.394136 l
128.293087 199.233793 l
stroke
grestore
0 setlinecap
[7.4 3.2] 0 setdash
0.000 0.000 1.000 setrgbcolor
gsave
518 95.44 42.87 172.5 clipbox
43.679391 207.781553 m
44.488781 226.537756 l
45.298172 227.593342 l
46.107563 234.493777 l
46.916953 243.772619 l
47.726344 249.308238 l
48.535734 251.142628 l
49.345125 251.091089 l
50.154516 250.48408 l
50.963906 249.758723 l
51.773297 249.020004 l
52.582688 248.294647 l
53.392078 247.590288 l
54.201469 246.906925 l
55.010859 246.248377 l
55.82025 245.612735 l
56.629641 245.003817 l
57.439031 244.417805 l
58.248422 243.858517 l
59.057813 243.324043 l
59.867203 242.814385 l
60.676594 242.33145 l
61.485984 241.873329 l
62.295375 241.441933 l
63.104766 241.03726 l
63.914156 240.657402 l
64.723547 240.306177 l
65.532938 239.979766 l
66.342328 239.680079 l
67.151719 239.407116 l
67.961109 239.162785 l
68.7705 238.943269 l
69.579891 238.750477 l
70.389281 238.586317 l
71.198672 238.446972 l
72.008063 238.33626 l
72.817453 238.252271 l
73.626844 238.195006 l
74.436234 238.164465 l
75.245625 238.160647 l
76.055016 238.185462 l
76.864406 238.235092 l
77.673797 238.311445 l
78.483188 238.416431 l
79.292578 238.546232 l
80.101969 238.702756 l
80.911359 238.886004 l
81.72075 239.094067 l
82.530141 239.330762 l
83.339531 239.590364 l
84.148922 239.878598 l
84.958313 240.189738 l
85.767703 240.527601 l
86.577094 240.892189 l
87.386484 241.270138 l
88.195875 238.561502 l
89.005266 236.750019 l
89.814656 235.432923 l
90.624047 232.894174 l
91.433437 232.378789 l
92.242828 229.803771 l
93.052219 229.294113 l
93.861609 227.297472 l
94.671 226.228525 l
95.480391 225.010689 l
96.289781 223.424448 l
97.099172 222.784988 l
97.908563 221.000229 l
98.717953 220.544017 l
99.527344 218.986409 l
100.336734 218.262961 l
101.146125 217.169199 l
101.955516 216.079254 l
102.764906 215.411162 l
103.574297 214.101702 l
104.383688 213.653126 l
105.193078 212.40284 l
106.002469 211.860731 l
106.811859 210.885317 l
107.62125 210.089333 l
108.430641 209.428876 l
109.240031 208.434374 l
110.049422 207.98198 l
110.858813 206.960754 l
111.668203 206.515996 l
112.477594 205.649385 l
113.286984 205.03474 l
114.096375 204.706421 l
114.905766 204.38001 l
115.715156 204.055508 l
116.524547 203.731007 l
117.333937 203.410322 l
118.143328 203.089638 l
118.952719 202.772772 l
119.762109 202.455905 l
120.5715 202.140948 l
121.380891 201.827899 l
122.190281 201.516759 l
122.999672 201.207528 l
123.809063 200.900206 l
124.618453 200.594792 l
125.427844 200.293196 l
126.237234 199.991601 l
127.046625 199.691914 l
127.856016 199.394136 l
128.293087 199.233793 l
stroke
grestore
2 setlinecap
[] 0 setdash
1.000 0.000 0.000 setrgbcolor
gsave
518 95.44 42.87 172.5 clipbox
128.293087 199.233793 m
138.378094 195.589829 l
147.119513 191.379323 l
153.918394 188.336832 l
154.889662 188.036764 l
159.746006 187.252233 l
165.897375 186.461785 l
171.724987 185.93132 l
176.581331 185.484843 l
182.085187 184.639802 l
187.589044 184.023058 l
192.769144 183.660952 l
197.949244 183.516835 l
203.129344 183.592807 l
208.309444 183.886767 l
213.489544 184.392799 l
218.9934 185.15137 l
224.821012 186.185385 l
230.972381 187.51088 l
237.12375 189.052263 l
237.12375 189.052263 l
stroke
grestore
0 setlinecap
[7.4 3.2] 0 setdash
0.000 0.000 1.000 setrgbcolor
gsave
518 95.44 42.87 172.5 clipbox
128.293087 199.233793 m
137.730581 195.971596 l
140.968144 195.444758 l
148.414537 194.413987 l
154.889662 193.543559 l
164.60235 189.531953 l
171.077475 187.136176 l
175.610062 185.666183 l
180.14265 184.898259 l
185.646506 184.180919 l
190.826606 183.726425 l
196.006706 183.49202 l
201.186806 183.479804 l
206.366906 183.686722 l
211.870762 184.138161 l
217.374619 184.815797 l
223.202231 185.761815 l
229.3536 186.993013 l
235.828725 188.521798 l
237.12375 188.853935 l
237.12375 188.853935 l
stroke
grestore
2 setlinecap
[] 0 setdash
1.000 0.000 0.000 setrgbcolor
gsave
518 95.44 42.87 172.5 clipbox
229.029844 187.067839 m
234.857456 188.460143 l
238.418775 189.347751 l
239.066287 189.220622 l
251.369025 184.889287 l
256.549125 183.334733 l
257.196638 183.29312 l
258.815419 183.798007 l
264.643031 185.886271 l
271.441913 188.55883 l
275.650744 190.170458 l
277.269525 189.894059 l
284.068406 188.715927 l
290.543531 187.82202 l
296.6949 187.19554 l
302.846269 186.798312 l
308.673881 186.642169 l
314.501494 186.705352 l
320.329106 186.988432 l
326.480475 187.520042 l
332.631844 188.279186 l
338.459456 189.193708 l
338.459456 189.193708 l
stroke
grestore
0 setlinecap
[7.4 3.2] 0 setdash
0.000 0.000 1.000 setrgbcolor
gsave
518 95.44 42.87 172.5 clipbox
229.029844 186.922577 m
235.181213 188.358402 l
238.418775 189.247155 l
239.066287 189.724746 l
243.598875 193.986409 l
252.987806 203.104909 l
256.872881 206.813774 l
257.196638 206.792776 l
258.167906 205.994884 l
269.499375 195.647094 l
275.326987 190.581049 l
275.9745 190.319729 l
279.535819 189.575284 l
285.687187 188.482858 l
291.5148 187.667595 l
297.342413 187.084637 l
302.846269 186.757463 l
308.350125 186.650377 l
313.853981 186.760326 l
319.681594 187.102771 l
325.832963 187.699854 l
332.308087 188.567229 l
338.459456 189.595136 l
338.459456 189.595136 l
stroke
grestore
2 setlinecap
[] 0 setdash
1.000 0.000 0.000 setrgbcolor
gsave
518 95.44 42.87 172.5 clipbox
338.459456 189.193708 m
343.105358 190.046575 l
350.227996 191.5515 l
357.67439 193.352676 l
359.940683 193.873787 l
360.911952 193.709628 l
370.300883 191.712987 l
379.05849 190.119874 l
387.152396 188.869015 l
392.332496 188.219821 l
392.980009 188.392761 l
396.865084 190.247003 l
406.254015 194.944643 l
415.642946 199.653737 l
417.585484 199.333053 l
427.314359 197.718179 l
437.350803 196.343819 l
444.797197 195.530655 l
453.214859 194.843475 l
455.481153 194.702221 l
455.481153 194.702221 l
stroke
grestore
0 setlinecap
[7.4 3.2] 0 setdash
0.000 0.000 1.000 setrgbcolor
gsave
518 95.44 42.87 172.5 clipbox
338.459456 189.595136 m
343.429115 190.554707 l
350.875508 192.192105 l
357.350633 193.78789 l
359.940683 194.536153 l
361.235708 195.482934 l
370.62464 202.978926 l
382.296052 212.616629 l
392.332496 221.051767 l
392.656252 221.059402 l
393.303765 220.561197 l
415.31919 199.888524 l
415.966702 199.655646 l
420.49929 198.829121 l
433.141972 196.878292 l
441.235878 195.887607 l
448.358515 195.198518 l
455.481153 194.692677 l
455.481153 194.692677 l
stroke
grestore
2 setlinecap
[] 0 setdash
1.000 0.000 0.000 setrgbcolor
gsave
518 95.44 42.87 172.5 clipbox
455.659219 194.692677 m
462.4581 194.391081 l
469.71024 194.160112 l
475.40835 192.499427 l
475.92636 192.619683 l
476.96238 194.183018 l
482.14248 203.047644 l
482.66049 203.368328 l
483.69651 203.148812 l
488.87661 201.736275 l
489.39462 201.755363 l
492.50268 200.905932 l
493.5387 200.749408 l
496.12875 200.083225 l
497.68278 199.890432 l
499.75482 199.361685 l
501.82686 199.145987 l
503.38089 198.7814 l
505.97094 198.561884 l
507.00696 198.327097 l
508.56099 198.298465 l
509.59701 198.222111 l
511.15104 197.964419 l
513.74109 197.935786 l
514.77711 197.775444 l
516.33114 197.868977 l
516.363516 197.89761 l
517.88517 197.796441 l
518.92119 197.723906 l
521.51124 197.895701 l
522.54726 197.807894 l
524.10129 198.015957 l
525.13731 198.084675 l
526.69134 198.067496 l
529.28139 198.422539 l
530.83542 198.493166 l
532.90746 198.884477 l
534.46149 198.987554 l
537.05154 199.529663 l
538.60557 199.701458 l
540.67761 200.239749 l
542.23164 200.457356 l
543.78567 200.806673 l
550.00179 202.373826 l
556.73592 204.322745 l
560.88 205.62457 l
560.88 205.62457 l
stroke
grestore
0 setlinecap
[7.4 3.2] 0 setdash
0.000 0.000 1.000 setrgbcolor
gsave
518 95.44 42.87 172.5 clipbox
455.659219 194.683133 m
462.4581 194.383446 l
469.19223 194.282278 l
470.22825 194.518973 l
475.40835 196.137665 l
475.92636 196.005955 l
476.96238 194.204016 l
482.14248 184.067916 l
483.1785 182.628082 l
487.32258 177.790333 l
489.91263 174.93109 l
490.43064 174.015747 l
490.94865 173.477361 l
491.46666 174.128788 l
491.98467 175.03035 l
492.50268 175.681835 l
493.02069 175.923684 l
493.5387 175.702641 l
494.05671 175.056883 l
495.09273 173.428991 l
495.61074 173.96711 l
496.64676 175.623043 l
497.16477 175.933228 l
497.68278 175.77575 l
498.20079 175.179812 l
499.23681 173.444853 l
499.75482 173.815052 l
500.79084 175.544017 l
501.30885 175.919485 l
501.82686 175.826715 l
502.34487 175.285752 l
503.38089 173.516091 l
503.8989 173.6922 l
504.93492 175.452775 l
505.45293 175.887225 l
505.97094 175.862411 l
506.48895 175.387111 l
507.52497 173.63461 l
508.04298 173.589848 l
509.079 175.343971 l
509.59701 175.842941 l
510.11502 175.891616 l
510.63303 175.485416 l
511.66905 173.779109 l
512.18706 173.517389 l
513.22308 175.222951 l
513.74109 175.782812 l
514.2591 175.905932 l
514.77711 175.576276 l
515.29512 174.858364 l
515.81313 173.938592 l
516.363516 173.500381 l
517.88517 175.70894 l
518.40318 175.908986 l
518.92119 175.657402 l
519.4392 175.004199 l
519.95721 174.104565 l
520.47522 173.488146 l
520.99323 174.051194 l
521.51124 174.950179 l
522.02925 175.623806 l
522.54726 175.900206 l
523.06527 175.727647 l
523.58328 175.137435 l
524.6193 173.534416 l
525.13731 173.909082 l
526.17333 175.52951 l
526.69134 175.878254 l
527.20935 175.783958 l
527.72736 175.263037 l
528.76338 173.616247 l
529.28139 173.77951 l
530.31741 175.427578 l
530.83542 175.849049 l
531.35343 175.831869 l
531.87144 175.376994 l
532.90746 173.723199 l
533.42547 173.673665 l
534.46149 175.321447 l
534.9795 175.8082 l
535.49751 175.865847 l
536.01552 175.481789 l
537.05154 173.857753 l
537.56955 173.594945 l
539.12358 175.748262 l
539.64159 175.881881 l
540.1596 175.570741 l
541.71363 173.559269 l
542.23164 174.204684 l
542.74965 175.070626 l
543.26766 175.708368 l
545.501578 177.508207 l
548.44776 180.269527 l
554.14587 185.964342 l
560.88 192.879285 l
560.88 192.879285 l
stroke
grestore
0.800 setlinewidth
0 setlinejoin
2 setlinecap
[] 0 setdash
0.000 setgray
gsave
42.87 172.529205 m
42.87 267.970909 l
stroke
grestore
gsave
560.88 172.529205 m
560.88 267.970909 l
stroke
grestore
gsave
42.87 172.529205 m
560.88 172.529205 l
stroke
grestore
gsave
42.87 267.970909 m
560.88 267.970909 l
stroke
grestore
2.000 setlinewidth
1 setlinejoin
[] 0 setdash
1.000 0.000 0.000 setrgbcolor
gsave
512.08 252.245909 m
537.28 252.245909 l
stroke
grestore
0.000 setgray
gsave
542.080000 248.045909 translate
0.000000 rotate
/DejaVuSans-Oblique findfont
12.0 scalefont
setfont
0.000000 0.437500 moveto
/x glyphshow


grestore
0 setlinecap
[7.4 3.2] 0 setdash
0.000 0.000 1.000 setrgbcolor
gsave
512.08 240.020909 m
537.28 240.020909 l
stroke
grestore
0.000 setgray
gsave
542.080000 235.820909 translate
0.000000 rotate
/DejaVuSans-Oblique findfont
12.0 scalefont
setfont
0.000000 0.437500 moveto
/y glyphshow


grestore
gsave
42.87 44.4275 m
560.88 44.4275 l
560.88 139.869205 l
42.87 139.869205 l
cl
1.000 setgray
fill
grestore
0.800 setlinewidth
2 setlinecap
[] 0 setdash
0.690 setgray
gsave
518 95.44 42.87 44.43 clipbox
42.87 44.4275 m
42.87 139.869205 l
stroke
grestore
1.000 setlinewidth
0 setlinecap
0.000 setgray
gsave
/o {
gsave
newpath
translate
1.0 setlinewidth
1 setlinejoin
0 setlinecap
0 0 m
0 5 l

gsave
0.000 setgray
fill
grestore
stroke
grestore
} bind def
42.87 44.4275 o
grestore
gsave
/o {
gsave
newpath
translate
1.0 setlinewidth
1 setlinejoin
0 setlinecap
0 0 m
0 -5 l

gsave
0.000 setgray
fill
grestore
stroke
grestore
} bind def
42.87 139.869 o
grestore
/DejaVuSerif findfont
10.000 scalefont
setfont
gsave
39.690313 33.333750 translate
0.000000 rotate
0.000000 0.000000 m /zero glyphshow
grestore
0.800 setlinewidth
2 setlinecap
0.690 setgray
gsave
518 95.44 42.87 44.43 clipbox
123.809063 44.4275 m
123.809063 139.869205 l
stroke
grestore
1.000 setlinewidth
0 setlinecap
0.000 setgray
gsave
/o {
gsave
newpath
translate
1.0 setlinewidth
1 setlinejoin
0 setlinecap
0 0 m
0 5 l

gsave
0.000 setgray
fill
grestore
stroke
grestore
} bind def
123.809 44.4275 o
grestore
gsave
/o {
gsave
newpath
translate
1.0 setlinewidth
1 setlinejoin
0 setlinecap
0 0 m
0 -5 l

gsave
0.000 setgray
fill
grestore
stroke
grestore
} bind def
123.809 139.869 o
grestore
gsave
120.629375 33.333750 translate
0.000000 rotate
0.000000 0.000000 m /five glyphshow
grestore
0.800 setlinewidth
2 setlinecap
0.690 setgray
gsave
518 95.44 42.87 44.43 clipbox
204.748125 44.4275 m
204.748125 139.869205 l
stroke
grestore
1.000 setlinewidth
0 setlinecap
0.000 setgray
gsave
/o {
gsave
newpath
translate
1.0 setlinewidth
1 setlinejoin
0 setlinecap
0 0 m
0 5 l

gsave
0.000 setgray
fill
grestore
stroke
grestore
} bind def
204.748 44.4275 o
grestore
gsave
/o {
gsave
newpath
translate
1.0 setlinewidth
1 setlinejoin
0 setlinecap
0 0 m
0 -5 l

gsave
0.000 setgray
fill
grestore
stroke
grestore
} bind def
204.748 139.869 o
grestore
gsave
198.388750 33.333750 translate
0.000000 rotate
0.000000 0.000000 m /one glyphshow
6.362305 0.000000 m /zero glyphshow
grestore
0.800 setlinewidth
2 setlinecap
0.690 setgray
gsave
518 95.44 42.87 44.43 clipbox
285.687187 44.4275 m
285.687187 139.869205 l
stroke
grestore
1.000 setlinewidth
0 setlinecap
0.000 setgray
gsave
/o {
gsave
newpath
translate
1.0 setlinewidth
1 setlinejoin
0 setlinecap
0 0 m
0 5 l

gsave
0.000 setgray
fill
grestore
stroke
grestore
} bind def
285.687 44.4275 o
grestore
gsave
/o {
gsave
newpath
translate
1.0 setlinewidth
1 setlinejoin
0 setlinecap
0 0 m
0 -5 l

gsave
0.000 setgray
fill
grestore
stroke
grestore
} bind def
285.687 139.869 o
grestore
gsave
279.327812 33.333750 translate
0.000000 rotate
0.000000 0.000000 m /one glyphshow
6.362305 0.000000 m /five glyphshow
grestore
0.800 setlinewidth
2 setlinecap
0.690 setgray
gsave
518 95.44 42.87 44.43 clipbox
366.62625 44.4275 m
366.62625 139.869205 l
stroke
grestore
1.000 setlinewidth
0 setlinecap
0.000 setgray
gsave
/o {
gsave
newpath
translate
1.0 setlinewidth
1 setlinejoin
0 setlinecap
0 0 m
0 5 l

gsave
0.000 setgray
fill
grestore
stroke
grestore
} bind def
366.626 44.4275 o
grestore
gsave
/o {
gsave
newpath
translate
1.0 setlinewidth
1 setlinejoin
0 setlinecap
0 0 m
0 -5 l

gsave
0.000 setgray
fill
grestore
stroke
grestore
} bind def
366.626 139.869 o
grestore
gsave
360.266875 33.333750 translate
0.000000 rotate
0.000000 0.000000 m /two glyphshow
6.362305 0.000000 m /zero glyphshow
grestore
0.800 setlinewidth
2 setlinecap
0.690 setgray
gsave
518 95.44 42.87 44.43 clipbox
447.565313 44.4275 m
447.565313 139.869205 l
stroke
grestore
1.000 setlinewidth
0 setlinecap
0.000 setgray
gsave
/o {
gsave
newpath
translate
1.0 setlinewidth
1 setlinejoin
0 setlinecap
0 0 m
0 5 l

gsave
0.000 setgray
fill
grestore
stroke
grestore
} bind def
447.565 44.4275 o
grestore
gsave
/o {
gsave
newpath
translate
1.0 setlinewidth
1 setlinejoin
0 setlinecap
0 0 m
0 -5 l

gsave
0.000 setgray
fill
grestore
stroke
grestore
} bind def
447.565 139.869 o
grestore
gsave
441.205938 33.333750 translate
0.000000 rotate
0.000000 0.000000 m /two glyphshow
6.362305 0.000000 m /five glyphshow
grestore
0.800 setlinewidth
2 setlinecap
0.690 setgray
gsave
518 95.44 42.87 44.43 clipbox
528.504375 44.4275 m
528.504375 139.869205 l
stroke
grestore
1.000 setlinewidth
0 setlinecap
0.000 setgray
gsave
/o {
gsave
newpath
translate
1.0 setlinewidth
1 setlinejoin
0 setlinecap
0 0 m
0 5 l

gsave
0.000 setgray
fill
grestore
stroke
grestore
} bind def
528.504 44.4275 o
grestore
gsave
/o {
gsave
newpath
translate
1.0 setlinewidth
1 setlinejoin
0 setlinecap
0 0 m
0 -5 l

gsave
0.000 setgray
fill
grestore
stroke
grestore
} bind def
528.504 139.869 o
grestore
gsave
522.145000 33.333750 translate
0.000000 rotate
0.000000 0.000000 m /three glyphshow
6.362305 0.000000 m /zero glyphshow
grestore
0.700 setlinewidth
gsave
/o {
gsave
newpath
translate
0.7 setlinewidth
1 setlinejoin
0 setlinecap
0 0 m
0 3 l

gsave
0.000 setgray
fill
grestore
stroke
grestore
} bind def
59.0578 44.4275 o
grestore
gsave
/o {
gsave
newpath
translate
0.7 setlinewidth
1 setlinejoin
0 setlinecap
0 0 m
0 -3 l

gsave
0.000 setgray
fill
grestore
stroke
grestore
} bind def
59.0578 139.869 o
grestore
gsave
/o {
gsave
newpath
translate
0.7 setlinewidth
1 setlinejoin
0 setlinecap
0 0 m
0 3 l

gsave
0.000 setgray
fill
grestore
stroke
grestore
} bind def
75.2456 44.4275 o
grestore
gsave
/o {
gsave
newpath
translate
0.7 setlinewidth
1 setlinejoin
0 setlinecap
0 0 m
0 -3 l

gsave
0.000 setgray
fill
grestore
stroke
grestore
} bind def
75.2456 139.869 o
grestore
gsave
/o {
gsave
newpath
translate
0.7 setlinewidth
1 setlinejoin
0 setlinecap
0 0 m
0 3 l

gsave
0.000 setgray
fill
grestore
stroke
grestore
} bind def
91.4334 44.4275 o
grestore
gsave
/o {
gsave
newpath
translate
0.7 setlinewidth
1 setlinejoin
0 setlinecap
0 0 m
0 -3 l

gsave
0.000 setgray
fill
grestore
stroke
grestore
} bind def
91.4334 139.869 o
grestore
gsave
/o {
gsave
newpath
translate
0.7 setlinewidth
1 setlinejoin
0 setlinecap
0 0 m
0 3 l

gsave
0.000 setgray
fill
grestore
stroke
grestore
} bind def
107.621 44.4275 o
grestore
gsave
/o {
gsave
newpath
translate
0.7 setlinewidth
1 setlinejoin
0 setlinecap
0 0 m
0 -3 l

gsave
0.000 setgray
fill
grestore
stroke
grestore
} bind def
107.621 139.869 o
grestore
gsave
/o {
gsave
newpath
translate
0.7 setlinewidth
1 setlinejoin
0 setlinecap
0 0 m
0 3 l

gsave
0.000 setgray
fill
grestore
stroke
grestore
} bind def
139.997 44.4275 o
grestore
gsave
/o {
gsave
newpath
translate
0.7 setlinewidth
1 setlinejoin
0 setlinecap
0 0 m
0 -3 l

gsave
0.000 setgray
fill
grestore
stroke
grestore
} bind def
139.997 139.869 o
grestore
gsave
/o {
gsave
newpath
translate
0.7 setlinewidth
1 setlinejoin
0 setlinecap
0 0 m
0 3 l

gsave
0.000 setgray
fill
grestore
stroke
grestore
} bind def
156.185 44.4275 o
grestore
gsave
/o {
gsave
newpath
translate
0.7 setlinewidth
1 setlinejoin
0 setlinecap
0 0 m
0 -3 l

gsave
0.000 setgray
fill
grestore
stroke
grestore
} bind def
156.185 139.869 o
grestore
gsave
/o {
gsave
newpath
translate
0.7 setlinewidth
1 setlinejoin
0 setlinecap
0 0 m
0 3 l

gsave
0.000 setgray
fill
grestore
stroke
grestore
} bind def
172.373 44.4275 o
grestore
gsave
/o {
gsave
newpath
translate
0.7 setlinewidth
1 setlinejoin
0 setlinecap
0 0 m
0 -3 l

gsave
0.000 setgray
fill
grestore
stroke
grestore
} bind def
172.373 139.869 o
grestore
gsave
/o {
gsave
newpath
translate
0.7 setlinewidth
1 setlinejoin
0 setlinecap
0 0 m
0 3 l

gsave
0.000 setgray
fill
grestore
stroke
grestore
} bind def
188.56 44.4275 o
grestore
gsave
/o {
gsave
newpath
translate
0.7 setlinewidth
1 setlinejoin
0 setlinecap
0 0 m
0 -3 l

gsave
0.000 setgray
fill
grestore
stroke
grestore
} bind def
188.56 139.869 o
grestore
gsave
/o {
gsave
newpath
translate
0.7 setlinewidth
1 setlinejoin
0 setlinecap
0 0 m
0 3 l

gsave
0.000 setgray
fill
grestore
stroke
grestore
} bind def
220.936 44.4275 o
grestore
gsave
/o {
gsave
newpath
translate
0.7 setlinewidth
1 setlinejoin
0 setlinecap
0 0 m
0 -3 l

gsave
0.000 setgray
fill
grestore
stroke
grestore
} bind def
220.936 139.869 o
grestore
gsave
/o {
gsave
newpath
translate
0.7 setlinewidth
1 setlinejoin
0 setlinecap
0 0 m
0 3 l

gsave
0.000 setgray
fill
grestore
stroke
grestore
} bind def
237.124 44.4275 o
grestore
gsave
/o {
gsave
newpath
translate
0.7 setlinewidth
1 setlinejoin
0 setlinecap
0 0 m
0 -3 l

gsave
0.000 setgray
fill
grestore
stroke
grestore
} bind def
237.124 139.869 o
grestore
gsave
/o {
gsave
newpath
translate
0.7 setlinewidth
1 setlinejoin
0 setlinecap
0 0 m
0 3 l

gsave
0.000 setgray
fill
grestore
stroke
grestore
} bind def
253.312 44.4275 o
grestore
gsave
/o {
gsave
newpath
translate
0.7 setlinewidth
1 setlinejoin
0 setlinecap
0 0 m
0 -3 l

gsave
0.000 setgray
fill
grestore
stroke
grestore
} bind def
253.312 139.869 o
grestore
gsave
/o {
gsave
newpath
translate
0.7 setlinewidth
1 setlinejoin
0 setlinecap
0 0 m
0 3 l

gsave
0.000 setgray
fill
grestore
stroke
grestore
} bind def
269.499 44.4275 o
grestore
gsave
/o {
gsave
newpath
translate
0.7 setlinewidth
1 setlinejoin
0 setlinecap
0 0 m
0 -3 l

gsave
0.000 setgray
fill
grestore
stroke
grestore
} bind def
269.499 139.869 o
grestore
gsave
/o {
gsave
newpath
translate
0.7 setlinewidth
1 setlinejoin
0 setlinecap
0 0 m
0 3 l

gsave
0.000 setgray
fill
grestore
stroke
grestore
} bind def
301.875 44.4275 o
grestore
gsave
/o {
gsave
newpath
translate
0.7 setlinewidth
1 setlinejoin
0 setlinecap
0 0 m
0 -3 l

gsave
0.000 setgray
fill
grestore
stroke
grestore
} bind def
301.875 139.869 o
grestore
gsave
/o {
gsave
newpath
translate
0.7 setlinewidth
1 setlinejoin
0 setlinecap
0 0 m
0 3 l

gsave
0.000 setgray
fill
grestore
stroke
grestore
} bind def
318.063 44.4275 o
grestore
gsave
/o {
gsave
newpath
translate
0.7 setlinewidth
1 setlinejoin
0 setlinecap
0 0 m
0 -3 l

gsave
0.000 setgray
fill
grestore
stroke
grestore
} bind def
318.063 139.869 o
grestore
gsave
/o {
gsave
newpath
translate
0.7 setlinewidth
1 setlinejoin
0 setlinecap
0 0 m
0 3 l

gsave
0.000 setgray
fill
grestore
stroke
grestore
} bind def
334.251 44.4275 o
grestore
gsave
/o {
gsave
newpath
translate
0.7 setlinewidth
1 setlinejoin
0 setlinecap
0 0 m
0 -3 l

gsave
0.000 setgray
fill
grestore
stroke
grestore
} bind def
334.251 139.869 o
grestore
gsave
/o {
gsave
newpath
translate
0.7 setlinewidth
1 setlinejoin
0 setlinecap
0 0 m
0 3 l

gsave
0.000 setgray
fill
grestore
stroke
grestore
} bind def
350.438 44.4275 o
grestore
gsave
/o {
gsave
newpath
translate
0.7 setlinewidth
1 setlinejoin
0 setlinecap
0 0 m
0 -3 l

gsave
0.000 setgray
fill
grestore
stroke
grestore
} bind def
350.438 139.869 o
grestore
gsave
/o {
gsave
newpath
translate
0.7 setlinewidth
1 setlinejoin
0 setlinecap
0 0 m
0 3 l

gsave
0.000 setgray
fill
grestore
stroke
grestore
} bind def
382.814 44.4275 o
grestore
gsave
/o {
gsave
newpath
translate
0.7 setlinewidth
1 setlinejoin
0 setlinecap
0 0 m
0 -3 l

gsave
0.000 setgray
fill
grestore
stroke
grestore
} bind def
382.814 139.869 o
grestore
gsave
/o {
gsave
newpath
translate
0.7 setlinewidth
1 setlinejoin
0 setlinecap
0 0 m
0 3 l

gsave
0.000 setgray
fill
grestore
stroke
grestore
} bind def
399.002 44.4275 o
grestore
gsave
/o {
gsave
newpath
translate
0.7 setlinewidth
1 setlinejoin
0 setlinecap
0 0 m
0 -3 l

gsave
0.000 setgray
fill
grestore
stroke
grestore
} bind def
399.002 139.869 o
grestore
gsave
/o {
gsave
newpath
translate
0.7 setlinewidth
1 setlinejoin
0 setlinecap
0 0 m
0 3 l

gsave
0.000 setgray
fill
grestore
stroke
grestore
} bind def
415.19 44.4275 o
grestore
gsave
/o {
gsave
newpath
translate
0.7 setlinewidth
1 setlinejoin
0 setlinecap
0 0 m
0 -3 l

gsave
0.000 setgray
fill
grestore
stroke
grestore
} bind def
415.19 139.869 o
grestore
gsave
/o {
gsave
newpath
translate
0.7 setlinewidth
1 setlinejoin
0 setlinecap
0 0 m
0 3 l

gsave
0.000 setgray
fill
grestore
stroke
grestore
} bind def
431.377 44.4275 o
grestore
gsave
/o {
gsave
newpath
translate
0.7 setlinewidth
1 setlinejoin
0 setlinecap
0 0 m
0 -3 l

gsave
0.000 setgray
fill
grestore
stroke
grestore
} bind def
431.377 139.869 o
grestore
gsave
/o {
gsave
newpath
translate
0.7 setlinewidth
1 setlinejoin
0 setlinecap
0 0 m
0 3 l

gsave
0.000 setgray
fill
grestore
stroke
grestore
} bind def
463.753 44.4275 o
grestore
gsave
/o {
gsave
newpath
translate
0.7 setlinewidth
1 setlinejoin
0 setlinecap
0 0 m
0 -3 l

gsave
0.000 setgray
fill
grestore
stroke
grestore
} bind def
463.753 139.869 o
grestore
gsave
/o {
gsave
newpath
translate
0.7 setlinewidth
1 setlinejoin
0 setlinecap
0 0 m
0 3 l

gsave
0.000 setgray
fill
grestore
stroke
grestore
} bind def
479.941 44.4275 o
grestore
gsave
/o {
gsave
newpath
translate
0.7 setlinewidth
1 setlinejoin
0 setlinecap
0 0 m
0 -3 l

gsave
0.000 setgray
fill
grestore
stroke
grestore
} bind def
479.941 139.869 o
grestore
gsave
/o {
gsave
newpath
translate
0.7 setlinewidth
1 setlinejoin
0 setlinecap
0 0 m
0 3 l

gsave
0.000 setgray
fill
grestore
stroke
grestore
} bind def
496.129 44.4275 o
grestore
gsave
/o {
gsave
newpath
translate
0.7 setlinewidth
1 setlinejoin
0 setlinecap
0 0 m
0 -3 l

gsave
0.000 setgray
fill
grestore
stroke
grestore
} bind def
496.129 139.869 o
grestore
gsave
/o {
gsave
newpath
translate
0.7 setlinewidth
1 setlinejoin
0 setlinecap
0 0 m
0 3 l

gsave
0.000 setgray
fill
grestore
stroke
grestore
} bind def
512.317 44.4275 o
grestore
gsave
/o {
gsave
newpath
translate
0.7 setlinewidth
1 setlinejoin
0 setlinecap
0 0 m
0 -3 l

gsave
0.000 setgray
fill
grestore
stroke
grestore
} bind def
512.317 139.869 o
grestore
gsave
/o {
gsave
newpath
translate
0.7 setlinewidth
1 setlinejoin
0 setlinecap
0 0 m
0 3 l

gsave
0.000 setgray
fill
grestore
stroke
grestore
} bind def
544.692 44.4275 o
grestore
gsave
/o {
gsave
newpath
translate
0.7 setlinewidth
1 setlinejoin
0 setlinecap
0 0 m
0 -3 l

gsave
0.000 setgray
fill
grestore
stroke
grestore
} bind def
544.692 139.869 o
grestore
gsave
/o {
gsave
newpath
translate
0.7 setlinewidth
1 setlinejoin
0 setlinecap
0 0 m
0 3 l

gsave
0.000 setgray
fill
grestore
stroke
grestore
} bind def
560.88 44.4275 o
grestore
gsave
/o {
gsave
newpath
translate
0.7 setlinewidth
1 setlinejoin
0 setlinecap
0 0 m
0 -3 l

gsave
0.000 setgray
fill
grestore
stroke
grestore
} bind def
560.88 139.869 o
grestore
gsave
283.875000 20.255625 translate
0.000000 rotate
/DejaVuSans-Oblique findfont
14.0 scalefont
setfont
0.000000 0.359375 moveto
/z glyphshow

/DejaVuSerif findfont
14.0 scalefont
setfont
7.348633 0.359375 moveto
/space glyphshow

11.798828 0.359375 moveto
/parenleft glyphshow

17.260742 0.359375 moveto
/m glyphshow

30.536133 0.359375 moveto
/parenright glyphshow


grestore
0.800 setlinewidth
2 setlinecap
0.690 setgray
gsave
518 95.44 42.87 44.43 clipbox
42.87 44.4275 m
560.88 44.4275 l
stroke
grestore
1.000 setlinewidth
0 setlinecap
0.000 setgray
gsave
/o {
gsave
newpath
translate
1.0 setlinewidth
1 setlinejoin
0 setlinecap
0 0 m
5 0 l

gsave
0.000 setgray
fill
grestore
stroke
grestore
} bind def
42.87 44.4275 o
grestore
gsave
/o {
gsave
newpath
translate
1.0 setlinewidth
1 setlinejoin
0 setlinecap
0 0 m
-5 0 l

gsave
0.000 setgray
fill
grestore
stroke
grestore
} bind def
560.88 44.4275 o
grestore
gsave
33.010625 40.630625 translate
0.000000 rotate
0.000000 0.000000 m /zero glyphshow
grestore
0.800 setlinewidth
2 setlinecap
0.690 setgray
gsave
518 95.44 42.87 44.43 clipbox
42.87 68.287926 m
560.88 68.287926 l
stroke
grestore
1.000 setlinewidth
0 setlinecap
0.000 setgray
gsave
/o {
gsave
newpath
translate
1.0 setlinewidth
1 setlinejoin
0 setlinecap
0 0 m
5 0 l

gsave
0.000 setgray
fill
grestore
stroke
grestore
} bind def
42.87 68.2879 o
grestore
gsave
/o {
gsave
newpath
translate
1.0 setlinewidth
1 setlinejoin
0 setlinecap
0 0 m
-5 0 l

gsave
0.000 setgray
fill
grestore
stroke
grestore
} bind def
560.88 68.2879 o
grestore
gsave
33.010625 64.491051 translate
0.000000 rotate
0.000000 0.000000 m /five glyphshow
grestore
0.800 setlinewidth
2 setlinecap
0.690 setgray
gsave
518 95.44 42.87 44.43 clipbox
42.87 92.148352 m
560.88 92.148352 l
stroke
grestore
1.000 setlinewidth
0 setlinecap
0.000 setgray
gsave
/o {
gsave
newpath
translate
1.0 setlinewidth
1 setlinejoin
0 setlinecap
0 0 m
5 0 l

gsave
0.000 setgray
fill
grestore
stroke
grestore
} bind def
42.87 92.1484 o
grestore
gsave
/o {
gsave
newpath
translate
1.0 setlinewidth
1 setlinejoin
0 setlinecap
0 0 m
-5 0 l

gsave
0.000 setgray
fill
grestore
stroke
grestore
} bind def
560.88 92.1484 o
grestore
gsave
26.651250 88.351477 translate
0.000000 rotate
0.000000 0.000000 m /one glyphshow
6.362305 0.000000 m /zero glyphshow
grestore
0.800 setlinewidth
2 setlinecap
0.690 setgray
gsave
518 95.44 42.87 44.43 clipbox
42.87 116.008778 m
560.88 116.008778 l
stroke
grestore
1.000 setlinewidth
0 setlinecap
0.000 setgray
gsave
/o {
gsave
newpath
translate
1.0 setlinewidth
1 setlinejoin
0 setlinecap
0 0 m
5 0 l

gsave
0.000 setgray
fill
grestore
stroke
grestore
} bind def
42.87 116.009 o
grestore
gsave
/o {
gsave
newpath
translate
1.0 setlinewidth
1 setlinejoin
0 setlinecap
0 0 m
-5 0 l

gsave
0.000 setgray
fill
grestore
stroke
grestore
} bind def
560.88 116.009 o
grestore
gsave
26.651250 112.211903 translate
0.000000 rotate
0.000000 0.000000 m /one glyphshow
6.362305 0.000000 m /five glyphshow
grestore
0.800 setlinewidth
2 setlinecap
0.690 setgray
gsave
518 95.44 42.87 44.43 clipbox
42.87 139.869205 m
560.88 139.869205 l
stroke
grestore
1.000 setlinewidth
0 setlinecap
0.000 setgray
gsave
/o {
gsave
newpath
translate
1.0 setlinewidth
1 setlinejoin
0 setlinecap
0 0 m
5 0 l

gsave
0.000 setgray
fill
grestore
stroke
grestore
} bind def
42.87 139.869 o
grestore
gsave
/o {
gsave
newpath
translate
1.0 setlinewidth
1 setlinejoin
0 setlinecap
0 0 m
-5 0 l

gsave
0.000 setgray
fill
grestore
stroke
grestore
} bind def
560.88 139.869 o
grestore
gsave
26.651250 136.072330 translate
0.000000 rotate
0.000000 0.000000 m /two glyphshow
6.362305 0.000000 m /zero glyphshow
grestore
0.700 setlinewidth
gsave
/o {
gsave
newpath
translate
0.7 setlinewidth
1 setlinejoin
0 setlinecap
0 0 m
3 0 l

gsave
0.000 setgray
fill
grestore
stroke
grestore
} bind def
42.87 49.1996 o
grestore
gsave
/o {
gsave
newpath
translate
0.7 setlinewidth
1 setlinejoin
0 setlinecap
0 0 m
-3 0 l

gsave
0.000 setgray
fill
grestore
stroke
grestore
} bind def
560.88 49.1996 o
grestore
gsave
/o {
gsave
newpath
translate
0.7 setlinewidth
1 setlinejoin
0 setlinecap
0 0 m
3 0 l

gsave
0.000 setgray
fill
grestore
stroke
grestore
} bind def
42.87 53.9717 o
grestore
gsave
/o {
gsave
newpath
translate
0.7 setlinewidth
1 setlinejoin
0 setlinecap
0 0 m
-3 0 l

gsave
0.000 setgray
fill
grestore
stroke
grestore
} bind def
560.88 53.9717 o
grestore
gsave
/o {
gsave
newpath
translate
0.7 setlinewidth
1 setlinejoin
0 setlinecap
0 0 m
3 0 l

gsave
0.000 setgray
fill
grestore
stroke
grestore
} bind def
42.87 58.7438 o
grestore
gsave
/o {
gsave
newpath
translate
0.7 setlinewidth
1 setlinejoin
0 setlinecap
0 0 m
-3 0 l

gsave
0.000 setgray
fill
grestore
stroke
grestore
} bind def
560.88 58.7438 o
grestore
gsave
/o {
gsave
newpath
translate
0.7 setlinewidth
1 setlinejoin
0 setlinecap
0 0 m
3 0 l

gsave
0.000 setgray
fill
grestore
stroke
grestore
} bind def
42.87 63.5158 o
grestore
gsave
/o {
gsave
newpath
translate
0.7 setlinewidth
1 setlinejoin
0 setlinecap
0 0 m
-3 0 l

gsave
0.000 setgray
fill
grestore
stroke
grestore
} bind def
560.88 63.5158 o
grestore
gsave
/o {
gsave
newpath
translate
0.7 setlinewidth
1 setlinejoin
0 setlinecap
0 0 m
3 0 l

gsave
0.000 setgray
fill
grestore
stroke
grestore
} bind def
42.87 73.06 o
grestore
gsave
/o {
gsave
newpath
translate
0.7 setlinewidth
1 setlinejoin
0 setlinecap
0 0 m
-3 0 l

gsave
0.000 setgray
fill
grestore
stroke
grestore
} bind def
560.88 73.06 o
grestore
gsave
/o {
gsave
newpath
translate
0.7 setlinewidth
1 setlinejoin
0 setlinecap
0 0 m
3 0 l

gsave
0.000 setgray
fill
grestore
stroke
grestore
} bind def
42.87 77.8321 o
grestore
gsave
/o {
gsave
newpath
translate
0.7 setlinewidth
1 setlinejoin
0 setlinecap
0 0 m
-3 0 l

gsave
0.000 setgray
fill
grestore
stroke
grestore
} bind def
560.88 77.8321 o
grestore
gsave
/o {
gsave
newpath
translate
0.7 setlinewidth
1 setlinejoin
0 setlinecap
0 0 m
3 0 l

gsave
0.000 setgray
fill
grestore
stroke
grestore
} bind def
42.87 82.6042 o
grestore
gsave
/o {
gsave
newpath
translate
0.7 setlinewidth
1 setlinejoin
0 setlinecap
0 0 m
-3 0 l

gsave
0.000 setgray
fill
grestore
stroke
grestore
} bind def
560.88 82.6042 o
grestore
gsave
/o {
gsave
newpath
translate
0.7 setlinewidth
1 setlinejoin
0 setlinecap
0 0 m
3 0 l

gsave
0.000 setgray
fill
grestore
stroke
grestore
} bind def
42.87 87.3763 o
grestore
gsave
/o {
gsave
newpath
translate
0.7 setlinewidth
1 setlinejoin
0 setlinecap
0 0 m
-3 0 l

gsave
0.000 setgray
fill
grestore
stroke
grestore
} bind def
560.88 87.3763 o
grestore
gsave
/o {
gsave
newpath
translate
0.7 setlinewidth
1 setlinejoin
0 setlinecap
0 0 m
3 0 l

gsave
0.000 setgray
fill
grestore
stroke
grestore
} bind def
42.87 96.9204 o
grestore
gsave
/o {
gsave
newpath
translate
0.7 setlinewidth
1 setlinejoin
0 setlinecap
0 0 m
-3 0 l

gsave
0.000 setgray
fill
grestore
stroke
grestore
} bind def
560.88 96.9204 o
grestore
gsave
/o {
gsave
newpath
translate
0.7 setlinewidth
1 setlinejoin
0 setlinecap
0 0 m
3 0 l

gsave
0.000 setgray
fill
grestore
stroke
grestore
} bind def
42.87 101.693 o
grestore
gsave
/o {
gsave
newpath
translate
0.7 setlinewidth
1 setlinejoin
0 setlinecap
0 0 m
-3 0 l

gsave
0.000 setgray
fill
grestore
stroke
grestore
} bind def
560.88 101.693 o
grestore
gsave
/o {
gsave
newpath
translate
0.7 setlinewidth
1 setlinejoin
0 setlinecap
0 0 m
3 0 l

gsave
0.000 setgray
fill
grestore
stroke
grestore
} bind def
42.87 106.465 o
grestore
gsave
/o {
gsave
newpath
translate
0.7 setlinewidth
1 setlinejoin
0 setlinecap
0 0 m
-3 0 l

gsave
0.000 setgray
fill
grestore
stroke
grestore
} bind def
560.88 106.465 o
grestore
gsave
/o {
gsave
newpath
translate
0.7 setlinewidth
1 setlinejoin
0 setlinecap
0 0 m
3 0 l

gsave
0.000 setgray
fill
grestore
stroke
grestore
} bind def
42.87 111.237 o
grestore
gsave
/o {
gsave
newpath
translate
0.7 setlinewidth
1 setlinejoin
0 setlinecap
0 0 m
-3 0 l

gsave
0.000 setgray
fill
grestore
stroke
grestore
} bind def
560.88 111.237 o
grestore
gsave
/o {
gsave
newpath
translate
0.7 setlinewidth
1 setlinejoin
0 setlinecap
0 0 m
3 0 l

gsave
0.000 setgray
fill
grestore
stroke
grestore
} bind def
42.87 120.781 o
grestore
gsave
/o {
gsave
newpath
translate
0.7 setlinewidth
1 setlinejoin
0 setlinecap
0 0 m
-3 0 l

gsave
0.000 setgray
fill
grestore
stroke
grestore
} bind def
560.88 120.781 o
grestore
gsave
/o {
gsave
newpath
translate
0.7 setlinewidth
1 setlinejoin
0 setlinecap
0 0 m
3 0 l

gsave
0.000 setgray
fill
grestore
stroke
grestore
} bind def
42.87 125.553 o
grestore
gsave
/o {
gsave
newpath
translate
0.7 setlinewidth
1 setlinejoin
0 setlinecap
0 0 m
-3 0 l

gsave
0.000 setgray
fill
grestore
stroke
grestore
} bind def
560.88 125.553 o
grestore
gsave
/o {
gsave
newpath
translate
0.7 setlinewidth
1 setlinejoin
0 setlinecap
0 0 m
3 0 l

gsave
0.000 setgray
fill
grestore
stroke
grestore
} bind def
42.87 130.325 o
grestore
gsave
/o {
gsave
newpath
translate
0.7 setlinewidth
1 setlinejoin
0 setlinecap
0 0 m
-3 0 l

gsave
0.000 setgray
fill
grestore
stroke
grestore
} bind def
560.88 130.325 o
grestore
gsave
/o {
gsave
newpath
translate
0.7 setlinewidth
1 setlinejoin
0 setlinecap
0 0 m
3 0 l

gsave
0.000 setgray
fill
grestore
stroke
grestore
} bind def
42.87 135.097 o
grestore
gsave
/o {
gsave
newpath
translate
0.7 setlinewidth
1 setlinejoin
0 setlinecap
0 0 m
-3 0 l

gsave
0.000 setgray
fill
grestore
stroke
grestore
} bind def
560.88 135.097 o
grestore
gsave
28.651250 54.148352 translate
90.000000 rotate
/DejaVuSerif findfont
14.0 scalefont
setfont
0.000000 0.359375 moveto
/E glyphshow

10.219727 0.359375 moveto
/m glyphshow

23.495117 0.359375 moveto
/i glyphshow

27.972656 0.359375 moveto
/t glyphshow

33.598633 0.359375 moveto
/period glyphshow

38.048828 0.359375 moveto
/space glyphshow

42.499023 0.359375 moveto
/parenleft glyphshow

/DejaVuSans-Oblique findfont
14.0 scalefont
setfont
47.960938 0.359375 moveto
/uni03BC glyphshow

/DejaVuSerif findfont
14.0 scalefont
setfont
56.868164 0.359375 moveto
/m glyphshow

70.143555 0.359375 moveto
/parenright glyphshow


grestore
2.000 setlinewidth
2 setlinecap
1.000 0.000 0.000 setrgbcolor
gsave
518 95.44 42.87 44.43 clipbox
43.679391 87.196837 m
44.488781 114.348093 l
45.298172 118.036915 l
46.107563 91.695481 l
46.916953 80.474877 l
47.726344 80.714913 l
48.535734 81.255591 l
49.345125 81.723255 l
50.154516 81.676488 l
50.963906 81.469857 l
51.773297 81.213596 l
52.582688 80.933475 l
53.392078 80.636174 l
54.201469 80.324557 l
55.010859 79.997669 l
55.82025 79.657419 l
56.629641 79.303808 l
57.439031 78.936834 l
58.248422 78.556976 l
59.057813 78.164234 l
59.867203 77.759561 l
60.676594 77.343912 l
61.485984 76.916811 l
62.295375 76.480165 l
63.104766 76.033498 l
63.914156 75.578241 l
64.723547 75.114394 l
65.532938 74.643389 l
66.342328 74.165226 l
67.151719 73.681337 l
67.961109 73.192675 l
68.7705 72.701151 l
69.579891 72.206763 l
70.389281 71.711897 l
71.198672 71.218464 l
72.008063 70.726462 l
72.817453 70.238755 l
73.626844 69.75582 l
74.436234 69.280043 l
75.245625 68.811424 l
76.055016 68.352826 l
76.864406 67.906159 l
77.673797 67.474763 l
78.483188 67.059114 l
79.292578 66.662077 l
80.101969 66.285082 l
80.911359 65.930039 l
81.72075 65.600288 l
82.530141 65.297738 l
83.339531 65.023343 l
84.148922 64.779966 l
84.958313 64.568086 l
85.767703 64.390564 l
86.577094 64.250265 l
87.386484 82.551689 l
88.195875 64.486483 l
89.005266 65.360252 l
89.814656 77.370159 l
90.624047 63.1775 l
91.433437 87.981367 l
92.242828 64.613898 l
93.052219 84.201399 l
93.861609 64.064154 l
94.671 68.652036 l
95.480391 71.95766 l
96.289781 64.535636 l
97.099172 80.161829 l
97.908563 63.290598 l
98.717953 81.975221 l
99.527344 64.164367 l
100.336734 71.626477 l
101.146125 69.244729 l
101.955516 66.48026 l
102.764906 75.259943 l
103.574297 64.166753 l
104.383688 78.485395 l
105.193078 64.461668 l
106.002469 73.67227 l
106.811859 67.849849 l
107.62125 67.770632 l
108.430641 72.200559 l
109.240031 65.779718 l
110.049422 75.290961 l
110.858813 64.952716 l
111.668203 74.129436 l
112.477594 67.124969 l
113.286984 67.386479 l
114.096375 67.468559 l
114.905766 67.455674 l
115.715156 67.441835 l
116.524547 67.426565 l
117.333937 67.41034 l
118.143328 67.392683 l
118.952719 67.374072 l
119.762109 67.354029 l
120.5715 67.332555 l
121.380891 67.309649 l
122.190281 67.285311 l
122.999672 67.259542 l
123.809063 67.232341 l
124.618453 67.203231 l
125.427844 67.173167 l
126.237234 67.140717 l
127.046625 67.106835 l
127.856016 67.071522 l
128.293087 67.051479 l
stroke
grestore
0 setlinecap
[7.4 3.2] 0 setdash
0.000 0.000 1.000 setrgbcolor
gsave
518 95.44 42.87 44.43 clipbox
43.679391 87.201132 m
44.488781 114.343321 l
45.298172 118.032143 l
46.107563 91.674484 l
46.916953 80.442904 l
47.726344 80.678168 l
48.535734 81.220754 l
49.345125 81.691759 l
50.154516 81.645947 l
50.963906 81.439793 l
51.773297 81.183055 l
52.582688 80.902456 l
53.392078 80.604678 l
54.201469 80.291629 l
55.010859 79.963787 l
55.82025 79.622583 l
56.629641 79.268017 l
57.439031 78.900089 l
58.248422 78.5188 l
59.057813 78.125103 l
59.867203 77.719475 l
60.676594 77.302395 l
61.485984 76.874339 l
62.295375 76.436262 l
63.104766 75.98864 l
63.914156 75.531952 l
64.723547 75.06715 l
65.532938 74.594714 l
66.342328 74.115597 l
67.151719 73.630276 l
67.961109 73.14066 l
68.7705 72.647703 l
69.579891 72.152361 l
70.389281 71.656541 l
71.198672 71.161676 l
72.008063 70.668719 l
72.817453 70.179581 l
73.626844 69.695691 l
74.436234 69.218483 l
75.245625 68.749387 l
76.055016 68.289358 l
76.864406 67.841736 l
77.673797 67.409385 l
78.483188 66.992782 l
79.292578 66.59479 l
80.101969 66.216364 l
80.911359 65.860366 l
81.72075 65.529184 l
82.530141 65.225679 l
83.339531 64.950807 l
84.148922 64.706953 l
84.958313 64.49555 l
85.767703 64.318506 l
86.577094 64.179161 l
87.386484 82.517807 l
88.195875 64.420628 l
89.005266 65.299169 l
89.814656 77.333414 l
90.624047 63.114509 l
91.433437 87.955121 l
92.242828 64.56045 l
93.052219 84.173243 l
93.861609 64.011183 l
94.671 68.609087 l
95.480391 71.920437 l
96.289781 64.488392 l
97.099172 80.133196 l
97.908563 63.245741 l
98.717953 81.94802 l
99.527344 64.122373 l
100.336734 71.593072 l
101.146125 69.209416 l
101.955516 66.443515 l
102.764906 75.229879 l
103.574297 64.130008 l
104.383688 78.457717 l
105.193078 64.426832 l
106.002469 73.642683 l
106.811859 67.817399 l
107.62125 67.739136 l
108.430641 72.170495 l
109.240031 65.748222 l
110.049422 75.262329 l
110.858813 64.922174 l
111.668203 74.100803 l
112.477594 67.094428 l
113.286984 67.356415 l
114.096375 67.438495 l
114.905766 67.426088 l
115.715156 67.412248 l
116.524547 67.397455 l
117.333937 67.38123 l
118.143328 67.36405 l
118.952719 67.345439 l
119.762109 67.325397 l
120.5715 67.303922 l
121.380891 67.281016 l
122.190281 67.257156 l
122.999672 67.231386 l
123.809063 67.204186 l
124.618453 67.175553 l
125.427844 67.145012 l
126.237234 67.113039 l
127.046625 67.079634 l
127.856016 67.044321 l
128.293087 67.024278 l
stroke
grestore
2 setlinecap
[] 0 setdash
1.000 0.000 0.000 setrgbcolor
gsave
518 95.44 42.87 44.43 clipbox
128.293087 67.051479 m
135.788044 66.649669 l
136.759312 66.546115 l
137.083069 66.412974 l
137.406825 65.908087 l
137.730581 65.805965 l
138.054338 66.299875 l
138.70185 66.415837 l
142.263169 66.1486 l
153.918394 65.253834 l
154.24215 65.732474 l
154.565906 65.78449 l
154.889662 65.205159 l
155.537175 64.989461 l
159.746006 64.573335 l
171.077475 63.359794 l
174.638794 62.916467 l
175.286306 62.636346 l
175.933819 62.765669 l
178.847625 62.437827 l
188.236556 61.437121 l
193.740413 61.054399 l
198.596756 60.931757 l
203.776856 61.037697 l
209.604469 61.390354 l
220.288425 62.318525 l
234.5337 63.49198 l
237.12375 63.67332 l
237.12375 63.67332 l
stroke
grestore
0 setlinecap
[7.4 3.2] 0 setdash
0.000 0.000 1.000 setrgbcolor
gsave
518 95.44 42.87 44.43 clipbox
128.293087 67.024278 m
135.788044 66.621991 l
136.759312 66.599562 l
137.083069 66.691664 l
137.406825 67.193687 l
137.730581 67.275767 l
138.054338 66.669712 l
138.70185 66.453059 l
143.88195 66.036456 l
152.623369 65.1708 l
153.594638 64.992801 l
153.918394 64.76565 l
154.24215 63.947715 l
154.565906 63.837002 l
154.889662 64.597195 l
155.213419 64.77424 l
156.184687 64.730814 l
174.638794 62.588148 l
175.286306 62.751353 l
175.933819 62.447848 l
179.171381 62.082307 l
194.064169 60.582917 l
199.568025 60.246485 l
204.748125 60.152952 l
210.575738 60.286094 l
218.022131 60.697925 l
237.12375 62.068467 l
237.12375 62.068467 l
stroke
grestore
2 setlinecap
[] 0 setdash
1.000 0.000 0.000 setrgbcolor
gsave
518 95.44 42.87 44.43 clipbox
229.029844 63.072037 m
237.771262 63.868021 l
238.095019 64.375771 l
238.418775 66.391022 l
238.742531 65.655644 l
239.066287 64.190137 l
239.390044 63.940079 l
240.361312 63.906675 l
247.160194 64.240721 l
254.606587 64.398199 l
256.225369 64.334254 l
256.549125 64.130963 l
256.872881 63.528248 l
257.196638 63.7826 l
257.520394 64.224973 l
258.167906 64.353819 l
261.405469 64.304189 l
268.20435 64.007843 l
275.003231 63.672843 l
275.326987 64.349047 l
275.650744 64.02025 l
275.9745 63.494367 l
276.622012 63.347386 l
282.449625 62.831047 l
289.572262 62.360996 l
295.076119 62.217834 l
299.608706 62.316139 l
304.46505 62.647799 l
310.940175 63.338797 l
324.537937 64.832936 l
331.660575 65.331619 l
338.459456 65.601242 l
338.459456 65.601242 l
stroke
grestore
0 setlinecap
[7.4 3.2] 0 setdash
0.000 0.000 1.000 setrgbcolor
gsave
518 95.44 42.87 44.43 clipbox
229.029844 61.487227 m
237.447506 62.049379 l
237.771262 61.981138 l
238.095019 61.625618 l
238.418775 60.715104 l
238.742531 61.1193 l
239.066287 61.971594 l
239.390044 62.249807 l
240.361312 62.454529 l
247.807706 63.326866 l
254.930344 64.333299 l
255.577856 64.51273 l
255.901612 64.764218 l
256.225369 65.480986 l
256.549125 69.044779 l
256.872881 85.982341 l
257.196638 80.312626 l
257.520394 67.272904 l
257.84415 65.364547 l
258.167906 64.989938 l
258.815419 64.914062 l
264.319275 65.696684 l
270.470644 66.393886 l
274.355719 66.650624 l
274.679475 66.564249 l
275.003231 66.145737 l
275.326987 65.020957 l
275.650744 65.549226 l
275.9745 66.375274 l
276.298256 66.591927 l
277.269525 66.69405 l
284.068406 66.701208 l
289.896019 66.490282 l
296.047388 66.028821 l
303.817538 65.190366 l
314.501494 64.055564 l
322.5954 63.444737 l
338.459456 62.455006 l
338.459456 62.455006 l
stroke
grestore
2 setlinecap
[] 0 setdash
1.000 0.000 0.000 setrgbcolor
gsave
518 95.44 42.87 44.43 clipbox
338.459456 65.601242 m
348.285458 65.701456 l
358.321902 65.549226 l
358.969415 65.475736 l
359.293171 65.315394 l
359.940683 63.923377 l
360.26444 64.822915 l
360.588196 65.332574 l
361.235708 65.476214 l
364.473271 65.418948 l
391.361227 64.892587 l
391.684984 64.93315 l
392.00874 65.123556 l
392.332496 66.146691 l
392.656252 66.308465 l
392.980009 65.140259 l
393.303765 64.900223 l
394.275034 64.801441 l
414.347921 64.232131 l
414.995434 64.043156 l
415.31919 64.961783 l
415.642946 64.224973 l
415.966702 64.124759 l
416.614215 64.229268 l
433.141972 64.697886 l
440.912122 65.296306 l
449.006028 66.144305 l
455.481153 66.951742 l
455.481153 66.951742 l
stroke
grestore
0 setlinecap
[7.4 3.2] 0 setdash
0.000 0.000 1.000 setrgbcolor
gsave
518 95.44 42.87 44.43 clipbox
338.459456 62.455006 m
350.875508 61.615597 l
358.969415 61.082077 l
359.293171 61.198516 l
359.616927 61.924828 l
359.940683 63.20661 l
360.26444 61.592691 l
360.588196 60.996657 l
361.235708 60.79957 l
364.797027 60.478886 l
374.509715 59.754006 l
381.64854 59.444298 l
387.799909 59.408984 l
391.361227 59.417097 l
391.684984 59.312111 l
392.00874 59.843721 l
392.332496 74.922079 l
392.656252 79.648352 l
392.980009 60.879264 l
393.303765 59.474839 l
394.59879 59.670495 l
400.750159 60.097596 l
412.72914 61.14316 l
414.671677 61.314001 l
414.995434 61.494863 l
415.31919 63.254331 l
415.642946 62.067036 l
415.966702 61.446188 l
417.261728 61.530653 l
436.379534 63.331638 l
455.481153 65.082039 l
455.481153 65.082039 l
stroke
grestore
2 setlinecap
[] 0 setdash
1.000 0.000 0.000 setrgbcolor
gsave
518 95.44 42.87 44.43 clipbox
455.659219 66.974171 m
468.15621 68.736979 l
468.67422 68.876801 l
469.19223 69.708099 l
470.22825 69.085342 l
471.78228 69.257614 l
474.37233 69.578775 l
474.89034 69.485242 l
475.40835 68.487399 l
475.92636 69.263818 l
476.44437 69.284338 l
476.96238 70.186262 l
477.48039 70.444431 l
480.58845 71.25664 l
481.10646 71.510992 l
481.62447 72.40719 l
482.14248 83.81486 l
482.66049 78.988373 l
483.1785 72.156178 l
483.69651 71.757232 l
484.73253 71.945252 l
487.84059 72.856721 l
488.3586 73.981024 l
488.562451 289 l
544.181303 289 m
544.30368 103.854277 l
544.82169 102.833051 l
545.3397 103.510687 l
545.501578 129.246543 l
551.55582 128.979306 l
560.88 128.454377 l
560.88 128.454377 l
stroke
grestore
0 setlinecap
[7.4 3.2] 0 setdash
0.000 0.000 1.000 setrgbcolor
gsave
518 95.44 42.87 44.43 clipbox
455.659219 65.096356 m
468.67422 66.062703 l
469.71024 66.123785 l
474.89034 66.513665 l
475.40835 67.27863 l
475.92636 77.066177 l
476.44437 67.168872 l
476.96238 66.79999 l
479.03442 66.942198 l
481.62447 67.100631 l
482.14248 67.012825 l
484.73253 67.165532 l
488.87661 67.223274 l
489.39462 66.62724 l
489.91263 66.326599 l
492.50268 65.897589 l
494.05671 65.285807 l
495.61074 65.040045 l
497.16477 64.849162 l
499.75482 64.468349 l
500.79084 64.565222 l
501.82686 64.702181 l
503.38089 64.430172 l
504.41691 64.563314 l
505.45293 65.013798 l
505.97094 65.020002 l
507.00696 64.802872 l
508.04298 64.85107 l
508.56099 65.034318 l
509.59701 65.604583 l
511.15104 65.369796 l
512.18706 65.433742 l
513.74109 66.125694 l
514.77711 65.901884 l
516.363516 65.975374 l
517.36716 66.486941 l
517.88517 66.502212 l
518.40318 66.339961 l
520.47522 66.400089 l
521.51124 66.793786 l
522.54726 66.583815 l
523.58328 66.807625 l
524.6193 66.700253 l
525.65532 66.933608 l
526.17333 66.806194 l
526.69134 66.82051 l
527.20935 67.05816 l
527.72736 67.141671 l
528.76338 66.93504 l
529.7994 67.043844 l
530.31741 66.933131 l
530.83542 67.109698 l
531.35343 67.430382 l
531.87144 67.453766 l
532.90746 67.164577 l
533.94348 67.186052 l
534.46149 67.173644 l
535.49751 67.815967 l
536.01552 67.767769 l
537.05154 67.407954 l
538.60557 67.475717 l
539.64159 68.159557 l
540.1596 68.048845 l
540.67761 67.803559 l
541.19562 67.702391 l
542.74965 67.816444 l
543.26766 68.044073 l
543.78567 67.497669 l
545.3397 67.417021 l
545.501578 67.127832 l
559.84398 66.542297 l
560.88 66.498394 l
560.88 66.498394 l
stroke
grestore
0.800 setlinewidth
0 setlinejoin
2 setlinecap
[] 0 setdash
0.000 setgray
gsave
42.87 44.4275 m
42.87 139.869205 l
stroke
grestore
gsave
560.88 44.4275 m
560.88 139.869205 l
stroke
grestore
gsave
42.87 44.4275 m
560.88 44.4275 l
stroke
grestore
gsave
42.87 139.869205 m
560.88 139.869205 l
stroke
grestore
2.000 setlinewidth
1 setlinejoin
[] 0 setdash
1.000 0.000 0.000 setrgbcolor
gsave
53.67 124.144205 m
78.87 124.144205 l
stroke
grestore
0.000 setgray
gsave
83.670000 119.944205 translate
0.000000 rotate
/DejaVuSans-Oblique findfont
12.0 scalefont
setfont
0.000000 0.437500 moveto
/x glyphshow


grestore
0 setlinecap
[7.4 3.2] 0 setdash
0.000 0.000 1.000 setrgbcolor
gsave
53.67 111.919205 m
78.87 111.919205 l
stroke
grestore
0.000 setgray
gsave
83.670000 107.719205 translate
0.000000 rotate
/DejaVuSans-Oblique findfont
12.0 scalefont
setfont
0.000000 0.437500 moveto
/y glyphshow


grestore

end
showpage
