%!PS-Adobe-3.0 EPSF-3.0
%%Title: beam-energy-spread.eps
%%Creator: matplotlib version 2.2.2, http://matplotlib.org/
%%CreationDate: Sun Nov 25 23:18:56 2018
%%Orientation: portrait
%%BoundingBox: 18 288 594 504
%%EndComments
%%BeginProlog
/mpldict 10 dict def
mpldict begin
/m { moveto } bind def
/l { lineto } bind def
/r { rlineto } bind def
/c { curveto } bind def
/cl { closepath } bind def
/box {
m
1 index 0 r
0 exch r
neg 0 r
cl
} bind def
/clipbox {
box
clip
newpath
} bind def
%!PS-Adobe-3.0 Resource-Font
%%Title: DejaVu Serif
%%Copyright: Copyright (c) 2003 by Bitstream, Inc. All Rights Reserved. DejaVu changes are in public domain 
%%Creator: Converted from TrueType to type 3 by PPR
25 dict begin
/_d{bind def}bind def
/_m{moveto}_d
/_l{lineto}_d
/_cl{closepath eofill}_d
/_c{curveto}_d
/_sc{7 -1 roll{setcachedevice}{pop pop pop pop pop pop}ifelse}_d
/_e{exec}_d
/FontName /DejaVuSerif def
/PaintType 0 def
/FontMatrix[.001 0 0 .001 0 0]def
/FontBBox[-770 -347 2105 1109]def
/FontType 3 def
/Encoding [ /space /percent /parenleft /parenright /comma /period /slash /zero /one /two /three /five /seven /V /a /d /e /k /m /o /q /s /u /w /minus ] def
/FontInfo 10 dict dup begin
/FamilyName (DejaVu Serif) def
/FullName (DejaVu Serif) def
/Notice (Copyright (c) 2003 by Bitstream, Inc. All Rights Reserved. DejaVu changes are in public domain ) def
/Weight (Book) def
/Version (Version 2.35) def
/ItalicAngle 0.0 def
/isFixedPitch false def
/UnderlinePosition -130 def
/UnderlineThickness 90 def
end readonly def
/CharStrings 26 dict dup begin
/.notdef 0 def
/space{318 0 0 0 0 0 _sc
}_d
/percent{{950 0 55 -13 895 742 _sc
224 697 _m
195 697 173 683 157 656 _c
141 629 133 591 133 543 _c
133 495 141 457 157 430 _c
173 402 196 389 224 389 _c
252 389 274 402 290 430 _c
306 457 314 495 314 543 _c
314 591 306 628 290 656 _c
274 683 252 697 224 697 _c
727 339 _m
699 339 676 325 660 298 _c
644 270 636 232 636 184 _c
636 136 644 98 660 71 _c
676 44 699 31 727 31 _c
}_e{755 31 777 44 793 71 _c
809 98 817 136 817 184 _c
817 232 809 269 793 297 _c
777 325 755 339 727 339 _c
727 383 _m
778 383 819 365 849 329 _c
879 293 895 244 895 184 _c
895 123 879 75 849 40 _c
819 4 778 -13 727 -13 _c
675 -13 633 4 603 40 _c
573 75 558 123 558 184 _c
558 245 573 293 603 329 _c
633 365 675 383 727 383 _c
666 742 _m
740 742 _l
284 -13 _l
}_e{210 -13 _l
666 742 _l
223 742 _m
274 742 315 724 346 688 _c
376 652 392 604 392 544 _c
392 482 376 434 346 398 _c
316 362 275 345 223 345 _c
171 345 130 362 100 398 _c
70 434 55 482 55 544 _c
55 604 70 652 100 688 _c
130 724 171 742 223 742 _c
_cl}_e}_d
/parenleft{390 0 79 -155 319 760 _sc
319 -155 _m
239 -119 179 -63 139 13 _c
99 89 79 186 79 302 _c
79 418 99 514 139 591 _c
179 668 239 724 319 760 _c
319 712 _l
269 677 233 628 211 566 _c
189 503 178 415 178 302 _c
178 188 189 100 211 38 _c
233 -24 269 -72 319 -107 _c
319 -155 _l
_cl}_d
/parenright{390 0 71 -155 311 760 _sc
71 -155 _m
71 -107 _l
121 -72 157 -24 179 38 _c
201 100 212 188 212 302 _c
212 415 201 503 179 566 _c
157 628 121 677 71 712 _c
71 760 _l
150 724 210 668 250 591 _c
290 514 311 418 311 302 _c
311 186 290 89 250 13 _c
210 -63 150 -119 71 -155 _c
_cl}_d
/comma{318 0 36 -135 221 111 _sc
36 -96 _m
66 -73 89 -47 103 -17 _c
117 13 125 49 125 93 _c
125 111 _l
221 111 _l
218 55 205 7 181 -32 _c
157 -71 122 -105 75 -135 _c
36 -96 _l
_cl}_d
/period{318 0 94 -13 224 116 _sc
94 51 _m
94 69 100 84 112 97 _c
124 109 140 116 159 116 _c
177 116 192 109 205 97 _c
217 84 224 69 224 51 _c
224 33 217 17 205 5 _c
192 -7 177 -13 159 -13 _c
140 -13 124 -7 112 5 _c
100 17 94 32 94 51 _c
_cl}_d
/slash{337 0 0 -92 337 729 _sc
259 729 _m
337 729 _l
78 -92 _l
0 -92 _l
259 729 _l
_cl}_d
/zero{636 0 66 -13 570 742 _sc
318 34 _m
368 34 405 61 430 116 _c
454 170 467 253 467 364 _c
467 474 454 557 430 612 _c
405 666 368 694 318 694 _c
268 694 230 666 206 612 _c
181 557 169 474 169 364 _c
169 253 181 170 206 116 _c
230 61 268 34 318 34 _c
318 -13 _m
238 -13 176 20 132 86 _c
88 152 66 244 66 364 _c
66 483 88 576 132 642 _c
176 708 238 742 318 742 _c
397 742 459 708 503 642 _c
547 576 570 483 570 364 _c
570 244 547 152 503 86 _c
459 20 397 -13 318 -13 _c
_cl}_d
/one{636 0 122 0 494 742 _sc
142 0 _m
142 52 _l
269 52 _l
269 658 _l
122 563 _l
122 627 _l
300 742 _l
367 742 _l
367 52 _l
494 52 _l
494 0 _l
142 0 _l
_cl}_d
/two{{636 0 68 0 538 742 _sc
128 555 _m
73 555 _l
73 685 _l
107 703 142 717 178 727 _c
213 737 248 742 282 742 _c
358 742 418 723 462 687 _c
506 650 528 600 528 537 _c
528 465 478 380 378 281 _c
370 273 365 268 361 264 _c
177 80 _l
481 80 _l
481 170 _l
538 170 _l
538 0 _l
68 0 _l
68 53 _l
289 274 _l
337 322 372 367 393 408 _c
414 449 425 492 425 537 _c
}_e{425 586 412 624 386 652 _c
360 680 325 694 281 694 _c
234 694 198 682 173 659 _c
147 636 132 601 128 555 _c
_cl}_e}_d
/three{{636 0 76 -13 562 742 _sc
97 698 _m
135 712 171 723 206 731 _c
241 738 274 742 305 742 _c
376 742 432 726 472 696 _c
512 665 532 622 532 568 _c
532 524 518 487 490 458 _c
462 428 423 408 373 398 _c
433 389 479 367 512 332 _c
545 297 562 252 562 197 _c
562 129 539 77 493 41 _c
447 5 382 -13 296 -13 _c
258 -13 220 -9 184 -1 _c
148 6 112 18 76 35 _c
76 177 _l
}_e{131 177 _l
134 129 150 94 178 70 _c
206 46 246 34 298 34 _c
348 34 387 48 416 77 _c
444 106 459 146 459 196 _c
459 253 444 296 414 326 _c
384 355 341 370 284 370 _c
238 370 _l
238 420 _l
262 420 _l
319 420 362 431 390 455 _c
418 479 433 514 433 562 _c
433 604 421 637 398 660 _c
374 682 341 694 297 694 _c
253 694 218 683 194 662 _c
170 641 156 610 152 570 _c
}_e{97 570 _l
97 698 _l
_cl}_e}_d
/five{{636 0 85 -13 559 729 _sc
503 729 _m
503 649 _l
169 649 _l
169 440 _l
185 452 205 460 228 466 _c
250 472 276 475 304 475 _c
382 475 444 453 490 409 _c
536 365 559 306 559 231 _c
559 153 536 93 490 51 _c
444 8 379 -13 296 -13 _c
262 -13 228 -9 193 -1 _c
157 6 121 18 85 35 _c
85 177 _l
140 177 _l
143 130 158 94 184 70 _c
210 46 248 34 296 34 _c
}_e{347 34 386 51 414 85 _c
442 119 456 167 456 231 _c
456 294 442 342 415 376 _c
387 410 348 427 296 427 _c
266 427 240 421 218 411 _c
196 401 176 385 159 363 _c
117 363 _l
117 729 _l
503 729 _l
_cl}_e}_d
/seven{636 0 84 0 564 729 _sc
564 679 _m
279 0 _l
206 0 _l
478 649 _l
141 649 _l
141 559 _l
84 559 _l
84 729 _l
564 729 _l
564 679 _l
_cl}_d
/V{722 0 -9 0 737 729 _sc
175 677 _m
390 117 _l
605 677 _l
523 677 _l
523 729 _l
737 729 _l
737 677 _l
666 677 _l
406 0 _l
322 0 _l
63 677 _l
-9 677 _l
-9 729 _l
256 729 _l
256 677 _l
175 677 _l
_cl}_d
/a{{596 0 50 -13 568 533 _sc
398 163 _m
398 273 _l
282 273 _l
237 273 204 263 182 244 _c
160 224 150 195 150 156 _c
150 120 161 91 183 70 _c
205 48 235 38 273 38 _c
310 38 340 49 363 72 _c
386 95 398 125 398 163 _c
488 324 _m
488 52 _l
568 52 _l
568 0 _l
398 0 _l
398 56 _l
378 32 355 14 329 3 _c
303 -7 272 -13 238 -13 _c
180 -13 134 2 100 32 _c
}_e{66 62 50 104 50 156 _c
50 209 69 250 108 280 _c
146 310 201 325 272 325 _c
398 325 _l
398 361 _l
398 400 386 430 362 452 _c
338 474 304 485 261 485 _c
225 485 197 476 176 460 _c
154 444 141 420 136 388 _c
90 388 _l
90 493 _l
121 506 151 516 181 523 _c
210 529 239 533 267 533 _c
339 533 393 515 431 479 _c
469 443 488 392 488 324 _c
_cl}_e}_d
/d{{640 0 50 -13 611 760 _sc
525 52 _m
611 52 _l
611 0 _l
435 0 _l
435 81 _l
417 48 395 24 368 9 _c
340 -5 307 -13 267 -13 _c
203 -13 150 12 110 62 _c
70 112 50 178 50 260 _c
50 341 70 407 110 457 _c
150 507 203 533 267 533 _c
307 533 340 525 368 510 _c
395 494 417 470 435 438 _c
435 708 _l
350 708 _l
350 760 _l
525 760 _l
525 52 _l
435 234 _m
435 285 _l
}_e{435 347 423 394 399 427 _c
375 460 340 477 295 477 _c
249 477 214 458 190 422 _c
166 386 155 332 155 260 _c
155 188 166 133 190 97 _c
214 60 249 42 295 42 _c
340 42 375 58 399 91 _c
423 123 435 171 435 234 _c
_cl}_e}_d
/e{{592 0 50 -13 542 533 _sc
542 250 _m
155 250 _l
155 246 _l
155 176 168 123 194 87 _c
220 51 259 34 311 34 _c
350 34 382 44 408 65 _c
433 85 451 116 461 157 _c
533 157 _l
519 100 492 57 454 29 _c
415 1 364 -13 302 -13 _c
226 -13 165 11 119 61 _c
73 111 50 177 50 260 _c
50 342 72 408 118 458 _c
163 508 222 533 296 533 _c
374 533 435 508 477 460 _c
}_e{519 412 540 342 542 250 _c
436 302 _m
434 362 421 408 397 439 _c
373 469 340 485 296 485 _c
254 485 222 469 198 438 _c
174 407 160 362 155 302 _c
436 302 _l
_cl}_e}_d
/k{{606 0 29 0 613 760 _sc
286 0 _m
34 0 _l
34 52 _l
115 52 _l
115 708 _l
29 708 _l
29 760 _l
205 760 _l
205 265 _l
424 467 _l
349 467 _l
349 519 _l
584 519 _l
584 467 _l
495 467 _l
341 324 _l
538 52 _l
613 52 _l
613 0 _l
357 0 _l
357 52 _l
431 52 _l
276 265 _l
205 199 _l
205 52 _l
286 52 _l
286 0 _l
_cl}_e}_d
/m{{948 0 36 0 921 533 _sc
518 418 _m
535 456 557 484 584 504 _c
611 523 642 533 678 533 _c
732 533 773 516 800 482 _c
826 448 840 398 840 330 _c
840 52 _l
921 52 _l
921 0 _l
672 0 _l
672 52 _l
750 52 _l
750 320 _l
750 372 742 410 726 433 _c
710 455 685 467 649 467 _c
609 467 578 451 557 421 _c
536 391 526 347 526 289 _c
526 52 _l
604 52 _l
604 0 _l
358 0 _l
}_e{358 52 _l
436 52 _l
436 323 _l
436 375 428 412 412 434 _c
396 456 371 467 335 467 _c
295 467 264 451 243 421 _c
222 391 212 347 212 289 _c
212 52 _l
290 52 _l
290 0 _l
41 0 _l
41 52 _l
122 52 _l
122 468 _l
36 468 _l
36 519 _l
212 519 _l
212 427 _l
228 461 249 488 275 506 _c
301 524 330 533 363 533 _c
403 533 436 523 463 503 _c
}_e{490 483 508 454 518 418 _c
_cl}_e}_d
/o{602 0 50 -13 552 533 _sc
301 34 _m
349 34 385 53 410 91 _c
434 129 447 185 447 260 _c
447 334 434 390 410 428 _c
385 466 349 485 301 485 _c
253 485 216 466 192 428 _c
167 390 155 334 155 260 _c
155 185 167 129 192 91 _c
216 53 253 34 301 34 _c
301 -13 _m
225 -13 165 11 119 61 _c
73 111 50 177 50 260 _c
50 342 72 408 118 458 _c
164 508 225 533 301 533 _c
377 533 437 508 483 458 _c
529 408 552 342 552 260 _c
552 177 529 111 483 61 _c
437 11 377 -13 301 -13 _c
_cl}_d
/q{{640 0 50 -207 611 533 _sc
525 467 _m
525 -155 _l
611 -155 _l
611 -207 _l
350 -207 _l
350 -155 _l
435 -155 _l
435 81 _l
417 48 395 24 368 9 _c
340 -5 307 -13 267 -13 _c
203 -13 150 12 110 62 _c
70 112 50 178 50 260 _c
50 341 70 407 110 457 _c
150 507 203 533 267 533 _c
307 533 340 525 368 510 _c
395 494 417 470 435 438 _c
435 519 _l
611 519 _l
611 467 _l
525 467 _l
}_e{435 285 _m
435 347 423 394 399 427 _c
375 460 340 477 295 477 _c
249 477 214 458 190 422 _c
166 386 155 332 155 260 _c
155 188 166 133 190 97 _c
214 60 249 42 295 42 _c
340 42 375 58 399 91 _c
423 123 435 171 435 234 _c
435 285 _l
_cl}_e}_d
/s{{513 0 56 -13 462 533 _sc
56 29 _m
56 150 _l
108 150 _l
109 111 121 82 144 63 _c
167 43 201 34 246 34 _c
286 34 317 41 338 57 _c
359 72 370 94 370 123 _c
370 145 362 164 347 178 _c
331 192 299 207 249 223 _c
184 245 _l
139 259 107 277 87 299 _c
67 320 57 347 57 381 _c
57 428 74 465 109 492 _c
144 519 192 533 254 533 _c
281 533 310 529 340 522 _c
}_e{370 515 402 505 434 491 _c
434 378 _l
382 378 _l
380 411 369 437 347 456 _c
325 475 295 485 257 485 _c
219 485 190 478 171 465 _c
151 451 142 431 142 405 _c
142 383 149 365 164 352 _c
178 339 208 326 252 312 _c
323 290 _l
372 274 407 255 429 232 _c
451 209 462 180 462 144 _c
462 94 443 56 405 28 _c
367 0 316 -13 250 -13 _c
216 -13 184 -9 152 -3 _c
}_e{120 3 88 14 56 29 _c
_cl}_e}_d
/u{{644 0 27 -13 607 519 _sc
354 519 _m
522 519 _l
522 52 _l
607 52 _l
607 0 _l
432 0 _l
432 92 _l
415 57 393 31 367 13 _c
341 -4 310 -13 276 -13 _c
218 -13 175 3 148 35 _c
121 67 108 119 108 189 _c
108 467 _l
27 467 _l
27 519 _l
198 519 _l
198 217 _l
198 153 205 110 221 87 _c
237 63 264 52 304 52 _c
346 52 377 67 399 98 _c
421 128 432 173 432 231 _c
}_e{432 467 _l
354 467 _l
354 519 _l
_cl}_e}_d
/w{856 0 16 0 843 519 _sc
480 519 _m
613 114 _l
730 467 _l
655 467 _l
655 519 _l
843 519 _l
843 467 _l
785 467 _l
631 0 _l
556 0 _l
428 388 _l
300 0 _l
228 0 _l
74 467 _l
16 467 _l
16 519 _l
251 519 _l
251 467 _l
167 467 _l
283 114 _l
417 519 _l
480 519 _l
_cl}_d
/minus{838 0 106 274 732 353 _sc
106 353 _m
732 353 _l
732 274 _l
106 274 _l
106 353 _l
_cl}_d
end readonly def

/BuildGlyph
 {exch begin
 CharStrings exch
 2 copy known not{pop /.notdef}if
 true 3 1 roll get exec
 end}_d

/BuildChar {
 1 index /Encoding get exch get
 1 index /BuildGlyph get exec
}_d

FontName currentdict end definefont pop
%!PS-Adobe-3.0 Resource-Font
%%Title: DejaVu Sans Oblique
%%Copyright: Copyright (c) 2003 by Bitstream, Inc. All Rights Reserved. Copyright (c) 2006 by Tavmjong Bah. All Rights Reserved. DejaVu changes are in public domain 
%%Creator: Converted from TrueType to type 3 by PPR
25 dict begin
/_d{bind def}bind def
/_m{moveto}_d
/_l{lineto}_d
/_cl{closepath eofill}_d
/_c{curveto}_d
/_sc{7 -1 roll{setcachedevice}{pop pop pop pop pop pop}ifelse}_d
/_e{exec}_d
/FontName /DejaVuSans-Oblique def
/PaintType 0 def
/FontMatrix[.001 0 0 .001 0 0]def
/FontBBox[-1016 -350 1659 1068]def
/FontType 3 def
/Encoding [ /E /z /sigma ] def
/FontInfo 10 dict dup begin
/FamilyName (DejaVu Sans) def
/FullName (DejaVu Sans Oblique) def
/Notice (Copyright (c) 2003 by Bitstream, Inc. All Rights Reserved. Copyright (c) 2006 by Tavmjong Bah. All Rights Reserved. DejaVu changes are in public domain ) def
/Weight (Oblique) def
/Version (Version 2.35) def
/ItalicAngle -11.0 def
/isFixedPitch false def
/UnderlinePosition -130 def
/UnderlineThickness 90 def
end readonly def
/CharStrings 4 dict dup begin
/.notdef 0 def
/E{632 0 27 0 630 729 _sc
169 729 _m
630 729 _l
614 646 _l
251 646 _l
209 430 _l
557 430 _l
541 347 _l
193 347 _l
142 83 _l
513 83 _l
497 0 _l
27 0 _l
169 729 _l
_cl}_d
/z{525 0 -2 0 543 547 _sc
116 547 _m
543 547 _l
527 465 _l
115 72 _l
455 72 _l
441 0 _l
-2 0 _l
13 82 _l
425 475 _l
102 475 _l
116 547 _l
_cl}_d
/sigma{{634 0 57 -13 659 547 _sc
347 476 _m
297 476 255 458 222 422 _c
186 384 163 335 151 273 _c
138 207 142 156 163 118 _c
183 80 218 62 267 62 _c
314 62 355 81 391 119 _c
426 156 450 207 463 273 _c
474 332 470 382 450 422 _c
431 458 397 476 347 476 _c
361 547 _m
659 547 _l
642 457 _l
541 457 _l
566 406 572 345 559 273 _c
541 183 505 113 451 63 _c
396 12 329 -13 251 -13 _c
}_e{173 -13 116 12 82 63 _c
47 113 39 183 57 273 _c
74 363 110 433 164 484 _c
209 526 275 547 361 547 _c
_cl}_e}_d
end readonly def

/BuildGlyph
 {exch begin
 CharStrings exch
 2 copy known not{pop /.notdef}if
 true 3 1 roll get exec
 end}_d

/BuildChar {
 1 index /Encoding get exch get
 1 index /BuildGlyph get exec
}_d

FontName currentdict end definefont pop
%!PS-Adobe-3.0 Resource-Font
%%Title: DejaVu Sans
%%Copyright: Copyright (c) 2003 by Bitstream, Inc. All Rights Reserved. Copyright (c) 2006 by Tavmjong Bah. All Rights Reserved. DejaVu changes are in public domain 
%%Creator: Converted from TrueType to type 3 by PPR
25 dict begin
/_d{bind def}bind def
/_m{moveto}_d
/_l{lineto}_d
/_cl{closepath eofill}_d
/_c{curveto}_d
/_sc{7 -1 roll{setcachedevice}{pop pop pop pop pop pop}ifelse}_d
/_e{exec}_d
/FontName /DejaVuSans def
/PaintType 0 def
/FontMatrix[.001 0 0 .001 0 0]def
/FontBBox[-1021 -463 1793 1232]def
/FontType 3 def
/Encoding [ /slash /k /uni0394 /dotmath /uni27E8 /uni27E9 ] def
/FontInfo 10 dict dup begin
/FamilyName (DejaVu Sans) def
/FullName (DejaVu Sans) def
/Notice (Copyright (c) 2003 by Bitstream, Inc. All Rights Reserved. Copyright (c) 2006 by Tavmjong Bah. All Rights Reserved. DejaVu changes are in public domain ) def
/Weight (Book) def
/Version (Version 2.35) def
/ItalicAngle 0.0 def
/isFixedPitch false def
/UnderlinePosition -130 def
/UnderlineThickness 90 def
end readonly def
/CharStrings 7 dict dup begin
/.notdef 0 def
/slash{337 0 0 -92 337 729 _sc
254 729 _m
337 729 _l
83 -92 _l
0 -92 _l
254 729 _l
_cl}_d
/k{579 0 91 0 576 760 _sc
91 760 _m
181 760 _l
181 311 _l
449 547 _l
564 547 _l
274 291 _l
576 0 _l
459 0 _l
181 267 _l
181 0 _l
91 0 _l
91 760 _l
_cl}_d
/uni0394{684 0 8 0 676 729 _sc
342 632 _m
142 82 _l
542 82 _l
342 632 _l
8 0 _m
286 729 _l
398 729 _l
676 0 _l
8 0 _l
_cl}_d
/dotmath{318 0 107 285 210 409 _sc
107 409 _m
210 409 _l
210 285 _l
107 285 _l
107 409 _l
_cl}_d
/uni27E8{390 0 89 -131 310 759 _sc
89 313 _m
227 759 _l
310 759 _l
172 313 _l
310 -131 _l
227 -131 _l
89 313 _l
_cl}_d
/uni27E9{390 0 80 -131 301 759 _sc
301 313 _m
163 -131 _l
80 -131 _l
218 313 _l
80 759 _l
163 759 _l
301 313 _l
_cl}_d
end readonly def

/BuildGlyph
 {exch begin
 CharStrings exch
 2 copy known not{pop /.notdef}if
 true 3 1 roll get exec
 end}_d

/BuildChar {
 1 index /Encoding get exch get
 1 index /BuildGlyph get exec
}_d

FontName currentdict end definefont pop
end
%%EndProlog
mpldict begin
18 288 translate
576 216 0 0 clipbox
gsave
0 0 m
576 0 l
576 216 l
0 216 l
cl
1.000 setgray
fill
grestore
gsave
86.4 32.4 m
518.4 32.4 l
518.4 194.4 l
86.4 194.4 l
cl
1.000 setgray
fill
grestore
0.800 setlinewidth
1 setlinejoin
2 setlinecap
[] 0 setdash
0.690 setgray
gsave
432 162 86.4 32.4 clipbox
103.566381 32.4 m
103.566381 194.4 l
stroke
grestore
1.000 setlinewidth
0 setlinecap
0.000 setgray
gsave
/o {
gsave
newpath
translate
1.0 setlinewidth
1 setlinejoin
0 setlinecap
0 0 m
0 5 l

gsave
0.000 setgray
fill
grestore
stroke
grestore
} bind def
103.566 32.4 o
grestore
gsave
/o {
gsave
newpath
translate
1.0 setlinewidth
1 setlinejoin
0 setlinecap
0 0 m
0 -5 l

gsave
0.000 setgray
fill
grestore
stroke
grestore
} bind def
103.566 194.4 o
grestore
/DejaVuSerif findfont
10.000 scalefont
setfont
gsave
100.386693 21.306250 translate
0.000000 rotate
0.000000 0.000000 m /zero glyphshow
grestore
0.800 setlinewidth
2 setlinecap
0.690 setgray
gsave
432 162 86.4 32.4 clipbox
165.315952 32.4 m
165.315952 194.4 l
stroke
grestore
1.000 setlinewidth
0 setlinecap
0.000 setgray
gsave
/o {
gsave
newpath
translate
1.0 setlinewidth
1 setlinejoin
0 setlinecap
0 0 m
0 5 l

gsave
0.000 setgray
fill
grestore
stroke
grestore
} bind def
165.316 32.4 o
grestore
gsave
/o {
gsave
newpath
translate
1.0 setlinewidth
1 setlinejoin
0 setlinecap
0 0 m
0 -5 l

gsave
0.000 setgray
fill
grestore
stroke
grestore
} bind def
165.316 194.4 o
grestore
gsave
162.136264 21.306250 translate
0.000000 rotate
0.000000 0.000000 m /five glyphshow
grestore
0.800 setlinewidth
2 setlinecap
0.690 setgray
gsave
432 162 86.4 32.4 clipbox
227.065523 32.4 m
227.065523 194.4 l
stroke
grestore
1.000 setlinewidth
0 setlinecap
0.000 setgray
gsave
/o {
gsave
newpath
translate
1.0 setlinewidth
1 setlinejoin
0 setlinecap
0 0 m
0 5 l

gsave
0.000 setgray
fill
grestore
stroke
grestore
} bind def
227.066 32.4 o
grestore
gsave
/o {
gsave
newpath
translate
1.0 setlinewidth
1 setlinejoin
0 setlinecap
0 0 m
0 -5 l

gsave
0.000 setgray
fill
grestore
stroke
grestore
} bind def
227.066 194.4 o
grestore
gsave
220.706148 21.306250 translate
0.000000 rotate
0.000000 0.000000 m /one glyphshow
6.362305 0.000000 m /zero glyphshow
grestore
0.800 setlinewidth
2 setlinecap
0.690 setgray
gsave
432 162 86.4 32.4 clipbox
288.815094 32.4 m
288.815094 194.4 l
stroke
grestore
1.000 setlinewidth
0 setlinecap
0.000 setgray
gsave
/o {
gsave
newpath
translate
1.0 setlinewidth
1 setlinejoin
0 setlinecap
0 0 m
0 5 l

gsave
0.000 setgray
fill
grestore
stroke
grestore
} bind def
288.815 32.4 o
grestore
gsave
/o {
gsave
newpath
translate
1.0 setlinewidth
1 setlinejoin
0 setlinecap
0 0 m
0 -5 l

gsave
0.000 setgray
fill
grestore
stroke
grestore
} bind def
288.815 194.4 o
grestore
gsave
282.455719 21.306250 translate
0.000000 rotate
0.000000 0.000000 m /one glyphshow
6.362305 0.000000 m /five glyphshow
grestore
0.800 setlinewidth
2 setlinecap
0.690 setgray
gsave
432 162 86.4 32.4 clipbox
350.564666 32.4 m
350.564666 194.4 l
stroke
grestore
1.000 setlinewidth
0 setlinecap
0.000 setgray
gsave
/o {
gsave
newpath
translate
1.0 setlinewidth
1 setlinejoin
0 setlinecap
0 0 m
0 5 l

gsave
0.000 setgray
fill
grestore
stroke
grestore
} bind def
350.565 32.4 o
grestore
gsave
/o {
gsave
newpath
translate
1.0 setlinewidth
1 setlinejoin
0 setlinecap
0 0 m
0 -5 l

gsave
0.000 setgray
fill
grestore
stroke
grestore
} bind def
350.565 194.4 o
grestore
gsave
344.205291 21.306250 translate
0.000000 rotate
0.000000 0.000000 m /two glyphshow
6.362305 0.000000 m /zero glyphshow
grestore
0.800 setlinewidth
2 setlinecap
0.690 setgray
gsave
432 162 86.4 32.4 clipbox
412.314237 32.4 m
412.314237 194.4 l
stroke
grestore
1.000 setlinewidth
0 setlinecap
0.000 setgray
gsave
/o {
gsave
newpath
translate
1.0 setlinewidth
1 setlinejoin
0 setlinecap
0 0 m
0 5 l

gsave
0.000 setgray
fill
grestore
stroke
grestore
} bind def
412.314 32.4 o
grestore
gsave
/o {
gsave
newpath
translate
1.0 setlinewidth
1 setlinejoin
0 setlinecap
0 0 m
0 -5 l

gsave
0.000 setgray
fill
grestore
stroke
grestore
} bind def
412.314 194.4 o
grestore
gsave
405.954862 21.306250 translate
0.000000 rotate
0.000000 0.000000 m /two glyphshow
6.362305 0.000000 m /five glyphshow
grestore
0.800 setlinewidth
2 setlinecap
0.690 setgray
gsave
432 162 86.4 32.4 clipbox
474.063808 32.4 m
474.063808 194.4 l
stroke
grestore
1.000 setlinewidth
0 setlinecap
0.000 setgray
gsave
/o {
gsave
newpath
translate
1.0 setlinewidth
1 setlinejoin
0 setlinecap
0 0 m
0 5 l

gsave
0.000 setgray
fill
grestore
stroke
grestore
} bind def
474.064 32.4 o
grestore
gsave
/o {
gsave
newpath
translate
1.0 setlinewidth
1 setlinejoin
0 setlinecap
0 0 m
0 -5 l

gsave
0.000 setgray
fill
grestore
stroke
grestore
} bind def
474.064 194.4 o
grestore
gsave
467.704433 21.306250 translate
0.000000 rotate
0.000000 0.000000 m /three glyphshow
6.362305 0.000000 m /zero glyphshow
grestore
0.700 setlinewidth
gsave
/o {
gsave
newpath
translate
0.7 setlinewidth
1 setlinejoin
0 setlinecap
0 0 m
0 3 l

gsave
0.000 setgray
fill
grestore
stroke
grestore
} bind def
91.2165 32.4 o
grestore
gsave
/o {
gsave
newpath
translate
0.7 setlinewidth
1 setlinejoin
0 setlinecap
0 0 m
0 -3 l

gsave
0.000 setgray
fill
grestore
stroke
grestore
} bind def
91.2165 194.4 o
grestore
gsave
/o {
gsave
newpath
translate
0.7 setlinewidth
1 setlinejoin
0 setlinecap
0 0 m
0 3 l

gsave
0.000 setgray
fill
grestore
stroke
grestore
} bind def
115.916 32.4 o
grestore
gsave
/o {
gsave
newpath
translate
0.7 setlinewidth
1 setlinejoin
0 setlinecap
0 0 m
0 -3 l

gsave
0.000 setgray
fill
grestore
stroke
grestore
} bind def
115.916 194.4 o
grestore
gsave
/o {
gsave
newpath
translate
0.7 setlinewidth
1 setlinejoin
0 setlinecap
0 0 m
0 3 l

gsave
0.000 setgray
fill
grestore
stroke
grestore
} bind def
128.266 32.4 o
grestore
gsave
/o {
gsave
newpath
translate
0.7 setlinewidth
1 setlinejoin
0 setlinecap
0 0 m
0 -3 l

gsave
0.000 setgray
fill
grestore
stroke
grestore
} bind def
128.266 194.4 o
grestore
gsave
/o {
gsave
newpath
translate
0.7 setlinewidth
1 setlinejoin
0 setlinecap
0 0 m
0 3 l

gsave
0.000 setgray
fill
grestore
stroke
grestore
} bind def
140.616 32.4 o
grestore
gsave
/o {
gsave
newpath
translate
0.7 setlinewidth
1 setlinejoin
0 setlinecap
0 0 m
0 -3 l

gsave
0.000 setgray
fill
grestore
stroke
grestore
} bind def
140.616 194.4 o
grestore
gsave
/o {
gsave
newpath
translate
0.7 setlinewidth
1 setlinejoin
0 setlinecap
0 0 m
0 3 l

gsave
0.000 setgray
fill
grestore
stroke
grestore
} bind def
152.966 32.4 o
grestore
gsave
/o {
gsave
newpath
translate
0.7 setlinewidth
1 setlinejoin
0 setlinecap
0 0 m
0 -3 l

gsave
0.000 setgray
fill
grestore
stroke
grestore
} bind def
152.966 194.4 o
grestore
gsave
/o {
gsave
newpath
translate
0.7 setlinewidth
1 setlinejoin
0 setlinecap
0 0 m
0 3 l

gsave
0.000 setgray
fill
grestore
stroke
grestore
} bind def
177.666 32.4 o
grestore
gsave
/o {
gsave
newpath
translate
0.7 setlinewidth
1 setlinejoin
0 setlinecap
0 0 m
0 -3 l

gsave
0.000 setgray
fill
grestore
stroke
grestore
} bind def
177.666 194.4 o
grestore
gsave
/o {
gsave
newpath
translate
0.7 setlinewidth
1 setlinejoin
0 setlinecap
0 0 m
0 3 l

gsave
0.000 setgray
fill
grestore
stroke
grestore
} bind def
190.016 32.4 o
grestore
gsave
/o {
gsave
newpath
translate
0.7 setlinewidth
1 setlinejoin
0 setlinecap
0 0 m
0 -3 l

gsave
0.000 setgray
fill
grestore
stroke
grestore
} bind def
190.016 194.4 o
grestore
gsave
/o {
gsave
newpath
translate
0.7 setlinewidth
1 setlinejoin
0 setlinecap
0 0 m
0 3 l

gsave
0.000 setgray
fill
grestore
stroke
grestore
} bind def
202.366 32.4 o
grestore
gsave
/o {
gsave
newpath
translate
0.7 setlinewidth
1 setlinejoin
0 setlinecap
0 0 m
0 -3 l

gsave
0.000 setgray
fill
grestore
stroke
grestore
} bind def
202.366 194.4 o
grestore
gsave
/o {
gsave
newpath
translate
0.7 setlinewidth
1 setlinejoin
0 setlinecap
0 0 m
0 3 l

gsave
0.000 setgray
fill
grestore
stroke
grestore
} bind def
214.716 32.4 o
grestore
gsave
/o {
gsave
newpath
translate
0.7 setlinewidth
1 setlinejoin
0 setlinecap
0 0 m
0 -3 l

gsave
0.000 setgray
fill
grestore
stroke
grestore
} bind def
214.716 194.4 o
grestore
gsave
/o {
gsave
newpath
translate
0.7 setlinewidth
1 setlinejoin
0 setlinecap
0 0 m
0 3 l

gsave
0.000 setgray
fill
grestore
stroke
grestore
} bind def
239.415 32.4 o
grestore
gsave
/o {
gsave
newpath
translate
0.7 setlinewidth
1 setlinejoin
0 setlinecap
0 0 m
0 -3 l

gsave
0.000 setgray
fill
grestore
stroke
grestore
} bind def
239.415 194.4 o
grestore
gsave
/o {
gsave
newpath
translate
0.7 setlinewidth
1 setlinejoin
0 setlinecap
0 0 m
0 3 l

gsave
0.000 setgray
fill
grestore
stroke
grestore
} bind def
251.765 32.4 o
grestore
gsave
/o {
gsave
newpath
translate
0.7 setlinewidth
1 setlinejoin
0 setlinecap
0 0 m
0 -3 l

gsave
0.000 setgray
fill
grestore
stroke
grestore
} bind def
251.765 194.4 o
grestore
gsave
/o {
gsave
newpath
translate
0.7 setlinewidth
1 setlinejoin
0 setlinecap
0 0 m
0 3 l

gsave
0.000 setgray
fill
grestore
stroke
grestore
} bind def
264.115 32.4 o
grestore
gsave
/o {
gsave
newpath
translate
0.7 setlinewidth
1 setlinejoin
0 setlinecap
0 0 m
0 -3 l

gsave
0.000 setgray
fill
grestore
stroke
grestore
} bind def
264.115 194.4 o
grestore
gsave
/o {
gsave
newpath
translate
0.7 setlinewidth
1 setlinejoin
0 setlinecap
0 0 m
0 3 l

gsave
0.000 setgray
fill
grestore
stroke
grestore
} bind def
276.465 32.4 o
grestore
gsave
/o {
gsave
newpath
translate
0.7 setlinewidth
1 setlinejoin
0 setlinecap
0 0 m
0 -3 l

gsave
0.000 setgray
fill
grestore
stroke
grestore
} bind def
276.465 194.4 o
grestore
gsave
/o {
gsave
newpath
translate
0.7 setlinewidth
1 setlinejoin
0 setlinecap
0 0 m
0 3 l

gsave
0.000 setgray
fill
grestore
stroke
grestore
} bind def
301.165 32.4 o
grestore
gsave
/o {
gsave
newpath
translate
0.7 setlinewidth
1 setlinejoin
0 setlinecap
0 0 m
0 -3 l

gsave
0.000 setgray
fill
grestore
stroke
grestore
} bind def
301.165 194.4 o
grestore
gsave
/o {
gsave
newpath
translate
0.7 setlinewidth
1 setlinejoin
0 setlinecap
0 0 m
0 3 l

gsave
0.000 setgray
fill
grestore
stroke
grestore
} bind def
313.515 32.4 o
grestore
gsave
/o {
gsave
newpath
translate
0.7 setlinewidth
1 setlinejoin
0 setlinecap
0 0 m
0 -3 l

gsave
0.000 setgray
fill
grestore
stroke
grestore
} bind def
313.515 194.4 o
grestore
gsave
/o {
gsave
newpath
translate
0.7 setlinewidth
1 setlinejoin
0 setlinecap
0 0 m
0 3 l

gsave
0.000 setgray
fill
grestore
stroke
grestore
} bind def
325.865 32.4 o
grestore
gsave
/o {
gsave
newpath
translate
0.7 setlinewidth
1 setlinejoin
0 setlinecap
0 0 m
0 -3 l

gsave
0.000 setgray
fill
grestore
stroke
grestore
} bind def
325.865 194.4 o
grestore
gsave
/o {
gsave
newpath
translate
0.7 setlinewidth
1 setlinejoin
0 setlinecap
0 0 m
0 3 l

gsave
0.000 setgray
fill
grestore
stroke
grestore
} bind def
338.215 32.4 o
grestore
gsave
/o {
gsave
newpath
translate
0.7 setlinewidth
1 setlinejoin
0 setlinecap
0 0 m
0 -3 l

gsave
0.000 setgray
fill
grestore
stroke
grestore
} bind def
338.215 194.4 o
grestore
gsave
/o {
gsave
newpath
translate
0.7 setlinewidth
1 setlinejoin
0 setlinecap
0 0 m
0 3 l

gsave
0.000 setgray
fill
grestore
stroke
grestore
} bind def
362.915 32.4 o
grestore
gsave
/o {
gsave
newpath
translate
0.7 setlinewidth
1 setlinejoin
0 setlinecap
0 0 m
0 -3 l

gsave
0.000 setgray
fill
grestore
stroke
grestore
} bind def
362.915 194.4 o
grestore
gsave
/o {
gsave
newpath
translate
0.7 setlinewidth
1 setlinejoin
0 setlinecap
0 0 m
0 3 l

gsave
0.000 setgray
fill
grestore
stroke
grestore
} bind def
375.264 32.4 o
grestore
gsave
/o {
gsave
newpath
translate
0.7 setlinewidth
1 setlinejoin
0 setlinecap
0 0 m
0 -3 l

gsave
0.000 setgray
fill
grestore
stroke
grestore
} bind def
375.264 194.4 o
grestore
gsave
/o {
gsave
newpath
translate
0.7 setlinewidth
1 setlinejoin
0 setlinecap
0 0 m
0 3 l

gsave
0.000 setgray
fill
grestore
stroke
grestore
} bind def
387.614 32.4 o
grestore
gsave
/o {
gsave
newpath
translate
0.7 setlinewidth
1 setlinejoin
0 setlinecap
0 0 m
0 -3 l

gsave
0.000 setgray
fill
grestore
stroke
grestore
} bind def
387.614 194.4 o
grestore
gsave
/o {
gsave
newpath
translate
0.7 setlinewidth
1 setlinejoin
0 setlinecap
0 0 m
0 3 l

gsave
0.000 setgray
fill
grestore
stroke
grestore
} bind def
399.964 32.4 o
grestore
gsave
/o {
gsave
newpath
translate
0.7 setlinewidth
1 setlinejoin
0 setlinecap
0 0 m
0 -3 l

gsave
0.000 setgray
fill
grestore
stroke
grestore
} bind def
399.964 194.4 o
grestore
gsave
/o {
gsave
newpath
translate
0.7 setlinewidth
1 setlinejoin
0 setlinecap
0 0 m
0 3 l

gsave
0.000 setgray
fill
grestore
stroke
grestore
} bind def
424.664 32.4 o
grestore
gsave
/o {
gsave
newpath
translate
0.7 setlinewidth
1 setlinejoin
0 setlinecap
0 0 m
0 -3 l

gsave
0.000 setgray
fill
grestore
stroke
grestore
} bind def
424.664 194.4 o
grestore
gsave
/o {
gsave
newpath
translate
0.7 setlinewidth
1 setlinejoin
0 setlinecap
0 0 m
0 3 l

gsave
0.000 setgray
fill
grestore
stroke
grestore
} bind def
437.014 32.4 o
grestore
gsave
/o {
gsave
newpath
translate
0.7 setlinewidth
1 setlinejoin
0 setlinecap
0 0 m
0 -3 l

gsave
0.000 setgray
fill
grestore
stroke
grestore
} bind def
437.014 194.4 o
grestore
gsave
/o {
gsave
newpath
translate
0.7 setlinewidth
1 setlinejoin
0 setlinecap
0 0 m
0 3 l

gsave
0.000 setgray
fill
grestore
stroke
grestore
} bind def
449.364 32.4 o
grestore
gsave
/o {
gsave
newpath
translate
0.7 setlinewidth
1 setlinejoin
0 setlinecap
0 0 m
0 -3 l

gsave
0.000 setgray
fill
grestore
stroke
grestore
} bind def
449.364 194.4 o
grestore
gsave
/o {
gsave
newpath
translate
0.7 setlinewidth
1 setlinejoin
0 setlinecap
0 0 m
0 3 l

gsave
0.000 setgray
fill
grestore
stroke
grestore
} bind def
461.714 32.4 o
grestore
gsave
/o {
gsave
newpath
translate
0.7 setlinewidth
1 setlinejoin
0 setlinecap
0 0 m
0 -3 l

gsave
0.000 setgray
fill
grestore
stroke
grestore
} bind def
461.714 194.4 o
grestore
gsave
/o {
gsave
newpath
translate
0.7 setlinewidth
1 setlinejoin
0 setlinecap
0 0 m
0 3 l

gsave
0.000 setgray
fill
grestore
stroke
grestore
} bind def
486.414 32.4 o
grestore
gsave
/o {
gsave
newpath
translate
0.7 setlinewidth
1 setlinejoin
0 setlinecap
0 0 m
0 -3 l

gsave
0.000 setgray
fill
grestore
stroke
grestore
} bind def
486.414 194.4 o
grestore
gsave
/o {
gsave
newpath
translate
0.7 setlinewidth
1 setlinejoin
0 setlinecap
0 0 m
0 3 l

gsave
0.000 setgray
fill
grestore
stroke
grestore
} bind def
498.764 32.4 o
grestore
gsave
/o {
gsave
newpath
translate
0.7 setlinewidth
1 setlinejoin
0 setlinecap
0 0 m
0 -3 l

gsave
0.000 setgray
fill
grestore
stroke
grestore
} bind def
498.764 194.4 o
grestore
gsave
/o {
gsave
newpath
translate
0.7 setlinewidth
1 setlinejoin
0 setlinecap
0 0 m
0 3 l

gsave
0.000 setgray
fill
grestore
stroke
grestore
} bind def
511.114 32.4 o
grestore
gsave
/o {
gsave
newpath
translate
0.7 setlinewidth
1 setlinejoin
0 setlinecap
0 0 m
0 -3 l

gsave
0.000 setgray
fill
grestore
stroke
grestore
} bind def
511.114 194.4 o
grestore
gsave
284.400000 8.228125 translate
0.000000 rotate
/DejaVuSans-Oblique findfont
14.0 scalefont
setfont
0.000000 0.359375 moveto
/z glyphshow

/DejaVuSerif findfont
14.0 scalefont
setfont
7.348633 0.359375 moveto
/space glyphshow

11.798828 0.359375 moveto
/parenleft glyphshow

17.260742 0.359375 moveto
/m glyphshow

30.536133 0.359375 moveto
/parenright glyphshow


grestore
0.800 setlinewidth
2 setlinecap
0.690 setgray
gsave
432 162 86.4 32.4 clipbox
86.4 53.761913 m
518.4 53.761913 l
stroke
grestore
1.000 setlinewidth
0 setlinecap
1.000 0.000 0.000 setrgbcolor
gsave
/o {
gsave
newpath
translate
1.0 setlinewidth
1 setlinejoin
0 setlinecap
0 0 m
5 0 l

gsave
1.000 0.000 0.000 setrgbcolor
fill
grestore
stroke
grestore
} bind def
86.4 53.7619 o
grestore
gsave
55.446875 49.965038 translate
0.000000 rotate
0.000000 0.000000 m /minus glyphshow
8.378906 0.000000 m /one glyphshow
14.741211 0.000000 m /zero glyphshow
21.103516 0.000000 m /zero glyphshow
grestore
0.800 setlinewidth
2 setlinecap
0.690 setgray
gsave
432 162 86.4 32.4 clipbox
86.4 86.075571 m
518.4 86.075571 l
stroke
grestore
1.000 setlinewidth
0 setlinecap
1.000 0.000 0.000 setrgbcolor
gsave
/o {
gsave
newpath
translate
1.0 setlinewidth
1 setlinejoin
0 setlinecap
0 0 m
5 0 l

gsave
1.000 0.000 0.000 setrgbcolor
fill
grestore
stroke
grestore
} bind def
86.4 86.0756 o
grestore
gsave
61.806250 82.278696 translate
0.000000 rotate
0.000000 0.000000 m /minus glyphshow
8.378906 0.000000 m /five glyphshow
14.741211 0.000000 m /zero glyphshow
grestore
0.800 setlinewidth
2 setlinecap
0.690 setgray
gsave
432 162 86.4 32.4 clipbox
86.4 118.389229 m
518.4 118.389229 l
stroke
grestore
1.000 setlinewidth
0 setlinecap
1.000 0.000 0.000 setrgbcolor
gsave
/o {
gsave
newpath
translate
1.0 setlinewidth
1 setlinejoin
0 setlinecap
0 0 m
5 0 l

gsave
1.000 0.000 0.000 setrgbcolor
fill
grestore
stroke
grestore
} bind def
86.4 118.389 o
grestore
gsave
76.540625 114.592354 translate
0.000000 rotate
0.000000 0.000000 m /zero glyphshow
grestore
0.800 setlinewidth
2 setlinecap
0.690 setgray
gsave
432 162 86.4 32.4 clipbox
86.4 150.702887 m
518.4 150.702887 l
stroke
grestore
1.000 setlinewidth
0 setlinecap
1.000 0.000 0.000 setrgbcolor
gsave
/o {
gsave
newpath
translate
1.0 setlinewidth
1 setlinejoin
0 setlinecap
0 0 m
5 0 l

gsave
1.000 0.000 0.000 setrgbcolor
fill
grestore
stroke
grestore
} bind def
86.4 150.703 o
grestore
gsave
70.181250 146.906012 translate
0.000000 rotate
0.000000 0.000000 m /five glyphshow
6.362305 0.000000 m /zero glyphshow
grestore
0.800 setlinewidth
2 setlinecap
0.690 setgray
gsave
432 162 86.4 32.4 clipbox
86.4 183.016545 m
518.4 183.016545 l
stroke
grestore
1.000 setlinewidth
0 setlinecap
1.000 0.000 0.000 setrgbcolor
gsave
/o {
gsave
newpath
translate
1.0 setlinewidth
1 setlinejoin
0 setlinecap
0 0 m
5 0 l

gsave
1.000 0.000 0.000 setrgbcolor
fill
grestore
stroke
grestore
} bind def
86.4 183.017 o
grestore
gsave
63.821875 179.219670 translate
0.000000 rotate
0.000000 0.000000 m /one glyphshow
6.362305 0.000000 m /zero glyphshow
12.724609 0.000000 m /zero glyphshow
grestore
0.700 setlinewidth
0.000 setgray
gsave
/o {
gsave
newpath
translate
0.7 setlinewidth
1 setlinejoin
0 setlinecap
0 0 m
3 0 l

gsave
0.000 setgray
fill
grestore
stroke
grestore
} bind def
86.4 34.3737 o
grestore
gsave
/o {
gsave
newpath
translate
0.7 setlinewidth
1 setlinejoin
0 setlinecap
0 0 m
3 0 l

gsave
0.000 setgray
fill
grestore
stroke
grestore
} bind def
86.4 40.8364 o
grestore
gsave
/o {
gsave
newpath
translate
0.7 setlinewidth
1 setlinejoin
0 setlinecap
0 0 m
3 0 l

gsave
0.000 setgray
fill
grestore
stroke
grestore
} bind def
86.4 47.2992 o
grestore
gsave
/o {
gsave
newpath
translate
0.7 setlinewidth
1 setlinejoin
0 setlinecap
0 0 m
3 0 l

gsave
0.000 setgray
fill
grestore
stroke
grestore
} bind def
86.4 60.2246 o
grestore
gsave
/o {
gsave
newpath
translate
0.7 setlinewidth
1 setlinejoin
0 setlinecap
0 0 m
3 0 l

gsave
0.000 setgray
fill
grestore
stroke
grestore
} bind def
86.4 66.6874 o
grestore
gsave
/o {
gsave
newpath
translate
0.7 setlinewidth
1 setlinejoin
0 setlinecap
0 0 m
3 0 l

gsave
0.000 setgray
fill
grestore
stroke
grestore
} bind def
86.4 73.1501 o
grestore
gsave
/o {
gsave
newpath
translate
0.7 setlinewidth
1 setlinejoin
0 setlinecap
0 0 m
3 0 l

gsave
0.000 setgray
fill
grestore
stroke
grestore
} bind def
86.4 79.6128 o
grestore
gsave
/o {
gsave
newpath
translate
0.7 setlinewidth
1 setlinejoin
0 setlinecap
0 0 m
3 0 l

gsave
0.000 setgray
fill
grestore
stroke
grestore
} bind def
86.4 92.5383 o
grestore
gsave
/o {
gsave
newpath
translate
0.7 setlinewidth
1 setlinejoin
0 setlinecap
0 0 m
3 0 l

gsave
0.000 setgray
fill
grestore
stroke
grestore
} bind def
86.4 99.001 o
grestore
gsave
/o {
gsave
newpath
translate
0.7 setlinewidth
1 setlinejoin
0 setlinecap
0 0 m
3 0 l

gsave
0.000 setgray
fill
grestore
stroke
grestore
} bind def
86.4 105.464 o
grestore
gsave
/o {
gsave
newpath
translate
0.7 setlinewidth
1 setlinejoin
0 setlinecap
0 0 m
3 0 l

gsave
0.000 setgray
fill
grestore
stroke
grestore
} bind def
86.4 111.926 o
grestore
gsave
/o {
gsave
newpath
translate
0.7 setlinewidth
1 setlinejoin
0 setlinecap
0 0 m
3 0 l

gsave
0.000 setgray
fill
grestore
stroke
grestore
} bind def
86.4 124.852 o
grestore
gsave
/o {
gsave
newpath
translate
0.7 setlinewidth
1 setlinejoin
0 setlinecap
0 0 m
3 0 l

gsave
0.000 setgray
fill
grestore
stroke
grestore
} bind def
86.4 131.315 o
grestore
gsave
/o {
gsave
newpath
translate
0.7 setlinewidth
1 setlinejoin
0 setlinecap
0 0 m
3 0 l

gsave
0.000 setgray
fill
grestore
stroke
grestore
} bind def
86.4 137.777 o
grestore
gsave
/o {
gsave
newpath
translate
0.7 setlinewidth
1 setlinejoin
0 setlinecap
0 0 m
3 0 l

gsave
0.000 setgray
fill
grestore
stroke
grestore
} bind def
86.4 144.24 o
grestore
gsave
/o {
gsave
newpath
translate
0.7 setlinewidth
1 setlinejoin
0 setlinecap
0 0 m
3 0 l

gsave
0.000 setgray
fill
grestore
stroke
grestore
} bind def
86.4 157.166 o
grestore
gsave
/o {
gsave
newpath
translate
0.7 setlinewidth
1 setlinejoin
0 setlinecap
0 0 m
3 0 l

gsave
0.000 setgray
fill
grestore
stroke
grestore
} bind def
86.4 163.628 o
grestore
gsave
/o {
gsave
newpath
translate
0.7 setlinewidth
1 setlinejoin
0 setlinecap
0 0 m
3 0 l

gsave
0.000 setgray
fill
grestore
stroke
grestore
} bind def
86.4 170.091 o
grestore
gsave
/o {
gsave
newpath
translate
0.7 setlinewidth
1 setlinejoin
0 setlinecap
0 0 m
3 0 l

gsave
0.000 setgray
fill
grestore
stroke
grestore
} bind def
86.4 176.554 o
grestore
gsave
/o {
gsave
newpath
translate
0.7 setlinewidth
1 setlinejoin
0 setlinecap
0 0 m
3 0 l

gsave
0.000 setgray
fill
grestore
stroke
grestore
} bind def
86.4 189.479 o
grestore
1.000 0.000 0.000 setrgbcolor
gsave
52.446875 70.400000 translate
90.000000 rotate
/DejaVuSans findfont
14.0 scalefont
setfont
0.000000 0.359375 moveto
/uni27E8 glyphshow

/DejaVuSans-Oblique findfont
14.0 scalefont
setfont
5.461914 0.359375 moveto
/z glyphshow

/DejaVuSans findfont
14.0 scalefont
setfont
15.538086 0.359375 moveto
/dotmath glyphshow

/DejaVuSans-Oblique findfont
14.0 scalefont
setfont
22.715820 0.359375 moveto
/E glyphshow

/DejaVuSans findfont
9.8 scalefont
setfont
31.561523 -1.937500 moveto
/k glyphshow

/DejaVuSans findfont
14.0 scalefont
setfont
37.619531 0.359375 moveto
/uni27E9 glyphshow

/DejaVuSerif findfont
14.0 scalefont
setfont
43.081445 0.359375 moveto
/space glyphshow

47.531641 0.359375 moveto
/parenleft glyphshow

52.993555 0.359375 moveto
/k glyphshow

61.476953 0.359375 moveto
/e glyphshow

69.762109 0.359375 moveto
/V glyphshow

79.872461 0.359375 moveto
/parenright glyphshow


grestore
2.000 setlinewidth
[7.4 3.2] 0 setdash
gsave
432 162 86.4 32.4 clipbox
106.036364 112.190823 m
108.506346 121.224558 l
110.976329 123.484899 l
113.446312 125.794227 l
115.916295 128.144076 l
118.386278 130.528824 l
120.856261 132.943947 l
123.326244 135.382981 l
125.796226 137.838819 l
128.266209 140.303705 l
130.736192 142.77053 l
133.206175 145.232184 l
135.676158 147.680267 l
138.146141 154.639336 l
140.616123 141.524515 l
143.084871 123.17514 l
145.556089 116.166437 l
148.026072 106.071909 l
150.496055 88.505558 l
152.966038 67.481646 l
155.436021 58.950194 l
157.906003 39.763636 l
160.375986 40.390521 l
162.845969 41.017406 l
165.315952 41.657217 l
167.785935 42.290564 l
168.773928 42.549074 l
170.255918 42.930375 l
172.725901 43.576648 l
175.195883 44.222921 l
177.665866 44.869194 l
180.135849 45.52193 l
182.605832 46.181129 l
185.075815 46.833865 l
187.545798 47.493063 l
190.01578 48.152262 l
192.485763 48.811461 l
194.955746 49.477122 l
197.425729 50.142783 l
199.895712 50.808445 l
202.365695 51.467643 l
204.835678 52.133305 l
207.30566 52.798966 l
209.775643 53.464627 l
212.245626 54.132227 l
214.715609 54.79595 l
217.185592 55.459673 l
219.655575 56.122103 l
222.125557 56.782594 l
224.59554 57.442439 l
227.065523 58.100991 l
229.535506 58.757604 l
232.005489 59.412279 l
234.475472 60.065015 l
236.945455 60.715166 l
239.415437 61.363378 l
241.88542 62.009005 l
244.355403 62.652047 l
246.825386 63.292503 l
249.295369 63.929729 l
251.765352 64.564369 l
254.235334 65.196424 l
256.705317 65.824601 l
259.1753 66.450194 l
261.645283 67.072555 l
264.115266 67.691685 l
266.585249 68.307583 l
269.055232 68.92025 l
271.525214 69.529039 l
273.995197 70.134597 l
276.46518 70.736924 l
278.935163 71.335373 l
281.405146 71.93059 l
283.875129 72.522576 l
286.345111 73.110685 l
288.815094 73.694916 l
291.285077 74.275916 l
293.75506 74.853037 l
296.225043 75.426928 l
298.695026 75.996941 l
301.165009 76.563076 l
303.634991 77.12598 l
306.104974 77.685653 l
308.574957 78.240801 l
311.04494 78.792719 l
313.514923 79.341405 l
315.984906 79.886213 l
318.454889 80.427143 l
320.924871 80.964843 l
323.394854 81.499311 l
325.864837 82.029901 l
328.33482 82.55726 l
330.804803 83.080741 l
333.274786 83.600991 l
335.744768 84.118009 l
338.214751 84.63115 l
340.684734 85.14106 l
343.154717 85.647738 l
345.6247 86.151185 l
350.564666 87.147738 l
stroke
grestore
2 setlinecap
[] 0 setdash
gsave
432 162 86.4 32.4 clipbox
255.198628 65.442654 m
267.968439 68.563507 l
280.614751 71.692762 l
294.051458 75.228522 l
309.068954 79.444162 l
324.876844 84.157432 l
342.265523 89.558983 l
392.060377 105.388152 l
408.658662 111.09539 l
434.741681 120.024041 l
437.014065 120.790715 l
437.014065 120.790715 l
stroke
grestore
gsave
432 162 86.4 32.4 clipbox
329.100515 85.45321 m
335.54717 87.451486 l
382.180446 101.904093 l
399.569125 106.909479 l
414.586621 111.023007 l
430.789708 115.454567 l
436.717667 117.34162 l
438.693654 118.063307 l
439.484048 119.013903 l
443.436021 125.385782 l
445.01681 128.440069 l
446.202401 130.906894 l
447.78319 134.683714 l
448.968782 137.495002 l
449.759177 139.716243 l
452.13036 145.743386 l
452.920755 147.891598 l
454.106346 150.562645 l
455.687136 154.622533 l
457.663122 158.990047 l
460.034305 163.462258 l
464.381475 170.505989 l
465.17187 171.586558 l
468.728645 175.544334 l
470.309434 177.040457 l
473.866209 179.955795 l
475.446998 181.058983 l
477.422985 182.208703 l
479.003774 183.042396 l
482.955746 183.985954 l
487.698113 185.03938 l
496.78765 186.713227 l
498.763636 187.036364 l
498.763636 187.036364 l
stroke
grestore
0.800 setlinewidth
0 setlinejoin
[] 0 setdash
0.000 setgray
gsave
86.4 32.4 m
86.4 194.4 l
stroke
grestore
1.000 0.000 0.000 setrgbcolor
gsave
518.4 32.4 m
518.4 194.4 l
stroke
grestore
0.000 setgray
gsave
86.4 32.4 m
518.4 32.4 l
stroke
grestore
gsave
86.4 194.4 m
518.4 194.4 l
stroke
grestore
2.000 setlinewidth
1 setlinejoin
0 setlinecap
[7.4 3.2] 0 setdash
1.000 0.000 0.000 setrgbcolor
gsave
370.6 64 m
395.8 64 l
stroke
grestore
0.000 setgray
gsave
400.600000 59.800000 translate
0.000000 rotate
/DejaVuSans findfont
12.0 scalefont
setfont
0.000000 0.875000 moveto
/uni27E8 glyphshow

/DejaVuSans-Oblique findfont
12.0 scalefont
setfont
4.681641 0.875000 moveto
/z glyphshow

/DejaVuSans findfont
12.0 scalefont
setfont
13.318359 0.875000 moveto
/dotmath glyphshow

/DejaVuSans-Oblique findfont
12.0 scalefont
setfont
19.470703 0.875000 moveto
/E glyphshow

/DejaVuSans findfont
8.4 scalefont
setfont
27.052734 -1.093750 moveto
/k glyphshow

/DejaVuSans findfont
12.0 scalefont
setfont
32.245312 0.875000 moveto
/uni27E9 glyphshow

/DejaVuSerif findfont
12.0 scalefont
setfont
36.926953 0.875000 moveto
/comma glyphshow

40.741406 0.875000 moveto
/space glyphshow

44.555859 0.875000 moveto
/w glyphshow

54.827344 0.875000 moveto
/slash glyphshow

58.870312 0.875000 moveto
/o glyphshow

66.094922 0.875000 moveto
/space glyphshow

69.909375 0.875000 moveto
/q glyphshow

77.591016 0.875000 moveto
/u glyphshow

85.319531 0.875000 moveto
/a glyphshow

92.473828 0.875000 moveto
/d glyphshow

100.155469 0.875000 moveto
/s glyphshow


grestore
2 setlinecap
[] 0 setdash
1.000 0.000 0.000 setrgbcolor
gsave
370.6 50.4 m
395.8 50.4 l
stroke
grestore
0.000 setgray
gsave
400.600000 46.200000 translate
0.000000 rotate
/DejaVuSans findfont
12.0 scalefont
setfont
0.000000 0.875000 moveto
/uni27E8 glyphshow

/DejaVuSans-Oblique findfont
12.0 scalefont
setfont
4.681641 0.875000 moveto
/z glyphshow

/DejaVuSans findfont
12.0 scalefont
setfont
13.318359 0.875000 moveto
/dotmath glyphshow

/DejaVuSans-Oblique findfont
12.0 scalefont
setfont
19.470703 0.875000 moveto
/E glyphshow

/DejaVuSans findfont
8.4 scalefont
setfont
27.052734 -1.093750 moveto
/k glyphshow

/DejaVuSans findfont
12.0 scalefont
setfont
32.245312 0.875000 moveto
/uni27E9 glyphshow

/DejaVuSerif findfont
12.0 scalefont
setfont
36.926953 0.875000 moveto
/comma glyphshow

40.741406 0.875000 moveto
/space glyphshow

44.555859 0.875000 moveto
/w glyphshow

54.827344 0.875000 moveto
/slash glyphshow

58.870312 0.875000 moveto
/space glyphshow

62.684766 0.875000 moveto
/q glyphshow

70.366406 0.875000 moveto
/u glyphshow

78.094922 0.875000 moveto
/a glyphshow

85.249219 0.875000 moveto
/d glyphshow

92.930859 0.875000 moveto
/s glyphshow


grestore
1.000 setlinewidth
0 setlinecap
0.000 0.000 1.000 setrgbcolor
gsave
/o {
gsave
newpath
translate
1.0 setlinewidth
1 setlinejoin
0 setlinecap
0 0 m
-5 0 l

gsave
0.000 0.000 1.000 setrgbcolor
fill
grestore
stroke
grestore
} bind def
518.4 32.4 o
grestore
gsave
521.900000 28.603125 translate
0.000000 rotate
0.000000 0.000000 m /zero glyphshow
6.362305 0.000000 m /period glyphshow
9.541016 0.000000 m /zero glyphshow
15.903320 0.000000 m /zero glyphshow
grestore
gsave
/o {
gsave
newpath
translate
1.0 setlinewidth
1 setlinejoin
0 setlinecap
0 0 m
-5 0 l

gsave
0.000 0.000 1.000 setrgbcolor
fill
grestore
stroke
grestore
} bind def
518.4 52.65 o
grestore
gsave
521.900000 48.853125 translate
0.000000 rotate
0.000000 0.000000 m /zero glyphshow
6.362305 0.000000 m /period glyphshow
9.541016 0.000000 m /two glyphshow
15.903320 0.000000 m /five glyphshow
grestore
gsave
/o {
gsave
newpath
translate
1.0 setlinewidth
1 setlinejoin
0 setlinecap
0 0 m
-5 0 l

gsave
0.000 0.000 1.000 setrgbcolor
fill
grestore
stroke
grestore
} bind def
518.4 72.9 o
grestore
gsave
521.900000 69.103125 translate
0.000000 rotate
0.000000 0.000000 m /zero glyphshow
6.362305 0.000000 m /period glyphshow
9.541016 0.000000 m /five glyphshow
15.903320 0.000000 m /zero glyphshow
grestore
gsave
/o {
gsave
newpath
translate
1.0 setlinewidth
1 setlinejoin
0 setlinecap
0 0 m
-5 0 l

gsave
0.000 0.000 1.000 setrgbcolor
fill
grestore
stroke
grestore
} bind def
518.4 93.15 o
grestore
gsave
521.900000 89.353125 translate
0.000000 rotate
0.000000 0.000000 m /zero glyphshow
6.362305 0.000000 m /period glyphshow
9.541016 0.000000 m /seven glyphshow
15.903320 0.000000 m /five glyphshow
grestore
gsave
/o {
gsave
newpath
translate
1.0 setlinewidth
1 setlinejoin
0 setlinecap
0 0 m
-5 0 l

gsave
0.000 0.000 1.000 setrgbcolor
fill
grestore
stroke
grestore
} bind def
518.4 113.4 o
grestore
gsave
521.900000 109.603125 translate
0.000000 rotate
0.000000 0.000000 m /one glyphshow
6.362305 0.000000 m /period glyphshow
9.541016 0.000000 m /zero glyphshow
15.903320 0.000000 m /zero glyphshow
grestore
gsave
/o {
gsave
newpath
translate
1.0 setlinewidth
1 setlinejoin
0 setlinecap
0 0 m
-5 0 l

gsave
0.000 0.000 1.000 setrgbcolor
fill
grestore
stroke
grestore
} bind def
518.4 133.65 o
grestore
gsave
521.900000 129.853125 translate
0.000000 rotate
0.000000 0.000000 m /one glyphshow
6.362305 0.000000 m /period glyphshow
9.541016 0.000000 m /two glyphshow
15.903320 0.000000 m /five glyphshow
grestore
gsave
/o {
gsave
newpath
translate
1.0 setlinewidth
1 setlinejoin
0 setlinecap
0 0 m
-5 0 l

gsave
0.000 0.000 1.000 setrgbcolor
fill
grestore
stroke
grestore
} bind def
518.4 153.9 o
grestore
gsave
521.900000 150.103125 translate
0.000000 rotate
0.000000 0.000000 m /one glyphshow
6.362305 0.000000 m /period glyphshow
9.541016 0.000000 m /five glyphshow
15.903320 0.000000 m /zero glyphshow
grestore
gsave
/o {
gsave
newpath
translate
1.0 setlinewidth
1 setlinejoin
0 setlinecap
0 0 m
-5 0 l

gsave
0.000 0.000 1.000 setrgbcolor
fill
grestore
stroke
grestore
} bind def
518.4 174.15 o
grestore
gsave
521.900000 170.353125 translate
0.000000 rotate
0.000000 0.000000 m /one glyphshow
6.362305 0.000000 m /period glyphshow
9.541016 0.000000 m /seven glyphshow
15.903320 0.000000 m /five glyphshow
grestore
gsave
/o {
gsave
newpath
translate
1.0 setlinewidth
1 setlinejoin
0 setlinecap
0 0 m
-5 0 l

gsave
0.000 0.000 1.000 setrgbcolor
fill
grestore
stroke
grestore
} bind def
518.4 194.4 o
grestore
gsave
521.900000 190.603125 translate
0.000000 rotate
0.000000 0.000000 m /two glyphshow
6.362305 0.000000 m /period glyphshow
9.541016 0.000000 m /zero glyphshow
15.903320 0.000000 m /zero glyphshow
grestore
0.700 setlinewidth
0.000 setgray
gsave
/o {
gsave
newpath
translate
0.7 setlinewidth
1 setlinejoin
0 setlinecap
0 0 m
-3 0 l

gsave
0.000 setgray
fill
grestore
stroke
grestore
} bind def
518.4 37.4625 o
grestore
gsave
/o {
gsave
newpath
translate
0.7 setlinewidth
1 setlinejoin
0 setlinecap
0 0 m
-3 0 l

gsave
0.000 setgray
fill
grestore
stroke
grestore
} bind def
518.4 42.525 o
grestore
gsave
/o {
gsave
newpath
translate
0.7 setlinewidth
1 setlinejoin
0 setlinecap
0 0 m
-3 0 l

gsave
0.000 setgray
fill
grestore
stroke
grestore
} bind def
518.4 47.5875 o
grestore
gsave
/o {
gsave
newpath
translate
0.7 setlinewidth
1 setlinejoin
0 setlinecap
0 0 m
-3 0 l

gsave
0.000 setgray
fill
grestore
stroke
grestore
} bind def
518.4 57.7125 o
grestore
gsave
/o {
gsave
newpath
translate
0.7 setlinewidth
1 setlinejoin
0 setlinecap
0 0 m
-3 0 l

gsave
0.000 setgray
fill
grestore
stroke
grestore
} bind def
518.4 62.775 o
grestore
gsave
/o {
gsave
newpath
translate
0.7 setlinewidth
1 setlinejoin
0 setlinecap
0 0 m
-3 0 l

gsave
0.000 setgray
fill
grestore
stroke
grestore
} bind def
518.4 67.8375 o
grestore
gsave
/o {
gsave
newpath
translate
0.7 setlinewidth
1 setlinejoin
0 setlinecap
0 0 m
-3 0 l

gsave
0.000 setgray
fill
grestore
stroke
grestore
} bind def
518.4 77.9625 o
grestore
gsave
/o {
gsave
newpath
translate
0.7 setlinewidth
1 setlinejoin
0 setlinecap
0 0 m
-3 0 l

gsave
0.000 setgray
fill
grestore
stroke
grestore
} bind def
518.4 83.025 o
grestore
gsave
/o {
gsave
newpath
translate
0.7 setlinewidth
1 setlinejoin
0 setlinecap
0 0 m
-3 0 l

gsave
0.000 setgray
fill
grestore
stroke
grestore
} bind def
518.4 88.0875 o
grestore
gsave
/o {
gsave
newpath
translate
0.7 setlinewidth
1 setlinejoin
0 setlinecap
0 0 m
-3 0 l

gsave
0.000 setgray
fill
grestore
stroke
grestore
} bind def
518.4 98.2125 o
grestore
gsave
/o {
gsave
newpath
translate
0.7 setlinewidth
1 setlinejoin
0 setlinecap
0 0 m
-3 0 l

gsave
0.000 setgray
fill
grestore
stroke
grestore
} bind def
518.4 103.275 o
grestore
gsave
/o {
gsave
newpath
translate
0.7 setlinewidth
1 setlinejoin
0 setlinecap
0 0 m
-3 0 l

gsave
0.000 setgray
fill
grestore
stroke
grestore
} bind def
518.4 108.338 o
grestore
gsave
/o {
gsave
newpath
translate
0.7 setlinewidth
1 setlinejoin
0 setlinecap
0 0 m
-3 0 l

gsave
0.000 setgray
fill
grestore
stroke
grestore
} bind def
518.4 118.463 o
grestore
gsave
/o {
gsave
newpath
translate
0.7 setlinewidth
1 setlinejoin
0 setlinecap
0 0 m
-3 0 l

gsave
0.000 setgray
fill
grestore
stroke
grestore
} bind def
518.4 123.525 o
grestore
gsave
/o {
gsave
newpath
translate
0.7 setlinewidth
1 setlinejoin
0 setlinecap
0 0 m
-3 0 l

gsave
0.000 setgray
fill
grestore
stroke
grestore
} bind def
518.4 128.588 o
grestore
gsave
/o {
gsave
newpath
translate
0.7 setlinewidth
1 setlinejoin
0 setlinecap
0 0 m
-3 0 l

gsave
0.000 setgray
fill
grestore
stroke
grestore
} bind def
518.4 138.713 o
grestore
gsave
/o {
gsave
newpath
translate
0.7 setlinewidth
1 setlinejoin
0 setlinecap
0 0 m
-3 0 l

gsave
0.000 setgray
fill
grestore
stroke
grestore
} bind def
518.4 143.775 o
grestore
gsave
/o {
gsave
newpath
translate
0.7 setlinewidth
1 setlinejoin
0 setlinecap
0 0 m
-3 0 l

gsave
0.000 setgray
fill
grestore
stroke
grestore
} bind def
518.4 148.838 o
grestore
gsave
/o {
gsave
newpath
translate
0.7 setlinewidth
1 setlinejoin
0 setlinecap
0 0 m
-3 0 l

gsave
0.000 setgray
fill
grestore
stroke
grestore
} bind def
518.4 158.963 o
grestore
gsave
/o {
gsave
newpath
translate
0.7 setlinewidth
1 setlinejoin
0 setlinecap
0 0 m
-3 0 l

gsave
0.000 setgray
fill
grestore
stroke
grestore
} bind def
518.4 164.025 o
grestore
gsave
/o {
gsave
newpath
translate
0.7 setlinewidth
1 setlinejoin
0 setlinecap
0 0 m
-3 0 l

gsave
0.000 setgray
fill
grestore
stroke
grestore
} bind def
518.4 169.088 o
grestore
gsave
/o {
gsave
newpath
translate
0.7 setlinewidth
1 setlinejoin
0 setlinecap
0 0 m
-3 0 l

gsave
0.000 setgray
fill
grestore
stroke
grestore
} bind def
518.4 179.213 o
grestore
gsave
/o {
gsave
newpath
translate
0.7 setlinewidth
1 setlinejoin
0 setlinecap
0 0 m
-3 0 l

gsave
0.000 setgray
fill
grestore
stroke
grestore
} bind def
518.4 184.275 o
grestore
gsave
/o {
gsave
newpath
translate
0.7 setlinewidth
1 setlinejoin
0 setlinecap
0 0 m
-3 0 l

gsave
0.000 setgray
fill
grestore
stroke
grestore
} bind def
518.4 189.338 o
grestore
0.000 0.000 1.000 setrgbcolor
gsave
555.165625 82.900000 translate
90.000000 rotate
/DejaVuSans findfont
14.0 scalefont
setfont
0.000000 0.359375 moveto
/uni0394 glyphshow

/DejaVuSans-Oblique findfont
14.0 scalefont
setfont
9.577148 0.359375 moveto
/E glyphshow

/DejaVuSans findfont
14.0 scalefont
setfont
18.422852 0.359375 moveto
/slash glyphshow

/DejaVuSans-Oblique findfont
14.0 scalefont
setfont
23.139648 0.359375 moveto
/E glyphshow

/DejaVuSerif findfont
14.0 scalefont
setfont
31.985352 0.359375 moveto
/space glyphshow

36.435547 0.359375 moveto
/parenleft glyphshow

41.897461 0.359375 moveto
/percent glyphshow

55.200195 0.359375 moveto
/parenright glyphshow


grestore
2.000 setlinewidth
[2 3.3] 0 setdash
gsave
432 162 86.4 32.4 clipbox
106.036364 56.449467 m
108.506346 55.611087 l
110.976329 58.253162 l
113.446312 61.636928 l
115.916295 65.58113 l
118.386278 69.934077 l
120.856261 74.584476 l
123.326244 79.45203 l
125.796226 84.471026 l
128.266209 89.58824 l
130.736192 94.765139 l
133.206175 99.965991 l
135.676158 105.155571 l
138.146141 113.43016 l
140.616123 82.91843 l
143.084871 61.592276 l
145.556089 59.117838 l
148.026072 61.141935 l
150.496055 71.411802 l
152.966038 84.525235 l
155.436021 86.904321 l
157.906003 98.496982 l
160.375986 98.066414 l
162.845969 97.626558 l
165.315952 97.181587 l
167.785935 96.741731 l
168.773928 96.56272 l
170.255918 96.296761 l
172.725901 95.85179 l
175.195883 95.406819 l
177.665866 94.961849 l
180.135849 94.511764 l
182.605832 94.066793 l
185.075815 93.621822 l
187.545798 93.171737 l
190.01578 92.726766 l
192.485763 92.276681 l
194.955746 91.831711 l
197.425729 91.38674 l
199.895712 90.941769 l
202.365695 90.501913 l
204.835678 90.056943 l
207.30566 89.617087 l
209.775643 89.182345 l
212.245626 88.742489 l
214.715609 88.312862 l
217.185592 87.878121 l
219.655575 87.453609 l
222.125557 87.023982 l
224.59554 86.59947 l
227.065523 86.180072 l
229.535506 85.765789 l
232.005489 85.351506 l
234.475472 84.937223 l
236.945455 84.528055 l
239.415437 84.124001 l
241.88542 83.725062 l
244.355403 83.32393 l
246.825386 82.930641 l
249.295369 82.540422 l
251.765352 82.153782 l
254.235334 81.771234 l
256.705317 81.392777 l
259.1753 81.0179 l
261.645283 80.646603 l
264.115266 80.279909 l
266.585249 79.916284 l
269.055232 79.557261 l
271.525214 79.201818 l
273.995197 78.850467 l
276.46518 78.500297 l
278.935163 78.15715 l
281.405146 77.817583 l
283.875129 77.482619 l
286.345111 77.151234 l
288.815094 76.823941 l
291.285077 76.500739 l
293.75506 76.181628 l
296.225043 75.866096 l
298.695026 75.555168 l
301.165009 75.247819 l
303.634991 74.941875 l
306.104974 74.642216 l
308.574957 74.347159 l
311.04494 74.055682 l
313.514923 73.767784 l
315.984906 73.484489 l
318.454889 73.204773 l
320.924871 72.928636 l
323.394854 72.656591 l
325.864837 72.388125 l
328.33482 72.12375 l
330.804803 71.862955 l
333.274786 71.60625 l
335.744768 71.350666 l
338.214751 71.101136 l
340.684734 70.855697 l
343.154717 70.613326 l
345.6247 70.375046 l
350.564666 69.909734 l
stroke
grestore
2 setlinecap
[] 0 setdash
gsave
432 162 86.4 32.4 clipbox
255.198628 81.62292 m
283.776329 77.252529 l
316.182504 72.024269 l
336.732762 68.810868 l
350.564666 66.858377 l
363.210978 65.311014 l
385.342024 62.899053 l
397.197942 61.858545 l
407.077873 61.215006 l
415.772213 60.860496 l
427.62813 60.64538 l
437.014065 60.817786 l
437.014065 60.817786 l
stroke
grestore
gsave
432 162 86.4 32.4 clipbox
329.100515 69.972357 m
357.678216 65.936681 l
369.929331 64.525823 l
382.180446 63.350849 l
393.641166 62.463353 l
405.497084 61.770428 l
417.748199 61.289113 l
432.370497 60.744884 l
439.088851 60.396747 l
443.436021 59.179561 l
444.621612 59.140893 l
445.807204 59.250009 l
446.597599 59.519636 l
448.178388 60.388324 l
448.968782 61.070228 l
450.154374 62.37511 l
451.339966 63.769871 l
455.291938 69.717711 l
457.267925 72.668192 l
460.034305 76.317028 l
462.800686 79.379081 l
464.381475 80.976016 l
465.567067 82.029722 l
469.519039 84.986735 l
471.890223 86.454415 l
474.656604 87.940525 l
477.027787 88.926574 l
479.398971 89.696788 l
480.97976 89.936524 l
487.302916 90.891783 l
494.416467 91.79456 l
498.763636 92.284201 l
498.763636 92.284201 l
stroke
grestore
0.800 setlinewidth
0 setlinejoin
[] 0 setdash
0.000 setgray
gsave
86.4 32.4 m
86.4 194.4 l
stroke
grestore
0.000 0.000 1.000 setrgbcolor
gsave
518.4 32.4 m
518.4 194.4 l
stroke
grestore
0.000 setgray
gsave
86.4 32.4 m
518.4 32.4 l
stroke
grestore
gsave
86.4 194.4 m
518.4 194.4 l
stroke
grestore
2.000 setlinewidth
1 setlinejoin
0 setlinecap
[2 3.3] 0 setdash
0.000 0.000 1.000 setrgbcolor
gsave
382.6 120.9 m
407.8 120.9 l
stroke
grestore
0.000 setgray
gsave
412.600000 116.700000 translate
0.000000 rotate
/DejaVuSans-Oblique findfont
12.0 scalefont
setfont
0.000000 0.875000 moveto
/sigma glyphshow

/DejaVuSans-Oblique findfont
8.4 scalefont
setfont
7.605469 -1.093750 moveto
/E glyphshow

/DejaVuSans findfont
12.0 scalefont
setfont
13.241016 0.875000 moveto
/slash glyphshow

/DejaVuSans-Oblique findfont
12.0 scalefont
setfont
17.283984 0.875000 moveto
/E glyphshow

/DejaVuSerif findfont
12.0 scalefont
setfont
24.866016 0.875000 moveto
/comma glyphshow

28.680469 0.875000 moveto
/space glyphshow

32.494922 0.875000 moveto
/w glyphshow

42.766406 0.875000 moveto
/slash glyphshow

46.809375 0.875000 moveto
/o glyphshow

54.033984 0.875000 moveto
/space glyphshow

57.848438 0.875000 moveto
/q glyphshow

65.530078 0.875000 moveto
/u glyphshow

73.258594 0.875000 moveto
/a glyphshow

80.412891 0.875000 moveto
/d glyphshow

88.094531 0.875000 moveto
/s glyphshow


grestore
2 setlinecap
[] 0 setdash
0.000 0.000 1.000 setrgbcolor
gsave
382.6 107.3 m
407.8 107.3 l
stroke
grestore
0.000 setgray
gsave
412.600000 103.100000 translate
0.000000 rotate
/DejaVuSans-Oblique findfont
12.0 scalefont
setfont
0.000000 0.875000 moveto
/sigma glyphshow

/DejaVuSans-Oblique findfont
8.4 scalefont
setfont
7.605469 -1.093750 moveto
/E glyphshow

/DejaVuSans findfont
12.0 scalefont
setfont
13.241016 0.875000 moveto
/slash glyphshow

/DejaVuSans-Oblique findfont
12.0 scalefont
setfont
17.283984 0.875000 moveto
/E glyphshow

/DejaVuSerif findfont
12.0 scalefont
setfont
24.866016 0.875000 moveto
/comma glyphshow

28.680469 0.875000 moveto
/space glyphshow

32.494922 0.875000 moveto
/w glyphshow

42.766406 0.875000 moveto
/slash glyphshow

46.809375 0.875000 moveto
/space glyphshow

50.623828 0.875000 moveto
/q glyphshow

58.305469 0.875000 moveto
/u glyphshow

66.033984 0.875000 moveto
/a glyphshow

73.188281 0.875000 moveto
/d glyphshow

80.869922 0.875000 moveto
/s glyphshow


grestore

end
showpage
