%!PS-Adobe-3.0 EPSF-3.0
%%Title: sco-rms_xy-z.eps
%%Creator: matplotlib version 2.2.3, http://matplotlib.org/
%%CreationDate: Sun Nov 25 20:12:16 2018
%%Orientation: portrait
%%BoundingBox: 18 252 594 540
%%EndComments
%%BeginProlog
/mpldict 9 dict def
mpldict begin
/m { moveto } bind def
/l { lineto } bind def
/r { rlineto } bind def
/c { curveto } bind def
/cl { closepath } bind def
/box {
m
1 index 0 r
0 exch r
neg 0 r
cl
} bind def
/clipbox {
box
clip
newpath
} bind def
%!PS-Adobe-3.0 Resource-Font
%%Title: DejaVu Sans Oblique
%%Copyright: Copyright (c) 2003 by Bitstream, Inc. All Rights Reserved. Copyright (c) 2006 by Tavmjong Bah. All Rights Reserved. DejaVu changes are in public domain 
%%Creator: Converted from TrueType to type 3 by PPR
25 dict begin
/_d{bind def}bind def
/_m{moveto}_d
/_l{lineto}_d
/_cl{closepath eofill}_d
/_c{curveto}_d
/_sc{7 -1 roll{setcachedevice}{pop pop pop pop pop pop}ifelse}_d
/_e{exec}_d
/FontName /DejaVuSans-Oblique def
/PaintType 0 def
/FontMatrix[.001 0 0 .001 0 0]def
/FontBBox[-1016 -350 1659 1068]def
/FontType 3 def
/Encoding [ /x /y /z /sigma ] def
/FontInfo 10 dict dup begin
/FamilyName (DejaVu Sans) def
/FullName (DejaVu Sans Oblique) def
/Notice (Copyright (c) 2003 by Bitstream, Inc. All Rights Reserved. Copyright (c) 2006 by Tavmjong Bah. All Rights Reserved. DejaVu changes are in public domain ) def
/Weight (Oblique) def
/Version (Version 2.35) def
/ItalicAngle -11.0 def
/isFixedPitch false def
/UnderlinePosition -130 def
/UnderlineThickness 90 def
end readonly def
/CharStrings 5 dict dup begin
/.notdef 0 def
/x{592 0 -25 0 600 547 _sc
600 547 _m
349 279 _l
503 0 _l
400 0 _l
284 217 _l
83 0 _l
-25 0 _l
243 288 _l
100 547 _l
203 547 _l
308 349 _l
491 547 _l
600 547 _l
_cl}_d
/y{592 0 -24 -207 603 547 _sc
248 -50 _m
206 -120 172 -163 146 -181 _c
120 -198 86 -207 46 -207 _c
-24 -207 _l
-9 -132 _l
42 -132 _l
67 -132 88 -125 106 -111 _c
123 -97 143 -71 165 -31 _c
193 20 _l
72 547 _l
167 547 _l
258 128 _l
509 547 _l
603 547 _l
248 -50 _l
_cl}_d
/z{525 0 -2 0 543 547 _sc
116 547 _m
543 547 _l
527 465 _l
115 72 _l
455 72 _l
441 0 _l
-2 0 _l
13 82 _l
425 475 _l
102 475 _l
116 547 _l
_cl}_d
/sigma{{634 0 57 -13 659 547 _sc
347 476 _m
297 476 255 458 222 422 _c
186 384 163 335 151 273 _c
138 207 142 156 163 118 _c
183 80 218 62 267 62 _c
314 62 355 81 391 119 _c
426 156 450 207 463 273 _c
474 332 470 382 450 422 _c
431 458 397 476 347 476 _c
361 547 _m
659 547 _l
642 457 _l
541 457 _l
566 406 572 345 559 273 _c
541 183 505 113 451 63 _c
396 12 329 -13 251 -13 _c
}_e{173 -13 116 12 82 63 _c
47 113 39 183 57 273 _c
74 363 110 433 164 484 _c
209 526 275 547 361 547 _c
_cl}_e}_d
end readonly def

/BuildGlyph
 {exch begin
 CharStrings exch
 2 copy known not{pop /.notdef}if
 true 3 1 roll get exec
 end}_d

/BuildChar {
 1 index /Encoding get exch get
 1 index /BuildGlyph get exec
}_d

FontName currentdict end definefont pop
%!PS-Adobe-3.0 Resource-Font
%%Title: DejaVu Sans
%%Copyright: Copyright (c) 2003 by Bitstream, Inc. All Rights Reserved. Copyright (c) 2006 by Tavmjong Bah. All Rights Reserved. DejaVu changes are in public domain 
%%Creator: Converted from TrueType to type 3 by PPR
25 dict begin
/_d{bind def}bind def
/_m{moveto}_d
/_l{lineto}_d
/_cl{closepath eofill}_d
/_c{curveto}_d
/_sc{7 -1 roll{setcachedevice}{pop pop pop pop pop pop}ifelse}_d
/_e{exec}_d
/FontName /DejaVuSans def
/PaintType 0 def
/FontMatrix[.001 0 0 .001 0 0]def
/FontBBox[-1021 -463 1793 1232]def
/FontType 3 def
/Encoding [ /space /parenleft /parenright /period /slash /zero /one /two /four /five /six /eight /m /x /y ] def
/FontInfo 10 dict dup begin
/FamilyName (DejaVu Sans) def
/FullName (DejaVu Sans) def
/Notice (Copyright (c) 2003 by Bitstream, Inc. All Rights Reserved. Copyright (c) 2006 by Tavmjong Bah. All Rights Reserved. DejaVu changes are in public domain ) def
/Weight (Book) def
/Version (Version 2.35) def
/ItalicAngle 0.0 def
/isFixedPitch false def
/UnderlinePosition -130 def
/UnderlineThickness 90 def
end readonly def
/CharStrings 16 dict dup begin
/.notdef 0 def
/space{318 0 0 0 0 0 _sc
}_d
/parenleft{390 0 86 -131 310 759 _sc
310 759 _m
266 683 234 609 213 536 _c
191 463 181 389 181 314 _c
181 238 191 164 213 91 _c
234 17 266 -56 310 -131 _c
232 -131 _l
183 -54 146 20 122 94 _c
98 168 86 241 86 314 _c
86 386 98 459 122 533 _c
146 607 182 682 232 759 _c
310 759 _l
_cl}_d
/parenright{390 0 80 -131 304 759 _sc
80 759 _m
158 759 _l
206 682 243 607 267 533 _c
291 459 304 386 304 314 _c
304 241 291 168 267 94 _c
243 20 206 -54 158 -131 _c
80 -131 _l
123 -56 155 17 177 91 _c
198 164 209 238 209 314 _c
209 389 198 463 177 536 _c
155 609 123 683 80 759 _c
_cl}_d
/period{318 0 107 0 210 124 _sc
107 124 _m
210 124 _l
210 0 _l
107 0 _l
107 124 _l
_cl}_d
/slash{337 0 0 -92 337 729 _sc
254 729 _m
337 729 _l
83 -92 _l
0 -92 _l
254 729 _l
_cl}_d
/zero{636 0 66 -13 570 742 _sc
318 664 _m
267 664 229 639 203 589 _c
177 539 165 464 165 364 _c
165 264 177 189 203 139 _c
229 89 267 64 318 64 _c
369 64 407 89 433 139 _c
458 189 471 264 471 364 _c
471 464 458 539 433 589 _c
407 639 369 664 318 664 _c
318 742 _m
399 742 461 709 505 645 _c
548 580 570 486 570 364 _c
570 241 548 147 505 83 _c
461 19 399 -13 318 -13 _c
236 -13 173 19 130 83 _c
87 147 66 241 66 364 _c
66 486 87 580 130 645 _c
173 709 236 742 318 742 _c
_cl}_d
/one{636 0 110 0 544 729 _sc
124 83 _m
285 83 _l
285 639 _l
110 604 _l
110 694 _l
284 729 _l
383 729 _l
383 83 _l
544 83 _l
544 0 _l
124 0 _l
124 83 _l
_cl}_d
/two{{636 0 73 0 536 742 _sc
192 83 _m
536 83 _l
536 0 _l
73 0 _l
73 83 _l
110 121 161 173 226 239 _c
290 304 331 346 348 365 _c
380 400 402 430 414 455 _c
426 479 433 504 433 528 _c
433 566 419 598 392 622 _c
365 646 330 659 286 659 _c
255 659 222 653 188 643 _c
154 632 117 616 78 594 _c
78 694 _l
118 710 155 722 189 730 _c
223 738 255 742 284 742 _c
}_e{359 742 419 723 464 685 _c
509 647 532 597 532 534 _c
532 504 526 475 515 449 _c
504 422 484 390 454 354 _c
446 344 420 317 376 272 _c
332 227 271 164 192 83 _c
_cl}_e}_d
/four{636 0 49 0 580 729 _sc
378 643 _m
129 254 _l
378 254 _l
378 643 _l
352 729 _m
476 729 _l
476 254 _l
580 254 _l
580 172 _l
476 172 _l
476 0 _l
378 0 _l
378 172 _l
49 172 _l
49 267 _l
352 729 _l
_cl}_d
/five{{636 0 77 -13 549 729 _sc
108 729 _m
495 729 _l
495 646 _l
198 646 _l
198 467 _l
212 472 227 476 241 478 _c
255 480 270 482 284 482 _c
365 482 429 459 477 415 _c
525 370 549 310 549 234 _c
549 155 524 94 475 51 _c
426 8 357 -13 269 -13 _c
238 -13 207 -10 175 -6 _c
143 -1 111 6 77 17 _c
77 116 _l
106 100 136 88 168 80 _c
199 72 232 69 267 69 _c
}_e{323 69 368 83 401 113 _c
433 143 450 183 450 234 _c
450 284 433 324 401 354 _c
368 384 323 399 267 399 _c
241 399 214 396 188 390 _c
162 384 135 375 108 363 _c
108 729 _l
_cl}_e}_d
/six{{636 0 70 -13 573 742 _sc
330 404 _m
286 404 251 388 225 358 _c
199 328 186 286 186 234 _c
186 181 199 139 225 109 _c
251 79 286 64 330 64 _c
374 64 409 79 435 109 _c
461 139 474 181 474 234 _c
474 286 461 328 435 358 _c
409 388 374 404 330 404 _c
526 713 _m
526 623 _l
501 635 476 644 451 650 _c
425 656 400 659 376 659 _c
310 659 260 637 226 593 _c
}_e{192 549 172 482 168 394 _c
187 422 211 444 240 459 _c
269 474 301 482 336 482 _c
409 482 467 459 509 415 _c
551 371 573 310 573 234 _c
573 159 550 99 506 54 _c
462 9 403 -13 330 -13 _c
246 -13 181 19 137 83 _c
92 147 70 241 70 364 _c
70 479 97 571 152 639 _c
206 707 280 742 372 742 _c
396 742 421 739 447 735 _c
472 730 498 723 526 713 _c
_cl}_e}_d
/eight{{636 0 68 -13 568 742 _sc
318 346 _m
271 346 234 333 207 308 _c
180 283 167 249 167 205 _c
167 161 180 126 207 101 _c
234 76 271 64 318 64 _c
364 64 401 76 428 102 _c
455 127 469 161 469 205 _c
469 249 455 283 429 308 _c
402 333 365 346 318 346 _c
219 388 _m
177 398 144 418 120 447 _c
96 476 85 511 85 553 _c
85 611 105 657 147 691 _c
188 725 245 742 318 742 _c
}_e{390 742 447 725 489 691 _c
530 657 551 611 551 553 _c
551 511 539 476 515 447 _c
491 418 459 398 417 388 _c
464 377 501 355 528 323 _c
554 291 568 251 568 205 _c
568 134 546 80 503 43 _c
459 5 398 -13 318 -13 _c
237 -13 175 5 132 43 _c
89 80 68 134 68 205 _c
68 251 81 291 108 323 _c
134 355 171 377 219 388 _c
183 544 _m
183 506 194 476 218 455 _c
}_e{242 434 275 424 318 424 _c
360 424 393 434 417 455 _c
441 476 453 506 453 544 _c
453 582 441 611 417 632 _c
393 653 360 664 318 664 _c
275 664 242 653 218 632 _c
194 611 183 582 183 544 _c
_cl}_e}_d
/m{{974 0 91 0 889 560 _sc
520 442 _m
542 482 569 511 600 531 _c
631 550 668 560 711 560 _c
767 560 811 540 842 500 _c
873 460 889 403 889 330 _c
889 0 _l
799 0 _l
799 327 _l
799 379 789 418 771 444 _c
752 469 724 482 686 482 _c
639 482 602 466 575 435 _c
548 404 535 362 535 309 _c
535 0 _l
445 0 _l
445 327 _l
445 379 435 418 417 444 _c
398 469 369 482 331 482 _c
}_e{285 482 248 466 221 435 _c
194 404 181 362 181 309 _c
181 0 _l
91 0 _l
91 547 _l
181 547 _l
181 462 _l
201 495 226 520 255 536 _c
283 552 317 560 357 560 _c
397 560 430 550 458 530 _c
486 510 506 480 520 442 _c
_cl}_e}_d
/x{592 0 29 0 559 547 _sc
549 547 _m
351 281 _l
559 0 _l
453 0 _l
294 215 _l
135 0 _l
29 0 _l
241 286 _l
47 547 _l
153 547 _l
298 352 _l
443 547 _l
549 547 _l
_cl}_d
/y{592 0 30 -207 562 547 _sc
322 -50 _m
296 -114 271 -157 247 -177 _c
223 -197 191 -207 151 -207 _c
79 -207 _l
79 -132 _l
132 -132 _l
156 -132 175 -126 189 -114 _c
203 -102 218 -75 235 -31 _c
251 9 _l
30 547 _l
125 547 _l
296 119 _l
467 547 _l
562 547 _l
322 -50 _l
_cl}_d
end readonly def

/BuildGlyph
 {exch begin
 CharStrings exch
 2 copy known not{pop /.notdef}if
 true 3 1 roll get exec
 end}_d

/BuildChar {
 1 index /Encoding get exch get
 1 index /BuildGlyph get exec
}_d

FontName currentdict end definefont pop
end
%%EndProlog
mpldict begin
18 252 translate
576 288 0 0 clipbox
gsave
0 0 m
576 0 l
576 288 l
0 288 l
cl
1.000 setgray
fill
grestore
gsave
72 31.68 m
518.4 31.68 l
518.4 253.44 l
72 253.44 l
cl
1.000 setgray
fill
grestore
0.800 setlinewidth
1 setlinejoin
2 setlinecap
[] 0 setdash
0.690 setgray
gsave
446.4 221.8 72 31.68 clipbox
92.244461 31.68 m
92.244461 253.44 l
stroke
grestore
0 setlinecap
0.000 setgray
gsave
/o {
gsave
newpath
translate
0.8 setlinewidth
1 setlinejoin
0 setlinecap
0 0 m
0 -3.5 l

gsave
0.000 setgray
fill
grestore
stroke
grestore
} bind def
92.2445 31.68 o
grestore
/DejaVuSans findfont
10.000 scalefont
setfont
gsave
89.064773 17.086250 translate
0.000000 rotate
0.000000 0.000000 m /zero glyphshow
grestore
2 setlinecap
0.690 setgray
gsave
446.4 221.8 72 31.68 clipbox
185.14092 31.68 m
185.14092 253.44 l
stroke
grestore
0 setlinecap
0.000 setgray
gsave
/o {
gsave
newpath
translate
0.8 setlinewidth
1 setlinejoin
0 setlinecap
0 0 m
0 -3.5 l

gsave
0.000 setgray
fill
grestore
stroke
grestore
} bind def
185.141 31.68 o
grestore
gsave
181.961233 17.086250 translate
0.000000 rotate
0.000000 0.000000 m /two glyphshow
grestore
2 setlinecap
0.690 setgray
gsave
446.4 221.8 72 31.68 clipbox
278.037379 31.68 m
278.037379 253.44 l
stroke
grestore
0 setlinecap
0.000 setgray
gsave
/o {
gsave
newpath
translate
0.8 setlinewidth
1 setlinejoin
0 setlinecap
0 0 m
0 -3.5 l

gsave
0.000 setgray
fill
grestore
stroke
grestore
} bind def
278.037 31.68 o
grestore
gsave
274.857692 17.086250 translate
0.000000 rotate
0.000000 0.000000 m /four glyphshow
grestore
2 setlinecap
0.690 setgray
gsave
446.4 221.8 72 31.68 clipbox
370.933838 31.68 m
370.933838 253.44 l
stroke
grestore
0 setlinecap
0.000 setgray
gsave
/o {
gsave
newpath
translate
0.8 setlinewidth
1 setlinejoin
0 setlinecap
0 0 m
0 -3.5 l

gsave
0.000 setgray
fill
grestore
stroke
grestore
} bind def
370.934 31.68 o
grestore
gsave
367.754151 17.086250 translate
0.000000 rotate
0.000000 0.000000 m /six glyphshow
grestore
2 setlinecap
0.690 setgray
gsave
446.4 221.8 72 31.68 clipbox
463.830297 31.68 m
463.830297 253.44 l
stroke
grestore
0 setlinecap
0.000 setgray
gsave
/o {
gsave
newpath
translate
0.8 setlinewidth
1 setlinejoin
0 setlinecap
0 0 m
0 -3.5 l

gsave
0.000 setgray
fill
grestore
stroke
grestore
} bind def
463.83 31.68 o
grestore
gsave
460.650610 17.086250 translate
0.000000 rotate
0.000000 0.000000 m /eight glyphshow
grestore
gsave
282.200000 3.086250 translate
0.000000 rotate
/DejaVuSans-Oblique findfont
10.0 scalefont
setfont
0.000000 0.406250 moveto
/z glyphshow

/DejaVuSans findfont
10.0 scalefont
setfont
5.249023 0.406250 moveto
/space glyphshow

8.427734 0.406250 moveto
/parenleft glyphshow

12.329102 0.406250 moveto
/m glyphshow

22.070312 0.406250 moveto
/parenright glyphshow


grestore
2 setlinecap
0.690 setgray
gsave
446.4 221.8 72 31.68 clipbox
72 56.857087 m
518.4 56.857087 l
stroke
grestore
0 setlinecap
0.000 setgray
gsave
/o {
gsave
newpath
translate
0.8 setlinewidth
1 setlinejoin
0 setlinecap
0 0 m
-3.5 0 l

gsave
0.000 setgray
fill
grestore
stroke
grestore
} bind def
72 56.8571 o
grestore
gsave
49.093750 53.060212 translate
0.000000 rotate
0.000000 0.000000 m /zero glyphshow
6.362305 0.000000 m /period glyphshow
9.541016 0.000000 m /five glyphshow
grestore
2 setlinecap
0.690 setgray
gsave
446.4 221.8 72 31.68 clipbox
72 99.493146 m
518.4 99.493146 l
stroke
grestore
0 setlinecap
0.000 setgray
gsave
/o {
gsave
newpath
translate
0.8 setlinewidth
1 setlinejoin
0 setlinecap
0 0 m
-3.5 0 l

gsave
0.000 setgray
fill
grestore
stroke
grestore
} bind def
72 99.4931 o
grestore
gsave
49.093750 95.696271 translate
0.000000 rotate
0.000000 0.000000 m /one glyphshow
6.362305 0.000000 m /period glyphshow
9.541016 0.000000 m /zero glyphshow
grestore
2 setlinecap
0.690 setgray
gsave
446.4 221.8 72 31.68 clipbox
72 142.129205 m
518.4 142.129205 l
stroke
grestore
0 setlinecap
0.000 setgray
gsave
/o {
gsave
newpath
translate
0.8 setlinewidth
1 setlinejoin
0 setlinecap
0 0 m
-3.5 0 l

gsave
0.000 setgray
fill
grestore
stroke
grestore
} bind def
72 142.129 o
grestore
gsave
49.093750 138.332330 translate
0.000000 rotate
0.000000 0.000000 m /one glyphshow
6.362305 0.000000 m /period glyphshow
9.541016 0.000000 m /five glyphshow
grestore
2 setlinecap
0.690 setgray
gsave
446.4 221.8 72 31.68 clipbox
72 184.765264 m
518.4 184.765264 l
stroke
grestore
0 setlinecap
0.000 setgray
gsave
/o {
gsave
newpath
translate
0.8 setlinewidth
1 setlinejoin
0 setlinecap
0 0 m
-3.5 0 l

gsave
0.000 setgray
fill
grestore
stroke
grestore
} bind def
72 184.765 o
grestore
gsave
49.093750 180.968389 translate
0.000000 rotate
0.000000 0.000000 m /two glyphshow
6.362305 0.000000 m /period glyphshow
9.541016 0.000000 m /zero glyphshow
grestore
2 setlinecap
0.690 setgray
gsave
446.4 221.8 72 31.68 clipbox
72 227.401323 m
518.4 227.401323 l
stroke
grestore
0 setlinecap
0.000 setgray
gsave
/o {
gsave
newpath
translate
0.8 setlinewidth
1 setlinejoin
0 setlinecap
0 0 m
-3.5 0 l

gsave
0.000 setgray
fill
grestore
stroke
grestore
} bind def
72 227.401 o
grestore
gsave
49.093750 223.604448 translate
0.000000 rotate
0.000000 0.000000 m /two glyphshow
6.362305 0.000000 m /period glyphshow
9.541016 0.000000 m /five glyphshow
grestore
gsave
41.093750 118.560000 translate
90.000000 rotate
/DejaVuSans-Oblique findfont
10.0 scalefont
setfont
0.000000 0.406250 moveto
/sigma glyphshow

/DejaVuSans-Oblique findfont
7.0 scalefont
setfont
6.337891 -1.234375 moveto
/x glyphshow

/DejaVuSans findfont
7.0 scalefont
setfont
10.480469 -1.234375 moveto
/slash glyphshow

/DejaVuSans-Oblique findfont
7.0 scalefont
setfont
12.838867 -1.234375 moveto
/y glyphshow

/DejaVuSans findfont
10.0 scalefont
setfont
17.254883 0.406250 moveto
/space glyphshow

20.433594 0.406250 moveto
/parenleft glyphshow

24.334961 0.406250 moveto
/m glyphshow

34.076172 0.406250 moveto
/m glyphshow

43.817383 0.406250 moveto
/parenright glyphshow


grestore
1.500 setlinewidth
2 setlinecap
0.122 0.467 0.706 setrgbcolor
gsave
446.4 221.8 72 31.68 clipbox
92.290909 110.182859 m
100.465797 108.495324 l
108.036859 107.217947 l
115.60792 106.217706 l
123.086085 105.505683 l
127.452219 105.215758 l
134.280109 104.950562 l
138.646242 104.900251 l
145.567028 105.010252 l
153.230986 105.401651 l
160.894944 106.074448 l
168.791143 107.05593 l
172.657958 107.732138 l
175.421628 108.605325 l
185.500894 112.23877 l
190.05282 114.026926 l
197.763226 117.260445 l
206.541942 121.249474 l
211.604799 123.694226 l
220.058377 128.008143 l
221.173134 128.479697 l
221.962754 128.543651 l
222.705926 128.389309 l
223.495546 127.997057 l
230.207315 123.694226 l
239.496961 118.025336 l
249.111744 112.505672 l
258.633631 107.387639 l
264.021626 104.643582 l
270.570826 101.51239 l
271.406894 101.370838 l
272.289411 101.447583 l
273.148703 101.746888 l
280.069489 105.045214 l
289.916514 110.048982 l
300.042228 115.565235 l
310.446631 121.613586 l
321.176172 128.243494 l
327.167994 132.113995 l
337.851087 139.306698 l
349.648937 147.67104 l
361.818373 156.744846 l
368.506918 161.918306 l
375.00967 167.0713 l
387.550692 177.343179 l
401.53161 189.294919 l
415.930561 202.130078 l
431.119132 216.221296 l
433.453155 218.31899 l
433.824741 218.322401 l
434.196327 218.093019 l
434.614361 217.55751 l
435.125292 216.503546 l
435.729119 214.694925 l
436.495514 211.594431 l
451.242827 148.680662 l
451.846654 147.073283 l
452.357585 146.267461 l
452.775619 145.984358 l
453.100756 145.997149 l
453.472342 146.261492 l
453.9136 146.920646 l
467.151346 171.455139 l
469.032499 174.762845 l
469.636326 175.301765 l
470.100808 175.460371 l
470.565291 175.394711 l
471.029773 175.105639 l
471.563928 174.498501 l
484.848121 156.638256 l
493.905526 144.849386 l
498.109091 139.509646 l
498.109091 139.509646 l
stroke
grestore
1.000 0.498 0.055 setrgbcolor
gsave
446.4 221.8 72 31.68 clipbox
92.290909 114.56073 m
98.747213 113.368625 l
106.736308 112.161172 l
114.493163 111.276048 l
118.952193 110.895734 l
126.012324 110.488133 l
133.72273 110.315884 l
138.135312 110.344876 l
145.195443 110.585343 l
152.952297 111.12341 l
160.709151 111.945434 l
168.60535 113.071026 l
172.983096 113.685838 l
176.211248 113.753203 l
182.806896 113.985143 l
187.498168 114.268246 l
195.208574 114.944454 l
203.847944 116.007797 l
212.533763 117.394322 l
220.7551 119.016198 l
221.591168 119.425504 l
222.427236 120.082099 l
223.402649 121.165055 l
228.76742 128.338146 l
241.912269 146.382579 l
251.712845 160.246119 l
262.395938 175.737505 l
270.98886 188.166769 l
271.685584 188.647704 l
272.335859 188.839566 l
272.939686 188.794372 l
274.681495 188.200025 l
281.695177 185.871244 l
287.779895 183.97735 l
299.159712 180.748947 l
310.957562 177.830936 l
322.755412 175.345253 l
328.793682 174.237569 l
340.870222 172.35476 l
347.001388 171.56514 l
359.495962 170.300555 l
365.766473 169.835822 l
378.818425 169.227832 l
385.228281 169.102482 l
399.023405 169.213335 l
412.911426 169.834116 l
427.49617 171.015988 l
433.267362 171.651265 l
433.685396 171.913903 l
434.149879 172.474141 l
434.707258 173.519577 l
435.357533 175.259128 l
436.100704 177.938378 l
440.072028 194.885359 l
451.289275 242.464643 l
451.70731 243.195425 l
452.032447 243.36 l
452.311137 243.219301 l
452.636274 242.726428 l
453.00786 241.731303 l
453.518791 239.613996 l
454.238738 235.398142 l
469.311189 143.651313 l
470.518843 137.851103 l
471.656824 133.447651 l
486.891843 80.151639 l
497.249799 44.648934 l
498.109091 41.76 l
498.109091 41.76 l
stroke
grestore
0.800 setlinewidth
0 setlinejoin
[] 0 setdash
0.000 setgray
gsave
72 31.68 m
72 253.44 l
stroke
grestore
gsave
518.4 31.68 m
518.4 253.44 l
stroke
grestore
gsave
72 31.68 m
518.4 31.68 l
stroke
grestore
gsave
72 253.44 m
518.4 253.44 l
stroke
grestore
1.000 setlinewidth
0 setlinecap
0.800 setgray
gsave
473.478125 216.09625 m
511.4 216.09625 l
512.733333 216.09625 513.4 216.762917 513.4 218.09625 c
513.4 246.44 l
513.4 247.773333 512.733333 248.44 511.4 248.44 c
473.478125 248.44 l
472.144792 248.44 471.478125 247.773333 471.478125 246.44 c
471.478125 218.09625 l
471.478125 216.762917 472.144792 216.09625 473.478125 216.09625 c
cl
gsave
1.000 setgray
fill
grestore
stroke
grestore
1.500 setlinewidth
1 setlinejoin
2 setlinecap
[] 0 setdash
0.122 0.467 0.706 setrgbcolor
gsave
475.478125 240.34625 m
495.478125 240.34625 l
stroke
grestore
0.000 setgray
gsave
503.478125 236.846250 translate
0.000000 rotate
0.000000 0.000000 m /x glyphshow
grestore
1.000 0.498 0.055 setrgbcolor
gsave
475.478125 225.674375 m
495.478125 225.674375 l
stroke
grestore
0.000 setgray
gsave
503.478125 222.174375 translate
0.000000 rotate
0.000000 0.000000 m /y glyphshow
grestore

end
showpage
