%!PS-Adobe-3.0 EPSF-3.0
%%Title: sco-rms_xy-z__1.eps
%%Creator: matplotlib version 2.2.3, http://matplotlib.org/
%%CreationDate: Tue Feb 12 17:41:18 2019
%%Orientation: portrait
%%BoundingBox: 18 252 594 540
%%EndComments
%%BeginProlog
/mpldict 10 dict def
mpldict begin
/m { moveto } bind def
/l { lineto } bind def
/r { rlineto } bind def
/c { curveto } bind def
/cl { closepath } bind def
/box {
m
1 index 0 r
0 exch r
neg 0 r
cl
} bind def
/clipbox {
box
clip
newpath
} bind def
%!PS-Adobe-3.0 Resource-Font
%%Title: DejaVu Sans Oblique
%%Copyright: Copyright (c) 2003 by Bitstream, Inc. All Rights Reserved. Copyright (c) 2006 by Tavmjong Bah. All Rights Reserved. DejaVu changes are in public domain 
%%Creator: Converted from TrueType to type 3 by PPR
25 dict begin
/_d{bind def}bind def
/_m{moveto}_d
/_l{lineto}_d
/_cl{closepath eofill}_d
/_c{curveto}_d
/_sc{7 -1 roll{setcachedevice}{pop pop pop pop pop pop}ifelse}_d
/_e{exec}_d
/FontName /DejaVuSans-Oblique def
/PaintType 0 def
/FontMatrix[.001 0 0 .001 0 0]def
/FontBBox[-1016 -350 1659 1068]def
/FontType 3 def
/Encoding [ /x /y /z /sigma ] def
/FontInfo 10 dict dup begin
/FamilyName (DejaVu Sans) def
/FullName (DejaVu Sans Oblique) def
/Notice (Copyright (c) 2003 by Bitstream, Inc. All Rights Reserved. Copyright (c) 2006 by Tavmjong Bah. All Rights Reserved. DejaVu changes are in public domain ) def
/Weight (Oblique) def
/Version (Version 2.35) def
/ItalicAngle -11.0 def
/isFixedPitch false def
/UnderlinePosition -130 def
/UnderlineThickness 90 def
end readonly def
/CharStrings 5 dict dup begin
/.notdef 0 def
/x{592 0 -25 0 600 547 _sc
600 547 _m
349 279 _l
503 0 _l
400 0 _l
284 217 _l
83 0 _l
-25 0 _l
243 288 _l
100 547 _l
203 547 _l
308 349 _l
491 547 _l
600 547 _l
_cl}_d
/y{592 0 -24 -207 603 547 _sc
248 -50 _m
206 -120 172 -163 146 -181 _c
120 -198 86 -207 46 -207 _c
-24 -207 _l
-9 -132 _l
42 -132 _l
67 -132 88 -125 106 -111 _c
123 -97 143 -71 165 -31 _c
193 20 _l
72 547 _l
167 547 _l
258 128 _l
509 547 _l
603 547 _l
248 -50 _l
_cl}_d
/z{525 0 -2 0 543 547 _sc
116 547 _m
543 547 _l
527 465 _l
115 72 _l
455 72 _l
441 0 _l
-2 0 _l
13 82 _l
425 475 _l
102 475 _l
116 547 _l
_cl}_d
/sigma{{634 0 57 -13 659 547 _sc
347 476 _m
297 476 255 458 222 422 _c
186 384 163 335 151 273 _c
138 207 142 156 163 118 _c
183 80 218 62 267 62 _c
314 62 355 81 391 119 _c
426 156 450 207 463 273 _c
474 332 470 382 450 422 _c
431 458 397 476 347 476 _c
361 547 _m
659 547 _l
642 457 _l
541 457 _l
566 406 572 345 559 273 _c
541 183 505 113 451 63 _c
396 12 329 -13 251 -13 _c
}_e{173 -13 116 12 82 63 _c
47 113 39 183 57 273 _c
74 363 110 433 164 484 _c
209 526 275 547 361 547 _c
_cl}_e}_d
end readonly def

/BuildGlyph
 {exch begin
 CharStrings exch
 2 copy known not{pop /.notdef}if
 true 3 1 roll get exec
 end}_d

/BuildChar {
 1 index /Encoding get exch get
 1 index /BuildGlyph get exec
}_d

FontName currentdict end definefont pop
%!PS-Adobe-3.0 Resource-Font
%%Title: DejaVu Sans
%%Copyright: Copyright (c) 2003 by Bitstream, Inc. All Rights Reserved. Copyright (c) 2006 by Tavmjong Bah. All Rights Reserved. DejaVu changes are in public domain 
%%Creator: Converted from TrueType to type 3 by PPR
25 dict begin
/_d{bind def}bind def
/_m{moveto}_d
/_l{lineto}_d
/_cl{closepath eofill}_d
/_c{curveto}_d
/_sc{7 -1 roll{setcachedevice}{pop pop pop pop pop pop}ifelse}_d
/_e{exec}_d
/FontName /DejaVuSans def
/PaintType 0 def
/FontMatrix[.001 0 0 .001 0 0]def
/FontBBox[-1021 -463 1793 1232]def
/FontType 3 def
/Encoding [ /slash ] def
/FontInfo 10 dict dup begin
/FamilyName (DejaVu Sans) def
/FullName (DejaVu Sans) def
/Notice (Copyright (c) 2003 by Bitstream, Inc. All Rights Reserved. Copyright (c) 2006 by Tavmjong Bah. All Rights Reserved. DejaVu changes are in public domain ) def
/Weight (Book) def
/Version (Version 2.35) def
/ItalicAngle 0.0 def
/isFixedPitch false def
/UnderlinePosition -130 def
/UnderlineThickness 90 def
end readonly def
/CharStrings 2 dict dup begin
/.notdef 0 def
/slash{337 0 0 -92 337 729 _sc
254 729 _m
337 729 _l
83 -92 _l
0 -92 _l
254 729 _l
_cl}_d
end readonly def

/BuildGlyph
 {exch begin
 CharStrings exch
 2 copy known not{pop /.notdef}if
 true 3 1 roll get exec
 end}_d

/BuildChar {
 1 index /Encoding get exch get
 1 index /BuildGlyph get exec
}_d

FontName currentdict end definefont pop
%!PS-Adobe-3.0 Resource-Font
%%Title: DejaVu Serif
%%Copyright: Copyright (c) 2003 by Bitstream, Inc. All Rights Reserved. DejaVu changes are in public domain 
%%Creator: Converted from TrueType to type 3 by PPR
25 dict begin
/_d{bind def}bind def
/_m{moveto}_d
/_l{lineto}_d
/_cl{closepath eofill}_d
/_c{curveto}_d
/_sc{7 -1 roll{setcachedevice}{pop pop pop pop pop pop}ifelse}_d
/_e{exec}_d
/FontName /DejaVuSerif def
/PaintType 0 def
/FontMatrix[.001 0 0 .001 0 0]def
/FontBBox[-770 -347 2105 1109]def
/FontType 3 def
/Encoding [ /space /parenleft /parenright /period /zero /one /two /three /four /five /six /eight /m /x /y ] def
/FontInfo 10 dict dup begin
/FamilyName (DejaVu Serif) def
/FullName (DejaVu Serif) def
/Notice (Copyright (c) 2003 by Bitstream, Inc. All Rights Reserved. DejaVu changes are in public domain ) def
/Weight (Book) def
/Version (Version 2.35) def
/ItalicAngle 0.0 def
/isFixedPitch false def
/UnderlinePosition -130 def
/UnderlineThickness 90 def
end readonly def
/CharStrings 16 dict dup begin
/.notdef 0 def
/space{318 0 0 0 0 0 _sc
}_d
/parenleft{390 0 79 -155 319 760 _sc
319 -155 _m
239 -119 179 -63 139 13 _c
99 89 79 186 79 302 _c
79 418 99 514 139 591 _c
179 668 239 724 319 760 _c
319 712 _l
269 677 233 628 211 566 _c
189 503 178 415 178 302 _c
178 188 189 100 211 38 _c
233 -24 269 -72 319 -107 _c
319 -155 _l
_cl}_d
/parenright{390 0 71 -155 311 760 _sc
71 -155 _m
71 -107 _l
121 -72 157 -24 179 38 _c
201 100 212 188 212 302 _c
212 415 201 503 179 566 _c
157 628 121 677 71 712 _c
71 760 _l
150 724 210 668 250 591 _c
290 514 311 418 311 302 _c
311 186 290 89 250 13 _c
210 -63 150 -119 71 -155 _c
_cl}_d
/period{318 0 94 -13 224 116 _sc
94 51 _m
94 69 100 84 112 97 _c
124 109 140 116 159 116 _c
177 116 192 109 205 97 _c
217 84 224 69 224 51 _c
224 33 217 17 205 5 _c
192 -7 177 -13 159 -13 _c
140 -13 124 -7 112 5 _c
100 17 94 32 94 51 _c
_cl}_d
/zero{636 0 66 -13 570 742 _sc
318 34 _m
368 34 405 61 430 116 _c
454 170 467 253 467 364 _c
467 474 454 557 430 612 _c
405 666 368 694 318 694 _c
268 694 230 666 206 612 _c
181 557 169 474 169 364 _c
169 253 181 170 206 116 _c
230 61 268 34 318 34 _c
318 -13 _m
238 -13 176 20 132 86 _c
88 152 66 244 66 364 _c
66 483 88 576 132 642 _c
176 708 238 742 318 742 _c
397 742 459 708 503 642 _c
547 576 570 483 570 364 _c
570 244 547 152 503 86 _c
459 20 397 -13 318 -13 _c
_cl}_d
/one{636 0 122 0 494 742 _sc
142 0 _m
142 52 _l
269 52 _l
269 658 _l
122 563 _l
122 627 _l
300 742 _l
367 742 _l
367 52 _l
494 52 _l
494 0 _l
142 0 _l
_cl}_d
/two{{636 0 68 0 538 742 _sc
128 555 _m
73 555 _l
73 685 _l
107 703 142 717 178 727 _c
213 737 248 742 282 742 _c
358 742 418 723 462 687 _c
506 650 528 600 528 537 _c
528 465 478 380 378 281 _c
370 273 365 268 361 264 _c
177 80 _l
481 80 _l
481 170 _l
538 170 _l
538 0 _l
68 0 _l
68 53 _l
289 274 _l
337 322 372 367 393 408 _c
414 449 425 492 425 537 _c
}_e{425 586 412 624 386 652 _c
360 680 325 694 281 694 _c
234 694 198 682 173 659 _c
147 636 132 601 128 555 _c
_cl}_e}_d
/three{{636 0 76 -13 562 742 _sc
97 698 _m
135 712 171 723 206 731 _c
241 738 274 742 305 742 _c
376 742 432 726 472 696 _c
512 665 532 622 532 568 _c
532 524 518 487 490 458 _c
462 428 423 408 373 398 _c
433 389 479 367 512 332 _c
545 297 562 252 562 197 _c
562 129 539 77 493 41 _c
447 5 382 -13 296 -13 _c
258 -13 220 -9 184 -1 _c
148 6 112 18 76 35 _c
76 177 _l
}_e{131 177 _l
134 129 150 94 178 70 _c
206 46 246 34 298 34 _c
348 34 387 48 416 77 _c
444 106 459 146 459 196 _c
459 253 444 296 414 326 _c
384 355 341 370 284 370 _c
238 370 _l
238 420 _l
262 420 _l
319 420 362 431 390 455 _c
418 479 433 514 433 562 _c
433 604 421 637 398 660 _c
374 682 341 694 297 694 _c
253 694 218 683 194 662 _c
170 641 156 610 152 570 _c
}_e{97 570 _l
97 698 _l
_cl}_e}_d
/four{636 0 31 0 586 742 _sc
349 247 _m
349 635 _l
100 247 _l
349 247 _l
564 0 _m
232 0 _l
232 52 _l
349 52 _l
349 195 _l
31 195 _l
31 248 _l
350 742 _l
447 742 _l
447 247 _l
586 247 _l
586 195 _l
447 195 _l
447 52 _l
564 52 _l
564 0 _l
_cl}_d
/five{{636 0 85 -13 559 729 _sc
503 729 _m
503 649 _l
169 649 _l
169 440 _l
185 452 205 460 228 466 _c
250 472 276 475 304 475 _c
382 475 444 453 490 409 _c
536 365 559 306 559 231 _c
559 153 536 93 490 51 _c
444 8 379 -13 296 -13 _c
262 -13 228 -9 193 -1 _c
157 6 121 18 85 35 _c
85 177 _l
140 177 _l
143 130 158 94 184 70 _c
210 46 248 34 296 34 _c
}_e{347 34 386 51 414 85 _c
442 119 456 167 456 231 _c
456 294 442 342 415 376 _c
387 410 348 427 296 427 _c
266 427 240 421 218 411 _c
196 401 176 385 159 363 _c
117 363 _l
117 729 _l
503 729 _l
_cl}_e}_d
/six{{636 0 67 -13 573 742 _sc
327 34 _m
373 34 408 50 433 84 _c
457 118 470 166 470 230 _c
470 293 457 341 433 375 _c
408 409 373 426 327 426 _c
280 426 244 409 220 377 _c
196 344 184 297 184 236 _c
184 171 196 121 221 86 _c
245 51 281 34 327 34 _c
168 401 _m
190 425 215 444 243 456 _c
271 468 302 474 338 474 _c
410 474 468 452 510 408 _c
552 364 573 305 573 230 _c
}_e{573 156 550 97 505 53 _c
459 9 399 -13 323 -13 _c
241 -13 177 17 133 78 _c
89 139 67 227 67 341 _c
67 468 93 567 145 637 _c
197 707 271 742 367 742 _c
393 742 420 739 448 735 _c
476 730 505 723 535 713 _c
535 593 _l
480 593 _l
476 625 463 650 442 668 _c
421 685 393 694 357 694 _c
293 694 246 670 215 622 _c
184 574 168 500 168 401 _c
_cl}_e}_d
/eight{{636 0 67 -13 569 742 _sc
466 199 _m
466 251 453 291 427 320 _c
401 349 364 364 318 364 _c
271 364 235 349 209 320 _c
183 291 170 251 170 199 _c
170 147 183 106 209 77 _c
235 48 271 34 318 34 _c
364 34 401 48 427 77 _c
453 106 466 147 466 199 _c
446 553 _m
446 597 434 632 412 657 _c
389 681 358 694 318 694 _c
278 694 246 681 224 657 _c
201 632 190 597 190 553 _c
}_e{190 508 201 473 224 449 _c
246 424 278 412 318 412 _c
358 412 389 424 412 449 _c
434 473 446 508 446 553 _c
393 388 _m
448 380 491 360 522 327 _c
553 293 569 251 569 199 _c
569 131 547 78 504 42 _c
460 5 398 -13 318 -13 _c
237 -13 175 5 132 42 _c
88 78 67 131 67 199 _c
67 251 82 293 113 327 _c
144 360 187 380 243 388 _c
193 396 156 415 130 444 _c
}_e{104 472 91 509 91 553 _c
91 611 111 657 151 691 _c
191 725 247 742 318 742 _c
388 742 444 725 484 691 _c
524 657 545 611 545 553 _c
545 509 531 472 505 444 _c
479 415 441 396 393 388 _c
_cl}_e}_d
/m{{948 0 36 0 921 533 _sc
518 418 _m
535 456 557 484 584 504 _c
611 523 642 533 678 533 _c
732 533 773 516 800 482 _c
826 448 840 398 840 330 _c
840 52 _l
921 52 _l
921 0 _l
672 0 _l
672 52 _l
750 52 _l
750 320 _l
750 372 742 410 726 433 _c
710 455 685 467 649 467 _c
609 467 578 451 557 421 _c
536 391 526 347 526 289 _c
526 52 _l
604 52 _l
604 0 _l
358 0 _l
}_e{358 52 _l
436 52 _l
436 323 _l
436 375 428 412 412 434 _c
396 456 371 467 335 467 _c
295 467 264 451 243 421 _c
222 391 212 347 212 289 _c
212 52 _l
290 52 _l
290 0 _l
41 0 _l
41 52 _l
122 52 _l
122 468 _l
36 468 _l
36 519 _l
212 519 _l
212 427 _l
228 461 249 488 275 506 _c
301 524 330 533 363 533 _c
403 533 436 523 463 503 _c
}_e{490 483 508 454 518 418 _c
_cl}_e}_d
/x{{564 0 12 0 552 519 _sc
291 317 _m
400 467 _l
330 467 _l
330 519 _l
530 519 _l
530 467 _l
461 467 _l
322 275 _l
484 52 _l
552 52 _l
552 0 _l
312 0 _l
312 52 _l
378 52 _l
265 207 _l
152 52 _l
219 52 _l
219 0 _l
22 0 _l
22 52 _l
91 52 _l
234 249 _l
76 467 _l
12 467 _l
12 519 _l
244 519 _l
244 467 _l
182 467 _l
291 317 _l
_cl}_e}_d
/y{{565 0 -2 -221 562 519 _sc
216 -94 _m
250 -8 _l
56 467 _l
-2 467 _l
-2 519 _l
236 519 _l
236 467 _l
153 467 _l
299 110 _l
445 467 _l
367 467 _l
367 519 _l
562 519 _l
562 467 _l
504 467 _l
266 -116 _l
250 -156 232 -184 212 -199 _c
192 -213 164 -221 128 -221 _c
112 -221 97 -219 81 -217 _c
65 -214 48 -210 32 -206 _c
32 -107 _l
78 -107 _l
80 -129 85 -144 95 -154 _c
}_e{104 -164 118 -169 138 -169 _c
156 -169 170 -164 181 -154 _c
192 -144 204 -124 216 -94 _c
_cl}_e}_d
end readonly def

/BuildGlyph
 {exch begin
 CharStrings exch
 2 copy known not{pop /.notdef}if
 true 3 1 roll get exec
 end}_d

/BuildChar {
 1 index /Encoding get exch get
 1 index /BuildGlyph get exec
}_d

FontName currentdict end definefont pop
end
%%EndProlog
mpldict begin
18 252 translate
576 288 0 0 clipbox
gsave
0 0 m
576 0 l
576 288 l
0 288 l
cl
1.000 setgray
fill
grestore
gsave
86.4 43.2 m
518.4 43.2 l
518.4 259.2 l
86.4 259.2 l
cl
1.000 setgray
fill
grestore
0.800 setlinewidth
1 setlinejoin
2 setlinecap
[] 0 setdash
0.690 setgray
gsave
432 216 86.4 43.2 clipbox
106.009725 43.2 m
106.009725 259.2 l
stroke
grestore
1.000 setlinewidth
0 setlinecap
0.000 setgray
gsave
/o {
gsave
newpath
translate
1.0 setlinewidth
1 setlinejoin
0 setlinecap
0 0 m
0 5 l

gsave
0.000 setgray
fill
grestore
stroke
grestore
} bind def
106.01 43.2 o
grestore
gsave
/o {
gsave
newpath
translate
1.0 setlinewidth
1 setlinejoin
0 setlinecap
0 0 m
0 -5 l

gsave
0.000 setgray
fill
grestore
stroke
grestore
} bind def
106.01 259.2 o
grestore
/DejaVuSerif findfont
10.000 scalefont
setfont
gsave
102.830038 32.106250 translate
0.000000 rotate
0.000000 0.000000 m /zero glyphshow
grestore
0.800 setlinewidth
2 setlinecap
0.690 setgray
gsave
432 216 86.4 43.2 clipbox
159.286887 43.2 m
159.286887 259.2 l
stroke
grestore
1.000 setlinewidth
0 setlinecap
0.000 setgray
gsave
/o {
gsave
newpath
translate
1.0 setlinewidth
1 setlinejoin
0 setlinecap
0 0 m
0 5 l

gsave
0.000 setgray
fill
grestore
stroke
grestore
} bind def
159.287 43.2 o
grestore
gsave
/o {
gsave
newpath
translate
1.0 setlinewidth
1 setlinejoin
0 setlinecap
0 0 m
0 -5 l

gsave
0.000 setgray
fill
grestore
stroke
grestore
} bind def
159.287 259.2 o
grestore
gsave
156.107200 32.106250 translate
0.000000 rotate
0.000000 0.000000 m /two glyphshow
grestore
0.800 setlinewidth
2 setlinecap
0.690 setgray
gsave
432 216 86.4 43.2 clipbox
212.564049 43.2 m
212.564049 259.2 l
stroke
grestore
1.000 setlinewidth
0 setlinecap
0.000 setgray
gsave
/o {
gsave
newpath
translate
1.0 setlinewidth
1 setlinejoin
0 setlinecap
0 0 m
0 5 l

gsave
0.000 setgray
fill
grestore
stroke
grestore
} bind def
212.564 43.2 o
grestore
gsave
/o {
gsave
newpath
translate
1.0 setlinewidth
1 setlinejoin
0 setlinecap
0 0 m
0 -5 l

gsave
0.000 setgray
fill
grestore
stroke
grestore
} bind def
212.564 259.2 o
grestore
gsave
209.384362 32.106250 translate
0.000000 rotate
0.000000 0.000000 m /four glyphshow
grestore
0.800 setlinewidth
2 setlinecap
0.690 setgray
gsave
432 216 86.4 43.2 clipbox
265.841211 43.2 m
265.841211 259.2 l
stroke
grestore
1.000 setlinewidth
0 setlinecap
0.000 setgray
gsave
/o {
gsave
newpath
translate
1.0 setlinewidth
1 setlinejoin
0 setlinecap
0 0 m
0 5 l

gsave
0.000 setgray
fill
grestore
stroke
grestore
} bind def
265.841 43.2 o
grestore
gsave
/o {
gsave
newpath
translate
1.0 setlinewidth
1 setlinejoin
0 setlinecap
0 0 m
0 -5 l

gsave
0.000 setgray
fill
grestore
stroke
grestore
} bind def
265.841 259.2 o
grestore
gsave
262.661524 32.106250 translate
0.000000 rotate
0.000000 0.000000 m /six glyphshow
grestore
0.800 setlinewidth
2 setlinecap
0.690 setgray
gsave
432 216 86.4 43.2 clipbox
319.118373 43.2 m
319.118373 259.2 l
stroke
grestore
1.000 setlinewidth
0 setlinecap
0.000 setgray
gsave
/o {
gsave
newpath
translate
1.0 setlinewidth
1 setlinejoin
0 setlinecap
0 0 m
0 5 l

gsave
0.000 setgray
fill
grestore
stroke
grestore
} bind def
319.118 43.2 o
grestore
gsave
/o {
gsave
newpath
translate
1.0 setlinewidth
1 setlinejoin
0 setlinecap
0 0 m
0 -5 l

gsave
0.000 setgray
fill
grestore
stroke
grestore
} bind def
319.118 259.2 o
grestore
gsave
315.938686 32.106250 translate
0.000000 rotate
0.000000 0.000000 m /eight glyphshow
grestore
0.800 setlinewidth
2 setlinecap
0.690 setgray
gsave
432 216 86.4 43.2 clipbox
372.395536 43.2 m
372.395536 259.2 l
stroke
grestore
1.000 setlinewidth
0 setlinecap
0.000 setgray
gsave
/o {
gsave
newpath
translate
1.0 setlinewidth
1 setlinejoin
0 setlinecap
0 0 m
0 5 l

gsave
0.000 setgray
fill
grestore
stroke
grestore
} bind def
372.396 43.2 o
grestore
gsave
/o {
gsave
newpath
translate
1.0 setlinewidth
1 setlinejoin
0 setlinecap
0 0 m
0 -5 l

gsave
0.000 setgray
fill
grestore
stroke
grestore
} bind def
372.396 259.2 o
grestore
gsave
366.036161 32.106250 translate
0.000000 rotate
0.000000 0.000000 m /one glyphshow
6.362305 0.000000 m /zero glyphshow
grestore
0.800 setlinewidth
2 setlinecap
0.690 setgray
gsave
432 216 86.4 43.2 clipbox
425.672698 43.2 m
425.672698 259.2 l
stroke
grestore
1.000 setlinewidth
0 setlinecap
0.000 setgray
gsave
/o {
gsave
newpath
translate
1.0 setlinewidth
1 setlinejoin
0 setlinecap
0 0 m
0 5 l

gsave
0.000 setgray
fill
grestore
stroke
grestore
} bind def
425.673 43.2 o
grestore
gsave
/o {
gsave
newpath
translate
1.0 setlinewidth
1 setlinejoin
0 setlinecap
0 0 m
0 -5 l

gsave
0.000 setgray
fill
grestore
stroke
grestore
} bind def
425.673 259.2 o
grestore
gsave
419.313323 32.106250 translate
0.000000 rotate
0.000000 0.000000 m /one glyphshow
6.362305 0.000000 m /two glyphshow
grestore
0.800 setlinewidth
2 setlinecap
0.690 setgray
gsave
432 216 86.4 43.2 clipbox
478.94986 43.2 m
478.94986 259.2 l
stroke
grestore
1.000 setlinewidth
0 setlinecap
0.000 setgray
gsave
/o {
gsave
newpath
translate
1.0 setlinewidth
1 setlinejoin
0 setlinecap
0 0 m
0 5 l

gsave
0.000 setgray
fill
grestore
stroke
grestore
} bind def
478.95 43.2 o
grestore
gsave
/o {
gsave
newpath
translate
1.0 setlinewidth
1 setlinejoin
0 setlinecap
0 0 m
0 -5 l

gsave
0.000 setgray
fill
grestore
stroke
grestore
} bind def
478.95 259.2 o
grestore
gsave
472.590485 32.106250 translate
0.000000 rotate
0.000000 0.000000 m /one glyphshow
6.362305 0.000000 m /four glyphshow
grestore
0.700 setlinewidth
gsave
/o {
gsave
newpath
translate
0.7 setlinewidth
1 setlinejoin
0 setlinecap
0 0 m
0 3 l

gsave
0.000 setgray
fill
grestore
stroke
grestore
} bind def
92.6904 43.2 o
grestore
gsave
/o {
gsave
newpath
translate
0.7 setlinewidth
1 setlinejoin
0 setlinecap
0 0 m
0 -3 l

gsave
0.000 setgray
fill
grestore
stroke
grestore
} bind def
92.6904 259.2 o
grestore
gsave
/o {
gsave
newpath
translate
0.7 setlinewidth
1 setlinejoin
0 setlinecap
0 0 m
0 3 l

gsave
0.000 setgray
fill
grestore
stroke
grestore
} bind def
119.329 43.2 o
grestore
gsave
/o {
gsave
newpath
translate
0.7 setlinewidth
1 setlinejoin
0 setlinecap
0 0 m
0 -3 l

gsave
0.000 setgray
fill
grestore
stroke
grestore
} bind def
119.329 259.2 o
grestore
gsave
/o {
gsave
newpath
translate
0.7 setlinewidth
1 setlinejoin
0 setlinecap
0 0 m
0 3 l

gsave
0.000 setgray
fill
grestore
stroke
grestore
} bind def
132.648 43.2 o
grestore
gsave
/o {
gsave
newpath
translate
0.7 setlinewidth
1 setlinejoin
0 setlinecap
0 0 m
0 -3 l

gsave
0.000 setgray
fill
grestore
stroke
grestore
} bind def
132.648 259.2 o
grestore
gsave
/o {
gsave
newpath
translate
0.7 setlinewidth
1 setlinejoin
0 setlinecap
0 0 m
0 3 l

gsave
0.000 setgray
fill
grestore
stroke
grestore
} bind def
145.968 43.2 o
grestore
gsave
/o {
gsave
newpath
translate
0.7 setlinewidth
1 setlinejoin
0 setlinecap
0 0 m
0 -3 l

gsave
0.000 setgray
fill
grestore
stroke
grestore
} bind def
145.968 259.2 o
grestore
gsave
/o {
gsave
newpath
translate
0.7 setlinewidth
1 setlinejoin
0 setlinecap
0 0 m
0 3 l

gsave
0.000 setgray
fill
grestore
stroke
grestore
} bind def
172.606 43.2 o
grestore
gsave
/o {
gsave
newpath
translate
0.7 setlinewidth
1 setlinejoin
0 setlinecap
0 0 m
0 -3 l

gsave
0.000 setgray
fill
grestore
stroke
grestore
} bind def
172.606 259.2 o
grestore
gsave
/o {
gsave
newpath
translate
0.7 setlinewidth
1 setlinejoin
0 setlinecap
0 0 m
0 3 l

gsave
0.000 setgray
fill
grestore
stroke
grestore
} bind def
185.925 43.2 o
grestore
gsave
/o {
gsave
newpath
translate
0.7 setlinewidth
1 setlinejoin
0 setlinecap
0 0 m
0 -3 l

gsave
0.000 setgray
fill
grestore
stroke
grestore
} bind def
185.925 259.2 o
grestore
gsave
/o {
gsave
newpath
translate
0.7 setlinewidth
1 setlinejoin
0 setlinecap
0 0 m
0 3 l

gsave
0.000 setgray
fill
grestore
stroke
grestore
} bind def
199.245 43.2 o
grestore
gsave
/o {
gsave
newpath
translate
0.7 setlinewidth
1 setlinejoin
0 setlinecap
0 0 m
0 -3 l

gsave
0.000 setgray
fill
grestore
stroke
grestore
} bind def
199.245 259.2 o
grestore
gsave
/o {
gsave
newpath
translate
0.7 setlinewidth
1 setlinejoin
0 setlinecap
0 0 m
0 3 l

gsave
0.000 setgray
fill
grestore
stroke
grestore
} bind def
225.883 43.2 o
grestore
gsave
/o {
gsave
newpath
translate
0.7 setlinewidth
1 setlinejoin
0 setlinecap
0 0 m
0 -3 l

gsave
0.000 setgray
fill
grestore
stroke
grestore
} bind def
225.883 259.2 o
grestore
gsave
/o {
gsave
newpath
translate
0.7 setlinewidth
1 setlinejoin
0 setlinecap
0 0 m
0 3 l

gsave
0.000 setgray
fill
grestore
stroke
grestore
} bind def
239.203 43.2 o
grestore
gsave
/o {
gsave
newpath
translate
0.7 setlinewidth
1 setlinejoin
0 setlinecap
0 0 m
0 -3 l

gsave
0.000 setgray
fill
grestore
stroke
grestore
} bind def
239.203 259.2 o
grestore
gsave
/o {
gsave
newpath
translate
0.7 setlinewidth
1 setlinejoin
0 setlinecap
0 0 m
0 3 l

gsave
0.000 setgray
fill
grestore
stroke
grestore
} bind def
252.522 43.2 o
grestore
gsave
/o {
gsave
newpath
translate
0.7 setlinewidth
1 setlinejoin
0 setlinecap
0 0 m
0 -3 l

gsave
0.000 setgray
fill
grestore
stroke
grestore
} bind def
252.522 259.2 o
grestore
gsave
/o {
gsave
newpath
translate
0.7 setlinewidth
1 setlinejoin
0 setlinecap
0 0 m
0 3 l

gsave
0.000 setgray
fill
grestore
stroke
grestore
} bind def
279.161 43.2 o
grestore
gsave
/o {
gsave
newpath
translate
0.7 setlinewidth
1 setlinejoin
0 setlinecap
0 0 m
0 -3 l

gsave
0.000 setgray
fill
grestore
stroke
grestore
} bind def
279.161 259.2 o
grestore
gsave
/o {
gsave
newpath
translate
0.7 setlinewidth
1 setlinejoin
0 setlinecap
0 0 m
0 3 l

gsave
0.000 setgray
fill
grestore
stroke
grestore
} bind def
292.48 43.2 o
grestore
gsave
/o {
gsave
newpath
translate
0.7 setlinewidth
1 setlinejoin
0 setlinecap
0 0 m
0 -3 l

gsave
0.000 setgray
fill
grestore
stroke
grestore
} bind def
292.48 259.2 o
grestore
gsave
/o {
gsave
newpath
translate
0.7 setlinewidth
1 setlinejoin
0 setlinecap
0 0 m
0 3 l

gsave
0.000 setgray
fill
grestore
stroke
grestore
} bind def
305.799 43.2 o
grestore
gsave
/o {
gsave
newpath
translate
0.7 setlinewidth
1 setlinejoin
0 setlinecap
0 0 m
0 -3 l

gsave
0.000 setgray
fill
grestore
stroke
grestore
} bind def
305.799 259.2 o
grestore
gsave
/o {
gsave
newpath
translate
0.7 setlinewidth
1 setlinejoin
0 setlinecap
0 0 m
0 3 l

gsave
0.000 setgray
fill
grestore
stroke
grestore
} bind def
332.438 43.2 o
grestore
gsave
/o {
gsave
newpath
translate
0.7 setlinewidth
1 setlinejoin
0 setlinecap
0 0 m
0 -3 l

gsave
0.000 setgray
fill
grestore
stroke
grestore
} bind def
332.438 259.2 o
grestore
gsave
/o {
gsave
newpath
translate
0.7 setlinewidth
1 setlinejoin
0 setlinecap
0 0 m
0 3 l

gsave
0.000 setgray
fill
grestore
stroke
grestore
} bind def
345.757 43.2 o
grestore
gsave
/o {
gsave
newpath
translate
0.7 setlinewidth
1 setlinejoin
0 setlinecap
0 0 m
0 -3 l

gsave
0.000 setgray
fill
grestore
stroke
grestore
} bind def
345.757 259.2 o
grestore
gsave
/o {
gsave
newpath
translate
0.7 setlinewidth
1 setlinejoin
0 setlinecap
0 0 m
0 3 l

gsave
0.000 setgray
fill
grestore
stroke
grestore
} bind def
359.076 43.2 o
grestore
gsave
/o {
gsave
newpath
translate
0.7 setlinewidth
1 setlinejoin
0 setlinecap
0 0 m
0 -3 l

gsave
0.000 setgray
fill
grestore
stroke
grestore
} bind def
359.076 259.2 o
grestore
gsave
/o {
gsave
newpath
translate
0.7 setlinewidth
1 setlinejoin
0 setlinecap
0 0 m
0 3 l

gsave
0.000 setgray
fill
grestore
stroke
grestore
} bind def
385.715 43.2 o
grestore
gsave
/o {
gsave
newpath
translate
0.7 setlinewidth
1 setlinejoin
0 setlinecap
0 0 m
0 -3 l

gsave
0.000 setgray
fill
grestore
stroke
grestore
} bind def
385.715 259.2 o
grestore
gsave
/o {
gsave
newpath
translate
0.7 setlinewidth
1 setlinejoin
0 setlinecap
0 0 m
0 3 l

gsave
0.000 setgray
fill
grestore
stroke
grestore
} bind def
399.034 43.2 o
grestore
gsave
/o {
gsave
newpath
translate
0.7 setlinewidth
1 setlinejoin
0 setlinecap
0 0 m
0 -3 l

gsave
0.000 setgray
fill
grestore
stroke
grestore
} bind def
399.034 259.2 o
grestore
gsave
/o {
gsave
newpath
translate
0.7 setlinewidth
1 setlinejoin
0 setlinecap
0 0 m
0 3 l

gsave
0.000 setgray
fill
grestore
stroke
grestore
} bind def
412.353 43.2 o
grestore
gsave
/o {
gsave
newpath
translate
0.7 setlinewidth
1 setlinejoin
0 setlinecap
0 0 m
0 -3 l

gsave
0.000 setgray
fill
grestore
stroke
grestore
} bind def
412.353 259.2 o
grestore
gsave
/o {
gsave
newpath
translate
0.7 setlinewidth
1 setlinejoin
0 setlinecap
0 0 m
0 3 l

gsave
0.000 setgray
fill
grestore
stroke
grestore
} bind def
438.992 43.2 o
grestore
gsave
/o {
gsave
newpath
translate
0.7 setlinewidth
1 setlinejoin
0 setlinecap
0 0 m
0 -3 l

gsave
0.000 setgray
fill
grestore
stroke
grestore
} bind def
438.992 259.2 o
grestore
gsave
/o {
gsave
newpath
translate
0.7 setlinewidth
1 setlinejoin
0 setlinecap
0 0 m
0 3 l

gsave
0.000 setgray
fill
grestore
stroke
grestore
} bind def
452.311 43.2 o
grestore
gsave
/o {
gsave
newpath
translate
0.7 setlinewidth
1 setlinejoin
0 setlinecap
0 0 m
0 -3 l

gsave
0.000 setgray
fill
grestore
stroke
grestore
} bind def
452.311 259.2 o
grestore
gsave
/o {
gsave
newpath
translate
0.7 setlinewidth
1 setlinejoin
0 setlinecap
0 0 m
0 3 l

gsave
0.000 setgray
fill
grestore
stroke
grestore
} bind def
465.631 43.2 o
grestore
gsave
/o {
gsave
newpath
translate
0.7 setlinewidth
1 setlinejoin
0 setlinecap
0 0 m
0 -3 l

gsave
0.000 setgray
fill
grestore
stroke
grestore
} bind def
465.631 259.2 o
grestore
gsave
/o {
gsave
newpath
translate
0.7 setlinewidth
1 setlinejoin
0 setlinecap
0 0 m
0 3 l

gsave
0.000 setgray
fill
grestore
stroke
grestore
} bind def
492.269 43.2 o
grestore
gsave
/o {
gsave
newpath
translate
0.7 setlinewidth
1 setlinejoin
0 setlinecap
0 0 m
0 -3 l

gsave
0.000 setgray
fill
grestore
stroke
grestore
} bind def
492.269 259.2 o
grestore
gsave
/o {
gsave
newpath
translate
0.7 setlinewidth
1 setlinejoin
0 setlinecap
0 0 m
0 3 l

gsave
0.000 setgray
fill
grestore
stroke
grestore
} bind def
505.588 43.2 o
grestore
gsave
/o {
gsave
newpath
translate
0.7 setlinewidth
1 setlinejoin
0 setlinecap
0 0 m
0 -3 l

gsave
0.000 setgray
fill
grestore
stroke
grestore
} bind def
505.588 259.2 o
grestore
gsave
284.400000 19.028125 translate
0.000000 rotate
/DejaVuSans-Oblique findfont
14.0 scalefont
setfont
0.000000 0.359375 moveto
/z glyphshow

/DejaVuSerif findfont
14.0 scalefont
setfont
7.348633 0.359375 moveto
/space glyphshow

11.798828 0.359375 moveto
/parenleft glyphshow

17.260742 0.359375 moveto
/m glyphshow

30.536133 0.359375 moveto
/parenright glyphshow


grestore
0.800 setlinewidth
2 setlinecap
0.690 setgray
gsave
432 216 86.4 43.2 clipbox
86.4 49.121506 m
518.4 49.121506 l
stroke
grestore
1.000 setlinewidth
0 setlinecap
0.000 setgray
gsave
/o {
gsave
newpath
translate
1.0 setlinewidth
1 setlinejoin
0 setlinecap
0 0 m
5 0 l

gsave
0.000 setgray
fill
grestore
stroke
grestore
} bind def
86.4 49.1215 o
grestore
gsave
/o {
gsave
newpath
translate
1.0 setlinewidth
1 setlinejoin
0 setlinecap
0 0 m
-5 0 l

gsave
0.000 setgray
fill
grestore
stroke
grestore
} bind def
518.4 49.1215 o
grestore
gsave
66.993750 45.324631 translate
0.000000 rotate
0.000000 0.000000 m /one glyphshow
6.362305 0.000000 m /period glyphshow
9.541016 0.000000 m /zero glyphshow
grestore
0.800 setlinewidth
2 setlinecap
0.690 setgray
gsave
432 216 86.4 43.2 clipbox
86.4 94.169783 m
518.4 94.169783 l
stroke
grestore
1.000 setlinewidth
0 setlinecap
0.000 setgray
gsave
/o {
gsave
newpath
translate
1.0 setlinewidth
1 setlinejoin
0 setlinecap
0 0 m
5 0 l

gsave
0.000 setgray
fill
grestore
stroke
grestore
} bind def
86.4 94.1698 o
grestore
gsave
/o {
gsave
newpath
translate
1.0 setlinewidth
1 setlinejoin
0 setlinecap
0 0 m
-5 0 l

gsave
0.000 setgray
fill
grestore
stroke
grestore
} bind def
518.4 94.1698 o
grestore
gsave
66.993750 90.372908 translate
0.000000 rotate
0.000000 0.000000 m /one glyphshow
6.362305 0.000000 m /period glyphshow
9.541016 0.000000 m /five glyphshow
grestore
0.800 setlinewidth
2 setlinecap
0.690 setgray
gsave
432 216 86.4 43.2 clipbox
86.4 139.218059 m
518.4 139.218059 l
stroke
grestore
1.000 setlinewidth
0 setlinecap
0.000 setgray
gsave
/o {
gsave
newpath
translate
1.0 setlinewidth
1 setlinejoin
0 setlinecap
0 0 m
5 0 l

gsave
0.000 setgray
fill
grestore
stroke
grestore
} bind def
86.4 139.218 o
grestore
gsave
/o {
gsave
newpath
translate
1.0 setlinewidth
1 setlinejoin
0 setlinecap
0 0 m
-5 0 l

gsave
0.000 setgray
fill
grestore
stroke
grestore
} bind def
518.4 139.218 o
grestore
gsave
66.993750 135.421184 translate
0.000000 rotate
0.000000 0.000000 m /two glyphshow
6.362305 0.000000 m /period glyphshow
9.541016 0.000000 m /zero glyphshow
grestore
0.800 setlinewidth
2 setlinecap
0.690 setgray
gsave
432 216 86.4 43.2 clipbox
86.4 184.266336 m
518.4 184.266336 l
stroke
grestore
1.000 setlinewidth
0 setlinecap
0.000 setgray
gsave
/o {
gsave
newpath
translate
1.0 setlinewidth
1 setlinejoin
0 setlinecap
0 0 m
5 0 l

gsave
0.000 setgray
fill
grestore
stroke
grestore
} bind def
86.4 184.266 o
grestore
gsave
/o {
gsave
newpath
translate
1.0 setlinewidth
1 setlinejoin
0 setlinecap
0 0 m
-5 0 l

gsave
0.000 setgray
fill
grestore
stroke
grestore
} bind def
518.4 184.266 o
grestore
gsave
66.993750 180.469461 translate
0.000000 rotate
0.000000 0.000000 m /two glyphshow
6.362305 0.000000 m /period glyphshow
9.541016 0.000000 m /five glyphshow
grestore
0.800 setlinewidth
2 setlinecap
0.690 setgray
gsave
432 216 86.4 43.2 clipbox
86.4 229.314613 m
518.4 229.314613 l
stroke
grestore
1.000 setlinewidth
0 setlinecap
0.000 setgray
gsave
/o {
gsave
newpath
translate
1.0 setlinewidth
1 setlinejoin
0 setlinecap
0 0 m
5 0 l

gsave
0.000 setgray
fill
grestore
stroke
grestore
} bind def
86.4 229.315 o
grestore
gsave
/o {
gsave
newpath
translate
1.0 setlinewidth
1 setlinejoin
0 setlinecap
0 0 m
-5 0 l

gsave
0.000 setgray
fill
grestore
stroke
grestore
} bind def
518.4 229.315 o
grestore
gsave
66.993750 225.517738 translate
0.000000 rotate
0.000000 0.000000 m /three glyphshow
6.362305 0.000000 m /period glyphshow
9.541016 0.000000 m /zero glyphshow
grestore
0.700 setlinewidth
gsave
/o {
gsave
newpath
translate
0.7 setlinewidth
1 setlinejoin
0 setlinecap
0 0 m
3 0 l

gsave
0.000 setgray
fill
grestore
stroke
grestore
} bind def
86.4 58.1312 o
grestore
gsave
/o {
gsave
newpath
translate
0.7 setlinewidth
1 setlinejoin
0 setlinecap
0 0 m
-3 0 l

gsave
0.000 setgray
fill
grestore
stroke
grestore
} bind def
518.4 58.1312 o
grestore
gsave
/o {
gsave
newpath
translate
0.7 setlinewidth
1 setlinejoin
0 setlinecap
0 0 m
3 0 l

gsave
0.000 setgray
fill
grestore
stroke
grestore
} bind def
86.4 67.1408 o
grestore
gsave
/o {
gsave
newpath
translate
0.7 setlinewidth
1 setlinejoin
0 setlinecap
0 0 m
-3 0 l

gsave
0.000 setgray
fill
grestore
stroke
grestore
} bind def
518.4 67.1408 o
grestore
gsave
/o {
gsave
newpath
translate
0.7 setlinewidth
1 setlinejoin
0 setlinecap
0 0 m
3 0 l

gsave
0.000 setgray
fill
grestore
stroke
grestore
} bind def
86.4 76.1505 o
grestore
gsave
/o {
gsave
newpath
translate
0.7 setlinewidth
1 setlinejoin
0 setlinecap
0 0 m
-3 0 l

gsave
0.000 setgray
fill
grestore
stroke
grestore
} bind def
518.4 76.1505 o
grestore
gsave
/o {
gsave
newpath
translate
0.7 setlinewidth
1 setlinejoin
0 setlinecap
0 0 m
3 0 l

gsave
0.000 setgray
fill
grestore
stroke
grestore
} bind def
86.4 85.1601 o
grestore
gsave
/o {
gsave
newpath
translate
0.7 setlinewidth
1 setlinejoin
0 setlinecap
0 0 m
-3 0 l

gsave
0.000 setgray
fill
grestore
stroke
grestore
} bind def
518.4 85.1601 o
grestore
gsave
/o {
gsave
newpath
translate
0.7 setlinewidth
1 setlinejoin
0 setlinecap
0 0 m
3 0 l

gsave
0.000 setgray
fill
grestore
stroke
grestore
} bind def
86.4 103.179 o
grestore
gsave
/o {
gsave
newpath
translate
0.7 setlinewidth
1 setlinejoin
0 setlinecap
0 0 m
-3 0 l

gsave
0.000 setgray
fill
grestore
stroke
grestore
} bind def
518.4 103.179 o
grestore
gsave
/o {
gsave
newpath
translate
0.7 setlinewidth
1 setlinejoin
0 setlinecap
0 0 m
3 0 l

gsave
0.000 setgray
fill
grestore
stroke
grestore
} bind def
86.4 112.189 o
grestore
gsave
/o {
gsave
newpath
translate
0.7 setlinewidth
1 setlinejoin
0 setlinecap
0 0 m
-3 0 l

gsave
0.000 setgray
fill
grestore
stroke
grestore
} bind def
518.4 112.189 o
grestore
gsave
/o {
gsave
newpath
translate
0.7 setlinewidth
1 setlinejoin
0 setlinecap
0 0 m
3 0 l

gsave
0.000 setgray
fill
grestore
stroke
grestore
} bind def
86.4 121.199 o
grestore
gsave
/o {
gsave
newpath
translate
0.7 setlinewidth
1 setlinejoin
0 setlinecap
0 0 m
-3 0 l

gsave
0.000 setgray
fill
grestore
stroke
grestore
} bind def
518.4 121.199 o
grestore
gsave
/o {
gsave
newpath
translate
0.7 setlinewidth
1 setlinejoin
0 setlinecap
0 0 m
3 0 l

gsave
0.000 setgray
fill
grestore
stroke
grestore
} bind def
86.4 130.208 o
grestore
gsave
/o {
gsave
newpath
translate
0.7 setlinewidth
1 setlinejoin
0 setlinecap
0 0 m
-3 0 l

gsave
0.000 setgray
fill
grestore
stroke
grestore
} bind def
518.4 130.208 o
grestore
gsave
/o {
gsave
newpath
translate
0.7 setlinewidth
1 setlinejoin
0 setlinecap
0 0 m
3 0 l

gsave
0.000 setgray
fill
grestore
stroke
grestore
} bind def
86.4 139.218 o
grestore
gsave
/o {
gsave
newpath
translate
0.7 setlinewidth
1 setlinejoin
0 setlinecap
0 0 m
-3 0 l

gsave
0.000 setgray
fill
grestore
stroke
grestore
} bind def
518.4 139.218 o
grestore
gsave
/o {
gsave
newpath
translate
0.7 setlinewidth
1 setlinejoin
0 setlinecap
0 0 m
3 0 l

gsave
0.000 setgray
fill
grestore
stroke
grestore
} bind def
86.4 148.228 o
grestore
gsave
/o {
gsave
newpath
translate
0.7 setlinewidth
1 setlinejoin
0 setlinecap
0 0 m
-3 0 l

gsave
0.000 setgray
fill
grestore
stroke
grestore
} bind def
518.4 148.228 o
grestore
gsave
/o {
gsave
newpath
translate
0.7 setlinewidth
1 setlinejoin
0 setlinecap
0 0 m
3 0 l

gsave
0.000 setgray
fill
grestore
stroke
grestore
} bind def
86.4 157.237 o
grestore
gsave
/o {
gsave
newpath
translate
0.7 setlinewidth
1 setlinejoin
0 setlinecap
0 0 m
-3 0 l

gsave
0.000 setgray
fill
grestore
stroke
grestore
} bind def
518.4 157.237 o
grestore
gsave
/o {
gsave
newpath
translate
0.7 setlinewidth
1 setlinejoin
0 setlinecap
0 0 m
3 0 l

gsave
0.000 setgray
fill
grestore
stroke
grestore
} bind def
86.4 166.247 o
grestore
gsave
/o {
gsave
newpath
translate
0.7 setlinewidth
1 setlinejoin
0 setlinecap
0 0 m
-3 0 l

gsave
0.000 setgray
fill
grestore
stroke
grestore
} bind def
518.4 166.247 o
grestore
gsave
/o {
gsave
newpath
translate
0.7 setlinewidth
1 setlinejoin
0 setlinecap
0 0 m
3 0 l

gsave
0.000 setgray
fill
grestore
stroke
grestore
} bind def
86.4 175.257 o
grestore
gsave
/o {
gsave
newpath
translate
0.7 setlinewidth
1 setlinejoin
0 setlinecap
0 0 m
-3 0 l

gsave
0.000 setgray
fill
grestore
stroke
grestore
} bind def
518.4 175.257 o
grestore
gsave
/o {
gsave
newpath
translate
0.7 setlinewidth
1 setlinejoin
0 setlinecap
0 0 m
3 0 l

gsave
0.000 setgray
fill
grestore
stroke
grestore
} bind def
86.4 184.266 o
grestore
gsave
/o {
gsave
newpath
translate
0.7 setlinewidth
1 setlinejoin
0 setlinecap
0 0 m
-3 0 l

gsave
0.000 setgray
fill
grestore
stroke
grestore
} bind def
518.4 184.266 o
grestore
gsave
/o {
gsave
newpath
translate
0.7 setlinewidth
1 setlinejoin
0 setlinecap
0 0 m
3 0 l

gsave
0.000 setgray
fill
grestore
stroke
grestore
} bind def
86.4 193.276 o
grestore
gsave
/o {
gsave
newpath
translate
0.7 setlinewidth
1 setlinejoin
0 setlinecap
0 0 m
-3 0 l

gsave
0.000 setgray
fill
grestore
stroke
grestore
} bind def
518.4 193.276 o
grestore
gsave
/o {
gsave
newpath
translate
0.7 setlinewidth
1 setlinejoin
0 setlinecap
0 0 m
3 0 l

gsave
0.000 setgray
fill
grestore
stroke
grestore
} bind def
86.4 202.286 o
grestore
gsave
/o {
gsave
newpath
translate
0.7 setlinewidth
1 setlinejoin
0 setlinecap
0 0 m
-3 0 l

gsave
0.000 setgray
fill
grestore
stroke
grestore
} bind def
518.4 202.286 o
grestore
gsave
/o {
gsave
newpath
translate
0.7 setlinewidth
1 setlinejoin
0 setlinecap
0 0 m
3 0 l

gsave
0.000 setgray
fill
grestore
stroke
grestore
} bind def
86.4 211.295 o
grestore
gsave
/o {
gsave
newpath
translate
0.7 setlinewidth
1 setlinejoin
0 setlinecap
0 0 m
-3 0 l

gsave
0.000 setgray
fill
grestore
stroke
grestore
} bind def
518.4 211.295 o
grestore
gsave
/o {
gsave
newpath
translate
0.7 setlinewidth
1 setlinejoin
0 setlinecap
0 0 m
3 0 l

gsave
0.000 setgray
fill
grestore
stroke
grestore
} bind def
86.4 220.305 o
grestore
gsave
/o {
gsave
newpath
translate
0.7 setlinewidth
1 setlinejoin
0 setlinecap
0 0 m
-3 0 l

gsave
0.000 setgray
fill
grestore
stroke
grestore
} bind def
518.4 220.305 o
grestore
gsave
/o {
gsave
newpath
translate
0.7 setlinewidth
1 setlinejoin
0 setlinecap
0 0 m
3 0 l

gsave
0.000 setgray
fill
grestore
stroke
grestore
} bind def
86.4 229.315 o
grestore
gsave
/o {
gsave
newpath
translate
0.7 setlinewidth
1 setlinejoin
0 setlinecap
0 0 m
-3 0 l

gsave
0.000 setgray
fill
grestore
stroke
grestore
} bind def
518.4 229.315 o
grestore
gsave
/o {
gsave
newpath
translate
0.7 setlinewidth
1 setlinejoin
0 setlinecap
0 0 m
3 0 l

gsave
0.000 setgray
fill
grestore
stroke
grestore
} bind def
86.4 238.324 o
grestore
gsave
/o {
gsave
newpath
translate
0.7 setlinewidth
1 setlinejoin
0 setlinecap
0 0 m
-3 0 l

gsave
0.000 setgray
fill
grestore
stroke
grestore
} bind def
518.4 238.324 o
grestore
gsave
/o {
gsave
newpath
translate
0.7 setlinewidth
1 setlinejoin
0 setlinecap
0 0 m
3 0 l

gsave
0.000 setgray
fill
grestore
stroke
grestore
} bind def
86.4 247.334 o
grestore
gsave
/o {
gsave
newpath
translate
0.7 setlinewidth
1 setlinejoin
0 setlinecap
0 0 m
-3 0 l

gsave
0.000 setgray
fill
grestore
stroke
grestore
} bind def
518.4 247.334 o
grestore
gsave
/o {
gsave
newpath
translate
0.7 setlinewidth
1 setlinejoin
0 setlinecap
0 0 m
3 0 l

gsave
0.000 setgray
fill
grestore
stroke
grestore
} bind def
86.4 256.344 o
grestore
gsave
/o {
gsave
newpath
translate
0.7 setlinewidth
1 setlinejoin
0 setlinecap
0 0 m
-3 0 l

gsave
0.000 setgray
fill
grestore
stroke
grestore
} bind def
518.4 256.344 o
grestore
gsave
61.993750 117.700000 translate
90.000000 rotate
/DejaVuSans-Oblique findfont
14.0 scalefont
setfont
0.000000 0.359375 moveto
/sigma glyphshow

/DejaVuSans-Oblique findfont
9.8 scalefont
setfont
8.873047 -1.937500 moveto
/x glyphshow

/DejaVuSans findfont
9.8 scalefont
setfont
14.672656 -1.937500 moveto
/slash glyphshow

/DejaVuSans-Oblique findfont
9.8 scalefont
setfont
17.974414 -1.937500 moveto
/y glyphshow

/DejaVuSerif findfont
14.0 scalefont
setfont
24.156836 0.359375 moveto
/space glyphshow

28.607031 0.359375 moveto
/parenleft glyphshow

34.068945 0.359375 moveto
/m glyphshow

47.344336 0.359375 moveto
/m glyphshow

60.619727 0.359375 moveto
/parenright glyphshow


grestore
2.000 setlinewidth
2 setlinecap
1.000 0.000 0.000 setrgbcolor
gsave
432 216 86.4 43.2 clipbox
106.036364 184.246515 m
111.843574 183.964513 l
117.470975 183.884327 l
120.973948 184.11137 l
121.453442 184.595189 l
122.012853 185.533094 l
123.091715 188.013452 l
132.974629 211.359271 l
144.562411 239.472999 l
148.598157 249.151171 l
148.944458 249.378214 l
149.237482 249.297127 l
149.557145 248.922326 l
149.943405 248.071814 l
158.893968 223.575462 l
169.735871 194.558966 l
180.151556 167.393054 l
183.161715 159.94297 l
183.82768 158.962719 l
184.427048 158.451872 l
195.948234 150.791863 l
204.405984 145.772584 l
208.854627 143.34268 l
218.204769 138.723429 l
222.200556 136.953032 l
231.097842 133.46089 l
239.382441 130.775111 l
247.720317 128.633516 l
251.556272 127.838865 l
255.552059 127.140616 l
259.627762 126.563998 l
268.232024 125.800881 l
276.143683 125.644113 l
284.321727 126.030627 l
292.446494 126.965829 l
296.28245 127.596505 l
297.094927 127.631643 l
297.521144 127.372165 l
298.027277 126.77032 l
298.626645 125.664835 l
308.123299 106.64365 l
316.074916 91.288495 l
324.119767 76.28832 l
327.516186 70.301404 l
327.942403 70.001382 l
328.341982 69.981561 l
328.741561 70.214911 l
330.193364 71.740246 l
334.988308 76.927104 l
342.873328 85.892612 l
350.491962 95.083362 l
358.177193 104.527282 l
358.60341 104.56242 l
359.029628 104.372316 l
359.73555 103.738938 l
366.048894 98.12412 l
372.600653 92.728238 l
378.780803 88.061236 l
384.694568 83.99608 l
390.421863 80.447177 l
395.909411 77.419932 l
398.892932 75.930636 l
403.82107 73.719667 l
408.975635 71.747453 l
413.970369 70.175268 l
418.845229 68.969777 l
423.666813 68.103048 l
428.435119 67.569676 l
431.072338 67.412908 l
435.467704 67.375068 l
440.182733 67.644456 l
444.844484 68.227381 l
449.586152 69.141861 l
454.274542 70.364471 l
459.069487 71.938458 l
463.917708 73.860218 l
468.845846 76.147769 l
473.880538 78.82634 l
479.021784 81.910345 l
484.322862 85.448436 l
489.757132 89.443317 l
495.43115 93.997698 l
498.763636 96.847452 l
498.209554 96.365436 l
stroke
grestore
0.000 0.000 1.000 setrgbcolor
gsave
432 216 86.4 43.2 clipbox
106.036364 184.249218 m
111.816936 183.969017 l
117.497613 183.887931 l
120.920671 183.787022 l
121.373527 183.390598 l
121.87966 182.641895 l
122.532305 181.254408 l
135.265547 153.101938 l
145.974256 130.186781 l
148.598157 124.850362 l
149.051012 124.418799 l
149.450591 124.323297 l
149.796893 124.45664 l
150.396261 124.990012 l
156.04364 130.2976 l
161.504549 135.621405 l
166.858904 141.027198 l
177.780722 152.637941 l
183.001884 158.312222 l
183.481378 158.468089 l
183.960873 158.392408 l
184.613518 157.986072 l
191.459633 153.488452 l
196.374452 150.462109 l
201.076161 147.72858 l
210.85252 142.564245 l
214.901585 140.633476 l
224.038618 136.7368 l
232.483048 133.71316 l
236.492155 132.474332 l
240.634454 131.329205 l
244.790073 130.319223 l
253.634082 128.63712 l
261.625656 127.667681 l
269.910255 127.218099 l
278.035022 127.328918 l
281.844339 127.568575 l
285.866765 127.951485 l
289.969106 128.47855 l
296.988372 129.766931 l
297.441228 130.172365 l
297.974 130.985937 l
298.573368 132.328376 l
307.190949 154.194809 l
315.835168 176.719849 l
324.652539 200.293612 l
327.462909 207.611254 l
327.782572 207.822981 l
328.048958 207.722974 l
328.341982 207.324747 l
328.714922 206.380535 l
329.820423 202.420792 l
342.100809 158.806852 l
353.901701 118.097625 l
358.150554 104.105631 l
358.816519 102.774003 l
359.469164 101.963134 l
363.757976 97.342082 l
370.018042 90.93892 l
373.58628 87.475609 l
379.100466 82.405876 l
384.8544 77.492911 l
390.315309 73.201612 l
395.589748 69.414854 l
400.651078 66.124527 l
403.501407 64.423505 l
407.963369 61.985492 l
412.691717 59.710554 l
415.382214 58.55912 l
419.564471 56.981529 l
422.175052 56.127414 l
426.277393 54.993098 l
430.752675 54.046183 l
435.17468 53.411003 l
439.543407 53.077646 l
443.965411 53.038003 l
448.414054 53.299283 l
452.889336 53.863287 l
457.444533 54.745333 l
462.079646 55.95623 l
466.794675 57.506792 l
469.511811 58.542902 l
474.093646 60.522324 l
479.181615 63.054037 l
484.402777 66.0056 l
489.783771 69.41125 l
492.873846 71.527618 l
498.24152 75.475649 l
498.763636 75.875677 l
498.209554 75.449521 l
498.209554 75.449521 l
stroke
grestore
0.800 setlinewidth
0 setlinejoin
[] 0 setdash
0.000 setgray
gsave
86.4 43.2 m
86.4 259.2 l
stroke
grestore
gsave
518.4 43.2 m
518.4 259.2 l
stroke
grestore
gsave
86.4 43.2 m
518.4 43.2 l
stroke
grestore
gsave
86.4 259.2 m
518.4 259.2 l
stroke
grestore
2.000 setlinewidth
1 setlinejoin
[] 0 setdash
1.000 0.000 0.000 setrgbcolor
gsave
470.81875 243.475 m
496.01875 243.475 l
stroke
grestore
0.000 setgray
/DejaVuSerif findfont
12.000 scalefont
setfont
gsave
500.818750 239.275000 translate
0.000000 rotate
0.000000 0.000000 m /x glyphshow
grestore
0.000 0.000 1.000 setrgbcolor
gsave
470.81875 231.25 m
496.01875 231.25 l
stroke
grestore
0.000 setgray
gsave
500.818750 227.050000 translate
0.000000 rotate
0.000000 0.000000 m /y glyphshow
grestore

end
showpage
