D    0.291750    0.000000    0.000000    0.000000     0
Q    0.067500    0.000000    0.000000    0.000000     0
D    0.182500    0.000000    0.000000    0.000000     0
Q    0.067500    0.000000    0.000000    0.000000     0
D    0.727500    0.000000    0.000000    0.000000     0
Q    0.067500    0.000000   -1.000000    1.000000     1
D    0.177500    0.000000    0.000000    0.000000     0
Q    0.067500    0.000000    0.000000    0.000000     0
D    1.220000    0.000000    0.000000    0.000000     0
Q    0.067500    0.000000   -1.000000    1.000000     1
D    0.407500    0.000000    0.000000    0.000000     0
Q    0.067500    0.000000    0.000000    0.000000     0
D    1.485500    0.000000    0.000000    0.000000     0
Q    0.067500    0.000000   -1.000000    1.000000     1
D    0.112500    0.000000    0.000000    0.000000     0
Q    0.067500    0.000000    0.000000    0.000000     0
D    1.632500    0.000000    0.000000    0.000000     0
Q    0.067500    0.000000    0.000000    0.000000     0
D    0.312500    0.000000    0.000000    0.000000     0
Q    0.067500    0.000000    0.000000    0.000000     0
D    0.312500    0.000000    0.000000    0.000000     0
Q    0.067500    0.000000    0.000000    0.000000     0
D    0.312500    0.000000    0.000000    0.000000     0
Q    0.067500    0.000000    0.000000    0.000000     0
D    0.312500    0.000000    0.000000    0.000000     0
Q    0.067500    0.000000    0.000000    0.000000     0
D    0.312500    0.000000    0.000000    0.000000     0
Q    0.067500    0.000000    0.000000    0.000000     0
D    0.312500    0.000000    0.000000    0.000000     0
Q    0.067500    0.000000    0.000000    0.000000     0
D    0.312500    0.000000    0.000000    0.000000     0
Q    0.067500    0.000000    0.000000    0.000000     0
D    0.312500    0.000000    0.000000    0.000000     0
Q    0.067500    0.000000    0.000000    0.000000     0
D    1.439500    0.000000    0.000000    0.000000     0
Q    0.067500    0.000000    0.000000    0.000000     0
D    0.032500    0.000000    0.000000    0.000000     0
Q    0.067500    0.000000    0.000000    0.000000     0
D    1.231250    0.000000    0.000000    0.000000     0
