-0.570314	0.528688	-0.468234	9.01334
-0.570314	0.528687	-0.468233	9.01334
-0.210685	0.377706	-0.237835	6.76704
-0.210684	0.377706	-0.237836	6.76704
-0.570315	0.528688	-0.46823	9.01334
0.570584	-0.52875	0.468112	9.01831
-0.570325	0.52869	-0.468234	9.01334
0.210558	-0.377663	0.23765	6.7627
-0.588725	0.622195	-0.445132	32.5936
0.184081	-0.510669	0.318283	26.436
0.210558	-0.37766	0.237649	6.7627
