O    0.291750    0.000000    0.000000    0.000000    0
Q    0.067500    0.000000    0.000000    0.000000    0
O    0.182500    0.000000    0.000000    0.000000    0
Q    0.067500   -0.250968   -1.500000    1.500000    0
O    0.727500    0.000000    0.000000    0.000000    0
Q    0.067500    0.000000    0.000000    0.000000    0
O    0.177500    0.000000    0.000000    0.000000    0
Q    0.067500    0.447906   -1.500000    1.500000    0
O    1.220000    0.000000    0.000000    0.000000    0
Q    0.067500   -0.239054   -1.500000    1.500000    0
O    0.407500    0.000000    0.000000    0.000000    0
Q    0.067500    0.000000    0.000000    0.000000    0
O    1.485500    0.000000    0.000000    0.000000    0
Q    0.067500    0.000000    0.000000    0.000000    0
O    0.112500    0.000000    0.000000    0.000000    0
Q    0.067500    0.000000    0.000000    0.000000    0
O    1.632500    0.000000    0.000000    0.000000    0
Q    0.067500    0.000000    0.000000    0.000000    0
O    0.156250    0.000000    0.000000    0.000000    0
O    8.156250    0.000000    0.000000    0.000000    0
