%!PS-Adobe-3.0 EPSF-3.0
%%Title: sco-rms_xy-z.eps
%%Creator: matplotlib version 2.2.3, http://matplotlib.org/
%%CreationDate: Wed Nov 28 22:51:19 2018
%%Orientation: portrait
%%BoundingBox: 18 252 594 540
%%EndComments
%%BeginProlog
/mpldict 10 dict def
mpldict begin
/m { moveto } bind def
/l { lineto } bind def
/r { rlineto } bind def
/c { curveto } bind def
/cl { closepath } bind def
/box {
m
1 index 0 r
0 exch r
neg 0 r
cl
} bind def
/clipbox {
box
clip
newpath
} bind def
%!PS-Adobe-3.0 Resource-Font
%%Title: DejaVu Sans Oblique
%%Copyright: Copyright (c) 2003 by Bitstream, Inc. All Rights Reserved. Copyright (c) 2006 by Tavmjong Bah. All Rights Reserved. DejaVu changes are in public domain 
%%Creator: Converted from TrueType to type 3 by PPR
25 dict begin
/_d{bind def}bind def
/_m{moveto}_d
/_l{lineto}_d
/_cl{closepath eofill}_d
/_c{curveto}_d
/_sc{7 -1 roll{setcachedevice}{pop pop pop pop pop pop}ifelse}_d
/_e{exec}_d
/FontName /DejaVuSans-Oblique def
/PaintType 0 def
/FontMatrix[.001 0 0 .001 0 0]def
/FontBBox[-1016 -350 1659 1068]def
/FontType 3 def
/Encoding [ /x /y /z /sigma ] def
/FontInfo 10 dict dup begin
/FamilyName (DejaVu Sans) def
/FullName (DejaVu Sans Oblique) def
/Notice (Copyright (c) 2003 by Bitstream, Inc. All Rights Reserved. Copyright (c) 2006 by Tavmjong Bah. All Rights Reserved. DejaVu changes are in public domain ) def
/Weight (Oblique) def
/Version (Version 2.35) def
/ItalicAngle -11.0 def
/isFixedPitch false def
/UnderlinePosition -130 def
/UnderlineThickness 90 def
end readonly def
/CharStrings 5 dict dup begin
/.notdef 0 def
/x{592 0 -25 0 600 547 _sc
600 547 _m
349 279 _l
503 0 _l
400 0 _l
284 217 _l
83 0 _l
-25 0 _l
243 288 _l
100 547 _l
203 547 _l
308 349 _l
491 547 _l
600 547 _l
_cl}_d
/y{592 0 -24 -207 603 547 _sc
248 -50 _m
206 -120 172 -163 146 -181 _c
120 -198 86 -207 46 -207 _c
-24 -207 _l
-9 -132 _l
42 -132 _l
67 -132 88 -125 106 -111 _c
123 -97 143 -71 165 -31 _c
193 20 _l
72 547 _l
167 547 _l
258 128 _l
509 547 _l
603 547 _l
248 -50 _l
_cl}_d
/z{525 0 -2 0 543 547 _sc
116 547 _m
543 547 _l
527 465 _l
115 72 _l
455 72 _l
441 0 _l
-2 0 _l
13 82 _l
425 475 _l
102 475 _l
116 547 _l
_cl}_d
/sigma{{634 0 57 -13 659 547 _sc
347 476 _m
297 476 255 458 222 422 _c
186 384 163 335 151 273 _c
138 207 142 156 163 118 _c
183 80 218 62 267 62 _c
314 62 355 81 391 119 _c
426 156 450 207 463 273 _c
474 332 470 382 450 422 _c
431 458 397 476 347 476 _c
361 547 _m
659 547 _l
642 457 _l
541 457 _l
566 406 572 345 559 273 _c
541 183 505 113 451 63 _c
396 12 329 -13 251 -13 _c
}_e{173 -13 116 12 82 63 _c
47 113 39 183 57 273 _c
74 363 110 433 164 484 _c
209 526 275 547 361 547 _c
_cl}_e}_d
end readonly def

/BuildGlyph
 {exch begin
 CharStrings exch
 2 copy known not{pop /.notdef}if
 true 3 1 roll get exec
 end}_d

/BuildChar {
 1 index /Encoding get exch get
 1 index /BuildGlyph get exec
}_d

FontName currentdict end definefont pop
%!PS-Adobe-3.0 Resource-Font
%%Title: DejaVu Sans
%%Copyright: Copyright (c) 2003 by Bitstream, Inc. All Rights Reserved. Copyright (c) 2006 by Tavmjong Bah. All Rights Reserved. DejaVu changes are in public domain 
%%Creator: Converted from TrueType to type 3 by PPR
25 dict begin
/_d{bind def}bind def
/_m{moveto}_d
/_l{lineto}_d
/_cl{closepath eofill}_d
/_c{curveto}_d
/_sc{7 -1 roll{setcachedevice}{pop pop pop pop pop pop}ifelse}_d
/_e{exec}_d
/FontName /DejaVuSans def
/PaintType 0 def
/FontMatrix[.001 0 0 .001 0 0]def
/FontBBox[-1021 -463 1793 1232]def
/FontType 3 def
/Encoding [ /slash ] def
/FontInfo 10 dict dup begin
/FamilyName (DejaVu Sans) def
/FullName (DejaVu Sans) def
/Notice (Copyright (c) 2003 by Bitstream, Inc. All Rights Reserved. Copyright (c) 2006 by Tavmjong Bah. All Rights Reserved. DejaVu changes are in public domain ) def
/Weight (Book) def
/Version (Version 2.35) def
/ItalicAngle 0.0 def
/isFixedPitch false def
/UnderlinePosition -130 def
/UnderlineThickness 90 def
end readonly def
/CharStrings 2 dict dup begin
/.notdef 0 def
/slash{337 0 0 -92 337 729 _sc
254 729 _m
337 729 _l
83 -92 _l
0 -92 _l
254 729 _l
_cl}_d
end readonly def

/BuildGlyph
 {exch begin
 CharStrings exch
 2 copy known not{pop /.notdef}if
 true 3 1 roll get exec
 end}_d

/BuildChar {
 1 index /Encoding get exch get
 1 index /BuildGlyph get exec
}_d

FontName currentdict end definefont pop
%!PS-Adobe-3.0 Resource-Font
%%Title: DejaVu Serif
%%Copyright: Copyright (c) 2003 by Bitstream, Inc. All Rights Reserved. DejaVu changes are in public domain 
%%Creator: Converted from TrueType to type 3 by PPR
25 dict begin
/_d{bind def}bind def
/_m{moveto}_d
/_l{lineto}_d
/_cl{closepath eofill}_d
/_c{curveto}_d
/_sc{7 -1 roll{setcachedevice}{pop pop pop pop pop pop}ifelse}_d
/_e{exec}_d
/FontName /DejaVuSerif def
/PaintType 0 def
/FontMatrix[.001 0 0 .001 0 0]def
/FontBBox[-770 -347 2105 1109]def
/FontType 3 def
/Encoding [ /space /parenleft /parenright /period /zero /one /two /three /four /five /six /eight /m /x /y ] def
/FontInfo 10 dict dup begin
/FamilyName (DejaVu Serif) def
/FullName (DejaVu Serif) def
/Notice (Copyright (c) 2003 by Bitstream, Inc. All Rights Reserved. DejaVu changes are in public domain ) def
/Weight (Book) def
/Version (Version 2.35) def
/ItalicAngle 0.0 def
/isFixedPitch false def
/UnderlinePosition -130 def
/UnderlineThickness 90 def
end readonly def
/CharStrings 16 dict dup begin
/.notdef 0 def
/space{318 0 0 0 0 0 _sc
}_d
/parenleft{390 0 79 -155 319 760 _sc
319 -155 _m
239 -119 179 -63 139 13 _c
99 89 79 186 79 302 _c
79 418 99 514 139 591 _c
179 668 239 724 319 760 _c
319 712 _l
269 677 233 628 211 566 _c
189 503 178 415 178 302 _c
178 188 189 100 211 38 _c
233 -24 269 -72 319 -107 _c
319 -155 _l
_cl}_d
/parenright{390 0 71 -155 311 760 _sc
71 -155 _m
71 -107 _l
121 -72 157 -24 179 38 _c
201 100 212 188 212 302 _c
212 415 201 503 179 566 _c
157 628 121 677 71 712 _c
71 760 _l
150 724 210 668 250 591 _c
290 514 311 418 311 302 _c
311 186 290 89 250 13 _c
210 -63 150 -119 71 -155 _c
_cl}_d
/period{318 0 94 -13 224 116 _sc
94 51 _m
94 69 100 84 112 97 _c
124 109 140 116 159 116 _c
177 116 192 109 205 97 _c
217 84 224 69 224 51 _c
224 33 217 17 205 5 _c
192 -7 177 -13 159 -13 _c
140 -13 124 -7 112 5 _c
100 17 94 32 94 51 _c
_cl}_d
/zero{636 0 66 -13 570 742 _sc
318 34 _m
368 34 405 61 430 116 _c
454 170 467 253 467 364 _c
467 474 454 557 430 612 _c
405 666 368 694 318 694 _c
268 694 230 666 206 612 _c
181 557 169 474 169 364 _c
169 253 181 170 206 116 _c
230 61 268 34 318 34 _c
318 -13 _m
238 -13 176 20 132 86 _c
88 152 66 244 66 364 _c
66 483 88 576 132 642 _c
176 708 238 742 318 742 _c
397 742 459 708 503 642 _c
547 576 570 483 570 364 _c
570 244 547 152 503 86 _c
459 20 397 -13 318 -13 _c
_cl}_d
/one{636 0 122 0 494 742 _sc
142 0 _m
142 52 _l
269 52 _l
269 658 _l
122 563 _l
122 627 _l
300 742 _l
367 742 _l
367 52 _l
494 52 _l
494 0 _l
142 0 _l
_cl}_d
/two{{636 0 68 0 538 742 _sc
128 555 _m
73 555 _l
73 685 _l
107 703 142 717 178 727 _c
213 737 248 742 282 742 _c
358 742 418 723 462 687 _c
506 650 528 600 528 537 _c
528 465 478 380 378 281 _c
370 273 365 268 361 264 _c
177 80 _l
481 80 _l
481 170 _l
538 170 _l
538 0 _l
68 0 _l
68 53 _l
289 274 _l
337 322 372 367 393 408 _c
414 449 425 492 425 537 _c
}_e{425 586 412 624 386 652 _c
360 680 325 694 281 694 _c
234 694 198 682 173 659 _c
147 636 132 601 128 555 _c
_cl}_e}_d
/three{{636 0 76 -13 562 742 _sc
97 698 _m
135 712 171 723 206 731 _c
241 738 274 742 305 742 _c
376 742 432 726 472 696 _c
512 665 532 622 532 568 _c
532 524 518 487 490 458 _c
462 428 423 408 373 398 _c
433 389 479 367 512 332 _c
545 297 562 252 562 197 _c
562 129 539 77 493 41 _c
447 5 382 -13 296 -13 _c
258 -13 220 -9 184 -1 _c
148 6 112 18 76 35 _c
76 177 _l
}_e{131 177 _l
134 129 150 94 178 70 _c
206 46 246 34 298 34 _c
348 34 387 48 416 77 _c
444 106 459 146 459 196 _c
459 253 444 296 414 326 _c
384 355 341 370 284 370 _c
238 370 _l
238 420 _l
262 420 _l
319 420 362 431 390 455 _c
418 479 433 514 433 562 _c
433 604 421 637 398 660 _c
374 682 341 694 297 694 _c
253 694 218 683 194 662 _c
170 641 156 610 152 570 _c
}_e{97 570 _l
97 698 _l
_cl}_e}_d
/four{636 0 31 0 586 742 _sc
349 247 _m
349 635 _l
100 247 _l
349 247 _l
564 0 _m
232 0 _l
232 52 _l
349 52 _l
349 195 _l
31 195 _l
31 248 _l
350 742 _l
447 742 _l
447 247 _l
586 247 _l
586 195 _l
447 195 _l
447 52 _l
564 52 _l
564 0 _l
_cl}_d
/five{{636 0 85 -13 559 729 _sc
503 729 _m
503 649 _l
169 649 _l
169 440 _l
185 452 205 460 228 466 _c
250 472 276 475 304 475 _c
382 475 444 453 490 409 _c
536 365 559 306 559 231 _c
559 153 536 93 490 51 _c
444 8 379 -13 296 -13 _c
262 -13 228 -9 193 -1 _c
157 6 121 18 85 35 _c
85 177 _l
140 177 _l
143 130 158 94 184 70 _c
210 46 248 34 296 34 _c
}_e{347 34 386 51 414 85 _c
442 119 456 167 456 231 _c
456 294 442 342 415 376 _c
387 410 348 427 296 427 _c
266 427 240 421 218 411 _c
196 401 176 385 159 363 _c
117 363 _l
117 729 _l
503 729 _l
_cl}_e}_d
/six{{636 0 67 -13 573 742 _sc
327 34 _m
373 34 408 50 433 84 _c
457 118 470 166 470 230 _c
470 293 457 341 433 375 _c
408 409 373 426 327 426 _c
280 426 244 409 220 377 _c
196 344 184 297 184 236 _c
184 171 196 121 221 86 _c
245 51 281 34 327 34 _c
168 401 _m
190 425 215 444 243 456 _c
271 468 302 474 338 474 _c
410 474 468 452 510 408 _c
552 364 573 305 573 230 _c
}_e{573 156 550 97 505 53 _c
459 9 399 -13 323 -13 _c
241 -13 177 17 133 78 _c
89 139 67 227 67 341 _c
67 468 93 567 145 637 _c
197 707 271 742 367 742 _c
393 742 420 739 448 735 _c
476 730 505 723 535 713 _c
535 593 _l
480 593 _l
476 625 463 650 442 668 _c
421 685 393 694 357 694 _c
293 694 246 670 215 622 _c
184 574 168 500 168 401 _c
_cl}_e}_d
/eight{{636 0 67 -13 569 742 _sc
466 199 _m
466 251 453 291 427 320 _c
401 349 364 364 318 364 _c
271 364 235 349 209 320 _c
183 291 170 251 170 199 _c
170 147 183 106 209 77 _c
235 48 271 34 318 34 _c
364 34 401 48 427 77 _c
453 106 466 147 466 199 _c
446 553 _m
446 597 434 632 412 657 _c
389 681 358 694 318 694 _c
278 694 246 681 224 657 _c
201 632 190 597 190 553 _c
}_e{190 508 201 473 224 449 _c
246 424 278 412 318 412 _c
358 412 389 424 412 449 _c
434 473 446 508 446 553 _c
393 388 _m
448 380 491 360 522 327 _c
553 293 569 251 569 199 _c
569 131 547 78 504 42 _c
460 5 398 -13 318 -13 _c
237 -13 175 5 132 42 _c
88 78 67 131 67 199 _c
67 251 82 293 113 327 _c
144 360 187 380 243 388 _c
193 396 156 415 130 444 _c
}_e{104 472 91 509 91 553 _c
91 611 111 657 151 691 _c
191 725 247 742 318 742 _c
388 742 444 725 484 691 _c
524 657 545 611 545 553 _c
545 509 531 472 505 444 _c
479 415 441 396 393 388 _c
_cl}_e}_d
/m{{948 0 36 0 921 533 _sc
518 418 _m
535 456 557 484 584 504 _c
611 523 642 533 678 533 _c
732 533 773 516 800 482 _c
826 448 840 398 840 330 _c
840 52 _l
921 52 _l
921 0 _l
672 0 _l
672 52 _l
750 52 _l
750 320 _l
750 372 742 410 726 433 _c
710 455 685 467 649 467 _c
609 467 578 451 557 421 _c
536 391 526 347 526 289 _c
526 52 _l
604 52 _l
604 0 _l
358 0 _l
}_e{358 52 _l
436 52 _l
436 323 _l
436 375 428 412 412 434 _c
396 456 371 467 335 467 _c
295 467 264 451 243 421 _c
222 391 212 347 212 289 _c
212 52 _l
290 52 _l
290 0 _l
41 0 _l
41 52 _l
122 52 _l
122 468 _l
36 468 _l
36 519 _l
212 519 _l
212 427 _l
228 461 249 488 275 506 _c
301 524 330 533 363 533 _c
403 533 436 523 463 503 _c
}_e{490 483 508 454 518 418 _c
_cl}_e}_d
/x{{564 0 12 0 552 519 _sc
291 317 _m
400 467 _l
330 467 _l
330 519 _l
530 519 _l
530 467 _l
461 467 _l
322 275 _l
484 52 _l
552 52 _l
552 0 _l
312 0 _l
312 52 _l
378 52 _l
265 207 _l
152 52 _l
219 52 _l
219 0 _l
22 0 _l
22 52 _l
91 52 _l
234 249 _l
76 467 _l
12 467 _l
12 519 _l
244 519 _l
244 467 _l
182 467 _l
291 317 _l
_cl}_e}_d
/y{{565 0 -2 -221 562 519 _sc
216 -94 _m
250 -8 _l
56 467 _l
-2 467 _l
-2 519 _l
236 519 _l
236 467 _l
153 467 _l
299 110 _l
445 467 _l
367 467 _l
367 519 _l
562 519 _l
562 467 _l
504 467 _l
266 -116 _l
250 -156 232 -184 212 -199 _c
192 -213 164 -221 128 -221 _c
112 -221 97 -219 81 -217 _c
65 -214 48 -210 32 -206 _c
32 -107 _l
78 -107 _l
80 -129 85 -144 95 -154 _c
}_e{104 -164 118 -169 138 -169 _c
156 -169 170 -164 181 -154 _c
192 -144 204 -124 216 -94 _c
_cl}_e}_d
end readonly def

/BuildGlyph
 {exch begin
 CharStrings exch
 2 copy known not{pop /.notdef}if
 true 3 1 roll get exec
 end}_d

/BuildChar {
 1 index /Encoding get exch get
 1 index /BuildGlyph get exec
}_d

FontName currentdict end definefont pop
end
%%EndProlog
mpldict begin
18 252 translate
576 288 0 0 clipbox
gsave
0 0 m
576 0 l
576 288 l
0 288 l
cl
1.000 setgray
fill
grestore
gsave
86.4 43.2 m
518.4 43.2 l
518.4 259.2 l
86.4 259.2 l
cl
1.000 setgray
fill
grestore
0.800 setlinewidth
1 setlinejoin
2 setlinecap
[] 0 setdash
0.690 setgray
gsave
432 216 86.4 43.2 clipbox
105.973638 43.2 m
105.973638 259.2 l
stroke
grestore
1.000 setlinewidth
0 setlinecap
0.000 setgray
gsave
/o {
gsave
newpath
translate
1.0 setlinewidth
1 setlinejoin
0 setlinecap
0 0 m
0 5 l

gsave
0.000 setgray
fill
grestore
stroke
grestore
} bind def
105.974 43.2 o
grestore
gsave
/o {
gsave
newpath
translate
1.0 setlinewidth
1 setlinejoin
0 setlinecap
0 0 m
0 -5 l

gsave
0.000 setgray
fill
grestore
stroke
grestore
} bind def
105.974 259.2 o
grestore
/DejaVuSerif findfont
10.000 scalefont
setfont
gsave
102.793950 32.106250 translate
0.000000 rotate
0.000000 0.000000 m /zero glyphshow
grestore
0.800 setlinewidth
2 setlinecap
0.690 setgray
gsave
432 216 86.4 43.2 clipbox
168.699604 43.2 m
168.699604 259.2 l
stroke
grestore
1.000 setlinewidth
0 setlinecap
0.000 setgray
gsave
/o {
gsave
newpath
translate
1.0 setlinewidth
1 setlinejoin
0 setlinecap
0 0 m
0 5 l

gsave
0.000 setgray
fill
grestore
stroke
grestore
} bind def
168.7 43.2 o
grestore
gsave
/o {
gsave
newpath
translate
1.0 setlinewidth
1 setlinejoin
0 setlinecap
0 0 m
0 -5 l

gsave
0.000 setgray
fill
grestore
stroke
grestore
} bind def
168.7 259.2 o
grestore
gsave
165.519916 32.106250 translate
0.000000 rotate
0.000000 0.000000 m /one glyphshow
grestore
0.800 setlinewidth
2 setlinecap
0.690 setgray
gsave
432 216 86.4 43.2 clipbox
231.42557 43.2 m
231.42557 259.2 l
stroke
grestore
1.000 setlinewidth
0 setlinecap
0.000 setgray
gsave
/o {
gsave
newpath
translate
1.0 setlinewidth
1 setlinejoin
0 setlinecap
0 0 m
0 5 l

gsave
0.000 setgray
fill
grestore
stroke
grestore
} bind def
231.426 43.2 o
grestore
gsave
/o {
gsave
newpath
translate
1.0 setlinewidth
1 setlinejoin
0 setlinecap
0 0 m
0 -5 l

gsave
0.000 setgray
fill
grestore
stroke
grestore
} bind def
231.426 259.2 o
grestore
gsave
228.245882 32.106250 translate
0.000000 rotate
0.000000 0.000000 m /two glyphshow
grestore
0.800 setlinewidth
2 setlinecap
0.690 setgray
gsave
432 216 86.4 43.2 clipbox
294.151535 43.2 m
294.151535 259.2 l
stroke
grestore
1.000 setlinewidth
0 setlinecap
0.000 setgray
gsave
/o {
gsave
newpath
translate
1.0 setlinewidth
1 setlinejoin
0 setlinecap
0 0 m
0 5 l

gsave
0.000 setgray
fill
grestore
stroke
grestore
} bind def
294.152 43.2 o
grestore
gsave
/o {
gsave
newpath
translate
1.0 setlinewidth
1 setlinejoin
0 setlinecap
0 0 m
0 -5 l

gsave
0.000 setgray
fill
grestore
stroke
grestore
} bind def
294.152 259.2 o
grestore
gsave
290.971848 32.106250 translate
0.000000 rotate
0.000000 0.000000 m /three glyphshow
grestore
0.800 setlinewidth
2 setlinecap
0.690 setgray
gsave
432 216 86.4 43.2 clipbox
356.877501 43.2 m
356.877501 259.2 l
stroke
grestore
1.000 setlinewidth
0 setlinecap
0.000 setgray
gsave
/o {
gsave
newpath
translate
1.0 setlinewidth
1 setlinejoin
0 setlinecap
0 0 m
0 5 l

gsave
0.000 setgray
fill
grestore
stroke
grestore
} bind def
356.878 43.2 o
grestore
gsave
/o {
gsave
newpath
translate
1.0 setlinewidth
1 setlinejoin
0 setlinecap
0 0 m
0 -5 l

gsave
0.000 setgray
fill
grestore
stroke
grestore
} bind def
356.878 259.2 o
grestore
gsave
353.697814 32.106250 translate
0.000000 rotate
0.000000 0.000000 m /four glyphshow
grestore
0.800 setlinewidth
2 setlinecap
0.690 setgray
gsave
432 216 86.4 43.2 clipbox
419.603467 43.2 m
419.603467 259.2 l
stroke
grestore
1.000 setlinewidth
0 setlinecap
0.000 setgray
gsave
/o {
gsave
newpath
translate
1.0 setlinewidth
1 setlinejoin
0 setlinecap
0 0 m
0 5 l

gsave
0.000 setgray
fill
grestore
stroke
grestore
} bind def
419.603 43.2 o
grestore
gsave
/o {
gsave
newpath
translate
1.0 setlinewidth
1 setlinejoin
0 setlinecap
0 0 m
0 -5 l

gsave
0.000 setgray
fill
grestore
stroke
grestore
} bind def
419.603 259.2 o
grestore
gsave
416.423780 32.106250 translate
0.000000 rotate
0.000000 0.000000 m /five glyphshow
grestore
0.800 setlinewidth
2 setlinecap
0.690 setgray
gsave
432 216 86.4 43.2 clipbox
482.329433 43.2 m
482.329433 259.2 l
stroke
grestore
1.000 setlinewidth
0 setlinecap
0.000 setgray
gsave
/o {
gsave
newpath
translate
1.0 setlinewidth
1 setlinejoin
0 setlinecap
0 0 m
0 5 l

gsave
0.000 setgray
fill
grestore
stroke
grestore
} bind def
482.329 43.2 o
grestore
gsave
/o {
gsave
newpath
translate
1.0 setlinewidth
1 setlinejoin
0 setlinecap
0 0 m
0 -5 l

gsave
0.000 setgray
fill
grestore
stroke
grestore
} bind def
482.329 259.2 o
grestore
gsave
479.149746 32.106250 translate
0.000000 rotate
0.000000 0.000000 m /six glyphshow
grestore
0.700 setlinewidth
gsave
/o {
gsave
newpath
translate
0.7 setlinewidth
1 setlinejoin
0 setlinecap
0 0 m
0 3 l

gsave
0.000 setgray
fill
grestore
stroke
grestore
} bind def
93.4284 43.2 o
grestore
gsave
/o {
gsave
newpath
translate
0.7 setlinewidth
1 setlinejoin
0 setlinecap
0 0 m
0 -3 l

gsave
0.000 setgray
fill
grestore
stroke
grestore
} bind def
93.4284 259.2 o
grestore
gsave
/o {
gsave
newpath
translate
0.7 setlinewidth
1 setlinejoin
0 setlinecap
0 0 m
0 3 l

gsave
0.000 setgray
fill
grestore
stroke
grestore
} bind def
118.519 43.2 o
grestore
gsave
/o {
gsave
newpath
translate
0.7 setlinewidth
1 setlinejoin
0 setlinecap
0 0 m
0 -3 l

gsave
0.000 setgray
fill
grestore
stroke
grestore
} bind def
118.519 259.2 o
grestore
gsave
/o {
gsave
newpath
translate
0.7 setlinewidth
1 setlinejoin
0 setlinecap
0 0 m
0 3 l

gsave
0.000 setgray
fill
grestore
stroke
grestore
} bind def
131.064 43.2 o
grestore
gsave
/o {
gsave
newpath
translate
0.7 setlinewidth
1 setlinejoin
0 setlinecap
0 0 m
0 -3 l

gsave
0.000 setgray
fill
grestore
stroke
grestore
} bind def
131.064 259.2 o
grestore
gsave
/o {
gsave
newpath
translate
0.7 setlinewidth
1 setlinejoin
0 setlinecap
0 0 m
0 3 l

gsave
0.000 setgray
fill
grestore
stroke
grestore
} bind def
143.609 43.2 o
grestore
gsave
/o {
gsave
newpath
translate
0.7 setlinewidth
1 setlinejoin
0 setlinecap
0 0 m
0 -3 l

gsave
0.000 setgray
fill
grestore
stroke
grestore
} bind def
143.609 259.2 o
grestore
gsave
/o {
gsave
newpath
translate
0.7 setlinewidth
1 setlinejoin
0 setlinecap
0 0 m
0 3 l

gsave
0.000 setgray
fill
grestore
stroke
grestore
} bind def
156.154 43.2 o
grestore
gsave
/o {
gsave
newpath
translate
0.7 setlinewidth
1 setlinejoin
0 setlinecap
0 0 m
0 -3 l

gsave
0.000 setgray
fill
grestore
stroke
grestore
} bind def
156.154 259.2 o
grestore
gsave
/o {
gsave
newpath
translate
0.7 setlinewidth
1 setlinejoin
0 setlinecap
0 0 m
0 3 l

gsave
0.000 setgray
fill
grestore
stroke
grestore
} bind def
168.7 43.2 o
grestore
gsave
/o {
gsave
newpath
translate
0.7 setlinewidth
1 setlinejoin
0 setlinecap
0 0 m
0 -3 l

gsave
0.000 setgray
fill
grestore
stroke
grestore
} bind def
168.7 259.2 o
grestore
gsave
/o {
gsave
newpath
translate
0.7 setlinewidth
1 setlinejoin
0 setlinecap
0 0 m
0 3 l

gsave
0.000 setgray
fill
grestore
stroke
grestore
} bind def
181.245 43.2 o
grestore
gsave
/o {
gsave
newpath
translate
0.7 setlinewidth
1 setlinejoin
0 setlinecap
0 0 m
0 -3 l

gsave
0.000 setgray
fill
grestore
stroke
grestore
} bind def
181.245 259.2 o
grestore
gsave
/o {
gsave
newpath
translate
0.7 setlinewidth
1 setlinejoin
0 setlinecap
0 0 m
0 3 l

gsave
0.000 setgray
fill
grestore
stroke
grestore
} bind def
193.79 43.2 o
grestore
gsave
/o {
gsave
newpath
translate
0.7 setlinewidth
1 setlinejoin
0 setlinecap
0 0 m
0 -3 l

gsave
0.000 setgray
fill
grestore
stroke
grestore
} bind def
193.79 259.2 o
grestore
gsave
/o {
gsave
newpath
translate
0.7 setlinewidth
1 setlinejoin
0 setlinecap
0 0 m
0 3 l

gsave
0.000 setgray
fill
grestore
stroke
grestore
} bind def
206.335 43.2 o
grestore
gsave
/o {
gsave
newpath
translate
0.7 setlinewidth
1 setlinejoin
0 setlinecap
0 0 m
0 -3 l

gsave
0.000 setgray
fill
grestore
stroke
grestore
} bind def
206.335 259.2 o
grestore
gsave
/o {
gsave
newpath
translate
0.7 setlinewidth
1 setlinejoin
0 setlinecap
0 0 m
0 3 l

gsave
0.000 setgray
fill
grestore
stroke
grestore
} bind def
218.88 43.2 o
grestore
gsave
/o {
gsave
newpath
translate
0.7 setlinewidth
1 setlinejoin
0 setlinecap
0 0 m
0 -3 l

gsave
0.000 setgray
fill
grestore
stroke
grestore
} bind def
218.88 259.2 o
grestore
gsave
/o {
gsave
newpath
translate
0.7 setlinewidth
1 setlinejoin
0 setlinecap
0 0 m
0 3 l

gsave
0.000 setgray
fill
grestore
stroke
grestore
} bind def
231.426 43.2 o
grestore
gsave
/o {
gsave
newpath
translate
0.7 setlinewidth
1 setlinejoin
0 setlinecap
0 0 m
0 -3 l

gsave
0.000 setgray
fill
grestore
stroke
grestore
} bind def
231.426 259.2 o
grestore
gsave
/o {
gsave
newpath
translate
0.7 setlinewidth
1 setlinejoin
0 setlinecap
0 0 m
0 3 l

gsave
0.000 setgray
fill
grestore
stroke
grestore
} bind def
243.971 43.2 o
grestore
gsave
/o {
gsave
newpath
translate
0.7 setlinewidth
1 setlinejoin
0 setlinecap
0 0 m
0 -3 l

gsave
0.000 setgray
fill
grestore
stroke
grestore
} bind def
243.971 259.2 o
grestore
gsave
/o {
gsave
newpath
translate
0.7 setlinewidth
1 setlinejoin
0 setlinecap
0 0 m
0 3 l

gsave
0.000 setgray
fill
grestore
stroke
grestore
} bind def
256.516 43.2 o
grestore
gsave
/o {
gsave
newpath
translate
0.7 setlinewidth
1 setlinejoin
0 setlinecap
0 0 m
0 -3 l

gsave
0.000 setgray
fill
grestore
stroke
grestore
} bind def
256.516 259.2 o
grestore
gsave
/o {
gsave
newpath
translate
0.7 setlinewidth
1 setlinejoin
0 setlinecap
0 0 m
0 3 l

gsave
0.000 setgray
fill
grestore
stroke
grestore
} bind def
269.061 43.2 o
grestore
gsave
/o {
gsave
newpath
translate
0.7 setlinewidth
1 setlinejoin
0 setlinecap
0 0 m
0 -3 l

gsave
0.000 setgray
fill
grestore
stroke
grestore
} bind def
269.061 259.2 o
grestore
gsave
/o {
gsave
newpath
translate
0.7 setlinewidth
1 setlinejoin
0 setlinecap
0 0 m
0 3 l

gsave
0.000 setgray
fill
grestore
stroke
grestore
} bind def
281.606 43.2 o
grestore
gsave
/o {
gsave
newpath
translate
0.7 setlinewidth
1 setlinejoin
0 setlinecap
0 0 m
0 -3 l

gsave
0.000 setgray
fill
grestore
stroke
grestore
} bind def
281.606 259.2 o
grestore
gsave
/o {
gsave
newpath
translate
0.7 setlinewidth
1 setlinejoin
0 setlinecap
0 0 m
0 3 l

gsave
0.000 setgray
fill
grestore
stroke
grestore
} bind def
294.152 43.2 o
grestore
gsave
/o {
gsave
newpath
translate
0.7 setlinewidth
1 setlinejoin
0 setlinecap
0 0 m
0 -3 l

gsave
0.000 setgray
fill
grestore
stroke
grestore
} bind def
294.152 259.2 o
grestore
gsave
/o {
gsave
newpath
translate
0.7 setlinewidth
1 setlinejoin
0 setlinecap
0 0 m
0 3 l

gsave
0.000 setgray
fill
grestore
stroke
grestore
} bind def
306.697 43.2 o
grestore
gsave
/o {
gsave
newpath
translate
0.7 setlinewidth
1 setlinejoin
0 setlinecap
0 0 m
0 -3 l

gsave
0.000 setgray
fill
grestore
stroke
grestore
} bind def
306.697 259.2 o
grestore
gsave
/o {
gsave
newpath
translate
0.7 setlinewidth
1 setlinejoin
0 setlinecap
0 0 m
0 3 l

gsave
0.000 setgray
fill
grestore
stroke
grestore
} bind def
319.242 43.2 o
grestore
gsave
/o {
gsave
newpath
translate
0.7 setlinewidth
1 setlinejoin
0 setlinecap
0 0 m
0 -3 l

gsave
0.000 setgray
fill
grestore
stroke
grestore
} bind def
319.242 259.2 o
grestore
gsave
/o {
gsave
newpath
translate
0.7 setlinewidth
1 setlinejoin
0 setlinecap
0 0 m
0 3 l

gsave
0.000 setgray
fill
grestore
stroke
grestore
} bind def
331.787 43.2 o
grestore
gsave
/o {
gsave
newpath
translate
0.7 setlinewidth
1 setlinejoin
0 setlinecap
0 0 m
0 -3 l

gsave
0.000 setgray
fill
grestore
stroke
grestore
} bind def
331.787 259.2 o
grestore
gsave
/o {
gsave
newpath
translate
0.7 setlinewidth
1 setlinejoin
0 setlinecap
0 0 m
0 3 l

gsave
0.000 setgray
fill
grestore
stroke
grestore
} bind def
344.332 43.2 o
grestore
gsave
/o {
gsave
newpath
translate
0.7 setlinewidth
1 setlinejoin
0 setlinecap
0 0 m
0 -3 l

gsave
0.000 setgray
fill
grestore
stroke
grestore
} bind def
344.332 259.2 o
grestore
gsave
/o {
gsave
newpath
translate
0.7 setlinewidth
1 setlinejoin
0 setlinecap
0 0 m
0 3 l

gsave
0.000 setgray
fill
grestore
stroke
grestore
} bind def
356.878 43.2 o
grestore
gsave
/o {
gsave
newpath
translate
0.7 setlinewidth
1 setlinejoin
0 setlinecap
0 0 m
0 -3 l

gsave
0.000 setgray
fill
grestore
stroke
grestore
} bind def
356.878 259.2 o
grestore
gsave
/o {
gsave
newpath
translate
0.7 setlinewidth
1 setlinejoin
0 setlinecap
0 0 m
0 3 l

gsave
0.000 setgray
fill
grestore
stroke
grestore
} bind def
369.423 43.2 o
grestore
gsave
/o {
gsave
newpath
translate
0.7 setlinewidth
1 setlinejoin
0 setlinecap
0 0 m
0 -3 l

gsave
0.000 setgray
fill
grestore
stroke
grestore
} bind def
369.423 259.2 o
grestore
gsave
/o {
gsave
newpath
translate
0.7 setlinewidth
1 setlinejoin
0 setlinecap
0 0 m
0 3 l

gsave
0.000 setgray
fill
grestore
stroke
grestore
} bind def
381.968 43.2 o
grestore
gsave
/o {
gsave
newpath
translate
0.7 setlinewidth
1 setlinejoin
0 setlinecap
0 0 m
0 -3 l

gsave
0.000 setgray
fill
grestore
stroke
grestore
} bind def
381.968 259.2 o
grestore
gsave
/o {
gsave
newpath
translate
0.7 setlinewidth
1 setlinejoin
0 setlinecap
0 0 m
0 3 l

gsave
0.000 setgray
fill
grestore
stroke
grestore
} bind def
394.513 43.2 o
grestore
gsave
/o {
gsave
newpath
translate
0.7 setlinewidth
1 setlinejoin
0 setlinecap
0 0 m
0 -3 l

gsave
0.000 setgray
fill
grestore
stroke
grestore
} bind def
394.513 259.2 o
grestore
gsave
/o {
gsave
newpath
translate
0.7 setlinewidth
1 setlinejoin
0 setlinecap
0 0 m
0 3 l

gsave
0.000 setgray
fill
grestore
stroke
grestore
} bind def
407.058 43.2 o
grestore
gsave
/o {
gsave
newpath
translate
0.7 setlinewidth
1 setlinejoin
0 setlinecap
0 0 m
0 -3 l

gsave
0.000 setgray
fill
grestore
stroke
grestore
} bind def
407.058 259.2 o
grestore
gsave
/o {
gsave
newpath
translate
0.7 setlinewidth
1 setlinejoin
0 setlinecap
0 0 m
0 3 l

gsave
0.000 setgray
fill
grestore
stroke
grestore
} bind def
419.603 43.2 o
grestore
gsave
/o {
gsave
newpath
translate
0.7 setlinewidth
1 setlinejoin
0 setlinecap
0 0 m
0 -3 l

gsave
0.000 setgray
fill
grestore
stroke
grestore
} bind def
419.603 259.2 o
grestore
gsave
/o {
gsave
newpath
translate
0.7 setlinewidth
1 setlinejoin
0 setlinecap
0 0 m
0 3 l

gsave
0.000 setgray
fill
grestore
stroke
grestore
} bind def
432.149 43.2 o
grestore
gsave
/o {
gsave
newpath
translate
0.7 setlinewidth
1 setlinejoin
0 setlinecap
0 0 m
0 -3 l

gsave
0.000 setgray
fill
grestore
stroke
grestore
} bind def
432.149 259.2 o
grestore
gsave
/o {
gsave
newpath
translate
0.7 setlinewidth
1 setlinejoin
0 setlinecap
0 0 m
0 3 l

gsave
0.000 setgray
fill
grestore
stroke
grestore
} bind def
444.694 43.2 o
grestore
gsave
/o {
gsave
newpath
translate
0.7 setlinewidth
1 setlinejoin
0 setlinecap
0 0 m
0 -3 l

gsave
0.000 setgray
fill
grestore
stroke
grestore
} bind def
444.694 259.2 o
grestore
gsave
/o {
gsave
newpath
translate
0.7 setlinewidth
1 setlinejoin
0 setlinecap
0 0 m
0 3 l

gsave
0.000 setgray
fill
grestore
stroke
grestore
} bind def
457.239 43.2 o
grestore
gsave
/o {
gsave
newpath
translate
0.7 setlinewidth
1 setlinejoin
0 setlinecap
0 0 m
0 -3 l

gsave
0.000 setgray
fill
grestore
stroke
grestore
} bind def
457.239 259.2 o
grestore
gsave
/o {
gsave
newpath
translate
0.7 setlinewidth
1 setlinejoin
0 setlinecap
0 0 m
0 3 l

gsave
0.000 setgray
fill
grestore
stroke
grestore
} bind def
469.784 43.2 o
grestore
gsave
/o {
gsave
newpath
translate
0.7 setlinewidth
1 setlinejoin
0 setlinecap
0 0 m
0 -3 l

gsave
0.000 setgray
fill
grestore
stroke
grestore
} bind def
469.784 259.2 o
grestore
gsave
/o {
gsave
newpath
translate
0.7 setlinewidth
1 setlinejoin
0 setlinecap
0 0 m
0 3 l

gsave
0.000 setgray
fill
grestore
stroke
grestore
} bind def
482.329 43.2 o
grestore
gsave
/o {
gsave
newpath
translate
0.7 setlinewidth
1 setlinejoin
0 setlinecap
0 0 m
0 -3 l

gsave
0.000 setgray
fill
grestore
stroke
grestore
} bind def
482.329 259.2 o
grestore
gsave
/o {
gsave
newpath
translate
0.7 setlinewidth
1 setlinejoin
0 setlinecap
0 0 m
0 3 l

gsave
0.000 setgray
fill
grestore
stroke
grestore
} bind def
494.875 43.2 o
grestore
gsave
/o {
gsave
newpath
translate
0.7 setlinewidth
1 setlinejoin
0 setlinecap
0 0 m
0 -3 l

gsave
0.000 setgray
fill
grestore
stroke
grestore
} bind def
494.875 259.2 o
grestore
gsave
/o {
gsave
newpath
translate
0.7 setlinewidth
1 setlinejoin
0 setlinecap
0 0 m
0 3 l

gsave
0.000 setgray
fill
grestore
stroke
grestore
} bind def
507.42 43.2 o
grestore
gsave
/o {
gsave
newpath
translate
0.7 setlinewidth
1 setlinejoin
0 setlinecap
0 0 m
0 -3 l

gsave
0.000 setgray
fill
grestore
stroke
grestore
} bind def
507.42 259.2 o
grestore
gsave
284.400000 19.028125 translate
0.000000 rotate
/DejaVuSans-Oblique findfont
14.0 scalefont
setfont
0.000000 0.359375 moveto
/z glyphshow

/DejaVuSerif findfont
14.0 scalefont
setfont
7.348633 0.359375 moveto
/space glyphshow

11.798828 0.359375 moveto
/parenleft glyphshow

17.260742 0.359375 moveto
/m glyphshow

30.536133 0.359375 moveto
/parenright glyphshow


grestore
0.800 setlinewidth
2 setlinecap
0.690 setgray
gsave
432 216 86.4 43.2 clipbox
86.4 50.98281 m
518.4 50.98281 l
stroke
grestore
1.000 setlinewidth
0 setlinecap
0.000 setgray
gsave
/o {
gsave
newpath
translate
1.0 setlinewidth
1 setlinejoin
0 setlinecap
0 0 m
5 0 l

gsave
0.000 setgray
fill
grestore
stroke
grestore
} bind def
86.4 50.9828 o
grestore
gsave
/o {
gsave
newpath
translate
1.0 setlinewidth
1 setlinejoin
0 setlinecap
0 0 m
-5 0 l

gsave
0.000 setgray
fill
grestore
stroke
grestore
} bind def
518.4 50.9828 o
grestore
gsave
66.993750 47.185935 translate
0.000000 rotate
0.000000 0.000000 m /zero glyphshow
6.362305 0.000000 m /period glyphshow
9.541016 0.000000 m /eight glyphshow
grestore
0.800 setlinewidth
2 setlinecap
0.690 setgray
gsave
432 216 86.4 43.2 clipbox
86.4 97.77834 m
518.4 97.77834 l
stroke
grestore
1.000 setlinewidth
0 setlinecap
0.000 setgray
gsave
/o {
gsave
newpath
translate
1.0 setlinewidth
1 setlinejoin
0 setlinecap
0 0 m
5 0 l

gsave
0.000 setgray
fill
grestore
stroke
grestore
} bind def
86.4 97.7783 o
grestore
gsave
/o {
gsave
newpath
translate
1.0 setlinewidth
1 setlinejoin
0 setlinecap
0 0 m
-5 0 l

gsave
0.000 setgray
fill
grestore
stroke
grestore
} bind def
518.4 97.7783 o
grestore
gsave
66.993750 93.981465 translate
0.000000 rotate
0.000000 0.000000 m /one glyphshow
6.362305 0.000000 m /period glyphshow
9.541016 0.000000 m /zero glyphshow
grestore
0.800 setlinewidth
2 setlinecap
0.690 setgray
gsave
432 216 86.4 43.2 clipbox
86.4 144.57387 m
518.4 144.57387 l
stroke
grestore
1.000 setlinewidth
0 setlinecap
0.000 setgray
gsave
/o {
gsave
newpath
translate
1.0 setlinewidth
1 setlinejoin
0 setlinecap
0 0 m
5 0 l

gsave
0.000 setgray
fill
grestore
stroke
grestore
} bind def
86.4 144.574 o
grestore
gsave
/o {
gsave
newpath
translate
1.0 setlinewidth
1 setlinejoin
0 setlinecap
0 0 m
-5 0 l

gsave
0.000 setgray
fill
grestore
stroke
grestore
} bind def
518.4 144.574 o
grestore
gsave
66.993750 140.776995 translate
0.000000 rotate
0.000000 0.000000 m /one glyphshow
6.362305 0.000000 m /period glyphshow
9.541016 0.000000 m /two glyphshow
grestore
0.800 setlinewidth
2 setlinecap
0.690 setgray
gsave
432 216 86.4 43.2 clipbox
86.4 191.3694 m
518.4 191.3694 l
stroke
grestore
1.000 setlinewidth
0 setlinecap
0.000 setgray
gsave
/o {
gsave
newpath
translate
1.0 setlinewidth
1 setlinejoin
0 setlinecap
0 0 m
5 0 l

gsave
0.000 setgray
fill
grestore
stroke
grestore
} bind def
86.4 191.369 o
grestore
gsave
/o {
gsave
newpath
translate
1.0 setlinewidth
1 setlinejoin
0 setlinecap
0 0 m
-5 0 l

gsave
0.000 setgray
fill
grestore
stroke
grestore
} bind def
518.4 191.369 o
grestore
gsave
66.993750 187.572525 translate
0.000000 rotate
0.000000 0.000000 m /one glyphshow
6.362305 0.000000 m /period glyphshow
9.541016 0.000000 m /four glyphshow
grestore
0.800 setlinewidth
2 setlinecap
0.690 setgray
gsave
432 216 86.4 43.2 clipbox
86.4 238.16493 m
518.4 238.16493 l
stroke
grestore
1.000 setlinewidth
0 setlinecap
0.000 setgray
gsave
/o {
gsave
newpath
translate
1.0 setlinewidth
1 setlinejoin
0 setlinecap
0 0 m
5 0 l

gsave
0.000 setgray
fill
grestore
stroke
grestore
} bind def
86.4 238.165 o
grestore
gsave
/o {
gsave
newpath
translate
1.0 setlinewidth
1 setlinejoin
0 setlinecap
0 0 m
-5 0 l

gsave
0.000 setgray
fill
grestore
stroke
grestore
} bind def
518.4 238.165 o
grestore
gsave
66.993750 234.368055 translate
0.000000 rotate
0.000000 0.000000 m /one glyphshow
6.362305 0.000000 m /period glyphshow
9.541016 0.000000 m /six glyphshow
grestore
0.700 setlinewidth
gsave
/o {
gsave
newpath
translate
0.7 setlinewidth
1 setlinejoin
0 setlinecap
0 0 m
3 0 l

gsave
0.000 setgray
fill
grestore
stroke
grestore
} bind def
86.4 62.6817 o
grestore
gsave
/o {
gsave
newpath
translate
0.7 setlinewidth
1 setlinejoin
0 setlinecap
0 0 m
-3 0 l

gsave
0.000 setgray
fill
grestore
stroke
grestore
} bind def
518.4 62.6817 o
grestore
gsave
/o {
gsave
newpath
translate
0.7 setlinewidth
1 setlinejoin
0 setlinecap
0 0 m
3 0 l

gsave
0.000 setgray
fill
grestore
stroke
grestore
} bind def
86.4 74.3806 o
grestore
gsave
/o {
gsave
newpath
translate
0.7 setlinewidth
1 setlinejoin
0 setlinecap
0 0 m
-3 0 l

gsave
0.000 setgray
fill
grestore
stroke
grestore
} bind def
518.4 74.3806 o
grestore
gsave
/o {
gsave
newpath
translate
0.7 setlinewidth
1 setlinejoin
0 setlinecap
0 0 m
3 0 l

gsave
0.000 setgray
fill
grestore
stroke
grestore
} bind def
86.4 86.0795 o
grestore
gsave
/o {
gsave
newpath
translate
0.7 setlinewidth
1 setlinejoin
0 setlinecap
0 0 m
-3 0 l

gsave
0.000 setgray
fill
grestore
stroke
grestore
} bind def
518.4 86.0795 o
grestore
gsave
/o {
gsave
newpath
translate
0.7 setlinewidth
1 setlinejoin
0 setlinecap
0 0 m
3 0 l

gsave
0.000 setgray
fill
grestore
stroke
grestore
} bind def
86.4 109.477 o
grestore
gsave
/o {
gsave
newpath
translate
0.7 setlinewidth
1 setlinejoin
0 setlinecap
0 0 m
-3 0 l

gsave
0.000 setgray
fill
grestore
stroke
grestore
} bind def
518.4 109.477 o
grestore
gsave
/o {
gsave
newpath
translate
0.7 setlinewidth
1 setlinejoin
0 setlinecap
0 0 m
3 0 l

gsave
0.000 setgray
fill
grestore
stroke
grestore
} bind def
86.4 121.176 o
grestore
gsave
/o {
gsave
newpath
translate
0.7 setlinewidth
1 setlinejoin
0 setlinecap
0 0 m
-3 0 l

gsave
0.000 setgray
fill
grestore
stroke
grestore
} bind def
518.4 121.176 o
grestore
gsave
/o {
gsave
newpath
translate
0.7 setlinewidth
1 setlinejoin
0 setlinecap
0 0 m
3 0 l

gsave
0.000 setgray
fill
grestore
stroke
grestore
} bind def
86.4 132.875 o
grestore
gsave
/o {
gsave
newpath
translate
0.7 setlinewidth
1 setlinejoin
0 setlinecap
0 0 m
-3 0 l

gsave
0.000 setgray
fill
grestore
stroke
grestore
} bind def
518.4 132.875 o
grestore
gsave
/o {
gsave
newpath
translate
0.7 setlinewidth
1 setlinejoin
0 setlinecap
0 0 m
3 0 l

gsave
0.000 setgray
fill
grestore
stroke
grestore
} bind def
86.4 156.273 o
grestore
gsave
/o {
gsave
newpath
translate
0.7 setlinewidth
1 setlinejoin
0 setlinecap
0 0 m
-3 0 l

gsave
0.000 setgray
fill
grestore
stroke
grestore
} bind def
518.4 156.273 o
grestore
gsave
/o {
gsave
newpath
translate
0.7 setlinewidth
1 setlinejoin
0 setlinecap
0 0 m
3 0 l

gsave
0.000 setgray
fill
grestore
stroke
grestore
} bind def
86.4 167.972 o
grestore
gsave
/o {
gsave
newpath
translate
0.7 setlinewidth
1 setlinejoin
0 setlinecap
0 0 m
-3 0 l

gsave
0.000 setgray
fill
grestore
stroke
grestore
} bind def
518.4 167.972 o
grestore
gsave
/o {
gsave
newpath
translate
0.7 setlinewidth
1 setlinejoin
0 setlinecap
0 0 m
3 0 l

gsave
0.000 setgray
fill
grestore
stroke
grestore
} bind def
86.4 179.671 o
grestore
gsave
/o {
gsave
newpath
translate
0.7 setlinewidth
1 setlinejoin
0 setlinecap
0 0 m
-3 0 l

gsave
0.000 setgray
fill
grestore
stroke
grestore
} bind def
518.4 179.671 o
grestore
gsave
/o {
gsave
newpath
translate
0.7 setlinewidth
1 setlinejoin
0 setlinecap
0 0 m
3 0 l

gsave
0.000 setgray
fill
grestore
stroke
grestore
} bind def
86.4 203.068 o
grestore
gsave
/o {
gsave
newpath
translate
0.7 setlinewidth
1 setlinejoin
0 setlinecap
0 0 m
-3 0 l

gsave
0.000 setgray
fill
grestore
stroke
grestore
} bind def
518.4 203.068 o
grestore
gsave
/o {
gsave
newpath
translate
0.7 setlinewidth
1 setlinejoin
0 setlinecap
0 0 m
3 0 l

gsave
0.000 setgray
fill
grestore
stroke
grestore
} bind def
86.4 214.767 o
grestore
gsave
/o {
gsave
newpath
translate
0.7 setlinewidth
1 setlinejoin
0 setlinecap
0 0 m
-3 0 l

gsave
0.000 setgray
fill
grestore
stroke
grestore
} bind def
518.4 214.767 o
grestore
gsave
/o {
gsave
newpath
translate
0.7 setlinewidth
1 setlinejoin
0 setlinecap
0 0 m
3 0 l

gsave
0.000 setgray
fill
grestore
stroke
grestore
} bind def
86.4 226.466 o
grestore
gsave
/o {
gsave
newpath
translate
0.7 setlinewidth
1 setlinejoin
0 setlinecap
0 0 m
-3 0 l

gsave
0.000 setgray
fill
grestore
stroke
grestore
} bind def
518.4 226.466 o
grestore
gsave
/o {
gsave
newpath
translate
0.7 setlinewidth
1 setlinejoin
0 setlinecap
0 0 m
3 0 l

gsave
0.000 setgray
fill
grestore
stroke
grestore
} bind def
86.4 249.864 o
grestore
gsave
/o {
gsave
newpath
translate
0.7 setlinewidth
1 setlinejoin
0 setlinecap
0 0 m
-3 0 l

gsave
0.000 setgray
fill
grestore
stroke
grestore
} bind def
518.4 249.864 o
grestore
gsave
61.993750 117.700000 translate
90.000000 rotate
/DejaVuSans-Oblique findfont
14.0 scalefont
setfont
0.000000 0.359375 moveto
/sigma glyphshow

/DejaVuSans-Oblique findfont
9.8 scalefont
setfont
8.873047 -1.937500 moveto
/x glyphshow

/DejaVuSans findfont
9.8 scalefont
setfont
14.672656 -1.937500 moveto
/slash glyphshow

/DejaVuSans-Oblique findfont
9.8 scalefont
setfont
17.974414 -1.937500 moveto
/y glyphshow

/DejaVuSerif findfont
14.0 scalefont
setfont
24.156836 0.359375 moveto
/space glyphshow

28.607031 0.359375 moveto
/parenleft glyphshow

34.068945 0.359375 moveto
/m glyphshow

47.344336 0.359375 moveto
/m glyphshow

60.619727 0.359375 moveto
/parenright glyphshow


grestore
2.000 setlinewidth
2 setlinecap
1.000 0.000 0.000 setrgbcolor
gsave
432 216 86.4 43.2 clipbox
106.036364 158.722498 m
113.98688 156.759426 l
120.134024 155.495947 l
126.594799 154.403271 l
132.930122 153.570311 l
133.839648 153.36909 l
134.529634 152.95027 l
135.219619 152.290453 l
136.035057 151.195437 l
136.975946 149.517818 l
138.450007 146.24681 l
144.973507 131.677022 l
156.703263 106.126663 l
168.746648 80.777992 l
177.653735 62.626474 l
181.636834 54.865669 l
182.389546 53.934906 l
183.079531 53.410562 l
183.706791 53.206066 l
184.271325 53.243502 l
184.835858 53.490583 l
185.745385 54.202109 l
192.080707 59.496321 l
198.666934 65.292883 l
205.159071 71.301195 l
212.153017 78.104563 l
219.115599 85.22193 l
225.388195 91.931473 l
229.496746 96.273162 l
230.249458 96.65361 l
230.939443 96.7713 l
231.629429 96.667882 l
232.319415 96.343355 l
233.166215 95.676753 l
239.187908 90.720872 l
245.021423 86.183344 l
251.168567 81.689803 l
256.688452 77.912 l
262.584693 74.151745 l
268.292756 70.787848 l
273.938093 67.733504 l
279.489341 64.999475 l
284.538781 62.748142 l
289.494133 60.760034 l
294.82584 58.869027 l
300.063458 57.264876 l
304.861994 56.017541 l
309.691894 54.978681 l
314.835423 54.113197 l
319.916226 53.503451 l
324.620673 53.156931 l
329.325121 53.020522 l
334.029568 53.094693 l
338.734016 53.378975 l
343.501189 53.881325 l
348.644718 54.664449 l
353.411892 55.612526 l
358.179065 56.773055 l
363.071691 58.183706 l
367.964316 59.814531 l
372.856941 61.663656 l
377.875019 63.783961 l
382.955822 66.159069 l
388.538433 69.02974 l
394.246496 72.242955 l
400.017284 75.771806 l
405.913525 79.663089 l
411.935218 83.928735 l
418.145089 88.62958 l
423.978603 93.318024 l
429.93757 98.372643 l
440.538258 108.010183 l
451.201673 118.50642 l
456.345202 123.84345 l
461.927813 129.833278 l
474.849362 144.459221 l
480.243795 150.865529 l
493.980781 167.948237 l
498.763636 174.146305 l
498.763636 174.146305 l
stroke
grestore
0.000 0.000 1.000 setrgbcolor
gsave
432 216 86.4 43.2 clipbox
106.036364 150.837452 m
114.237784 149.115376 l
120.447654 148.069496 l
126.908429 147.217817 l
133.118299 146.632873 l
133.839648 146.677329 l
134.529634 146.967461 l
135.282345 147.561765 l
136.097783 148.532772 l
136.91322 149.843047 l
138.010925 152.070514 l
146.039848 169.097067 l
159.494568 198.470621 l
172.510206 227.872253 l
181.574108 248.602673 l
182.138642 249.201655 l
182.577724 249.377139 l
182.954079 249.325664 l
183.393161 249.028512 l
183.894969 248.378054 l
184.459503 247.247942 l
185.118125 245.401858 l
201.67778 192.649258 l
212.780276 158.224126 l
224.008224 124.236533 l
229.559472 108.007843 l
230.625813 105.682105 l
231.629429 104.009165 l
232.507592 102.953926 l
233.856201 101.798076 l
237.933389 98.442837 l
247.781365 90.868512 l
253.520791 86.80783 l
259.448395 82.895958 l
265.156458 79.406181 l
270.362713 76.465082 l
275.882598 73.604471 l
280.900675 71.237553 l
286.232382 68.970778 l
291.501363 66.985712 l
296.331263 65.391154 l
301.443429 63.941194 l
306.555595 62.738081 l
311.260043 61.85037 l
316.27812 61.137206 l
321.296197 60.666443 l
325.937919 60.447206 l
330.57964 60.435975 l
335.221362 60.632984 l
339.863083 61.037532 l
344.504805 61.649149 l
349.209252 62.479302 l
353.976425 63.535009 l
358.743599 64.80504 l
363.510772 66.287288 l
368.403398 68.026912 l
373.358749 70.011745 l
378.753182 72.42382 l
384.273067 75.159253 l
389.479322 77.982427 l
395.218748 81.363638 l
400.581818 84.772458 l
406.540785 88.837118 l
412.68793 93.328787 l
418.458718 97.813437 l
427.993065 105.780376 l
432.760239 110.015371 l
437.903768 114.765117 l
449.758975 126.417204 l
460.73602 138.041214 l
466.193179 144.103575 l
479.616535 159.794116 l
485.13642 166.55373 l
491.597195 174.682114 l
498.371599 183.451596 l
498.763636 183.966347 l
498.763636 183.966347 l
stroke
grestore
0.800 setlinewidth
0 setlinejoin
[] 0 setdash
0.000 setgray
gsave
86.4 43.2 m
86.4 259.2 l
stroke
grestore
gsave
518.4 43.2 m
518.4 259.2 l
stroke
grestore
gsave
86.4 43.2 m
518.4 43.2 l
stroke
grestore
gsave
86.4 259.2 m
518.4 259.2 l
stroke
grestore
2.000 setlinewidth
1 setlinejoin
[] 0 setdash
1.000 0.000 0.000 setrgbcolor
gsave
470.81875 243.475 m
496.01875 243.475 l
stroke
grestore
0.000 setgray
/DejaVuSerif findfont
12.000 scalefont
setfont
gsave
500.818750 239.275000 translate
0.000000 rotate
0.000000 0.000000 m /x glyphshow
grestore
0.000 0.000 1.000 setrgbcolor
gsave
470.81875 231.25 m
496.01875 231.25 l
stroke
grestore
0.000 setgray
gsave
500.818750 227.050000 translate
0.000000 rotate
0.000000 0.000000 m /y glyphshow
grestore

end
showpage
