--------------------------------------------------------------------------
No OpenFabrics connection schemes reported that they were able to be
used on a specific port.  As such, the openib BTL (OpenFabrics
support) will be disabled for this port.

  Local host:           pax10-31
  Local device:         mlx4_0
  Local port:           1
  CPCs attempted:       rdmacm, udcm
--------------------------------------------------------------------------
Traceback (most recent call last):
  File "NSGAII_mpi.py", line 39, in <module>
    problem = DTLZ2()
NameError: name 'DTLZ2' is not defined
Traceback (most recent call last):
  File "NSGAII_mpi.py", line 39, in <module>
    problem = DTLZ2()
NameError: name 'DTLZ2' is not defined
Traceback (most recent call last):
  File "NSGAII_mpi.py", line 39, in <module>
    problem = DTLZ2()
NameError: name 'DTLZ2' is not defined
Traceback (most recent call last):
  File "NSGAII_mpi.py", line 39, in <module>
    problem = DTLZ2()
NameError: name 'DTLZ2' is not defined
Traceback (most recent call last):
  File "NSGAII_mpi.py", line 39, in <module>
    problem = DTLZ2()
NameError: name 'DTLZ2' is not defined
Traceback (most recent call last):
  File "NSGAII_mpi.py", line 39, in <module>
    problem = DTLZ2()
NameError: name 'DTLZ2' is not defined
Traceback (most recent call last):
  File "NSGAII_mpi.py", line 39, in <module>
    problem = DTLZ2()
NameError: name 'DTLZ2' is not defined
Traceback (most recent call last):
  File "NSGAII_mpi.py", line 39, in <module>
    problem = DTLZ2()
NameError: name 'DTLZ2' is not defined
Traceback (most recent call last):
  File "NSGAII_mpi.py", line 39, in <module>
    problem = DTLZ2()
NameError: name 'DTLZ2' is not defined
Traceback (most recent call last):
  File "NSGAII_mpi.py", line 39, in <module>
    problem = DTLZ2()
NameError: name 'DTLZ2' is not defined
Traceback (most recent call last):
  File "NSGAII_mpi.py", line 39, in <module>
    problem = DTLZ2()
NameError: name 'DTLZ2' is not defined
Traceback (most recent call last):
  File "NSGAII_mpi.py", line 39, in <module>
    problem = DTLZ2()
NameError: name 'DTLZ2' is not defined
Traceback (most recent call last):
  File "NSGAII_mpi.py", line 39, in <module>
    problem = DTLZ2()
NameError: name 'DTLZ2' is not defined
Traceback (most recent call last):
  File "NSGAII_mpi.py", line 39, in <module>
    problem = DTLZ2()
NameError: name 'DTLZ2' is not defined
Traceback (most recent call last):
  File "NSGAII_mpi.py", line 39, in <module>
    problem = DTLZ2()
NameError: name 'DTLZ2' is not defined
Traceback (most recent call last):
  File "NSGAII_mpi.py", line 39, in <module>
    problem = DTLZ2()
NameError: name 'DTLZ2' is not defined
--------------------------------------------------------------------------
Primary job  terminated normally, but 1 process returned
a non-zero exit code. Per user-direction, the job has been aborted.
--------------------------------------------------------------------------
--------------------------------------------------------------------------
mpirun detected that one or more processes exited with non-zero status, thus causing
the job to be terminated. The first process to do so was:

  Process name: [[40693,1],10]
  Exit code:    1
--------------------------------------------------------------------------
[pax10-31.zeuthen.desy.de:20819] 15 more processes have sent help message help-mpi-btl-openib-cpc-base.txt / no cpcs for port
[pax10-31.zeuthen.desy.de:20819] Set MCA parameter "orte_base_help_aggregate" to 0 to see all help / error messages
