D    0.291750    0.000000    0.000000    0.000000    0
Q    0.067500   -0.728386   -1.000000    1.000000    0
D    0.182500    0.000000    0.000000    0.000000    0
Q    0.067500    0.000000    0.000000    0.000000    0
D    0.727500    0.000000    0.000000    0.000000    0
Q    0.067500    0.890001   -1.000000    1.000000    0
D    0.177500    0.000000    0.000000    0.000000    0
Q    0.067500    0.000000    0.000000    0.000000    0
D    1.220000    0.000000    0.000000    0.000000    0
Q    0.067500   -0.458328   -1.000000    1.000000    0
D    0.407500    0.000000    0.000000    0.000000    0
Q    0.067500    0.000000    0.000000    0.000000    0
D    1.485500    0.000000    0.000000    0.000000    0
Q    0.067500    0.000000    0.000000    0.000000    0
D    0.112500    0.000000    0.000000    0.000000    0
Q    0.067500    0.000000    0.000000    0.000000    0
D    1.632500    0.000000    0.000000    0.000000    0
Q    0.067500   -0.500050   -1.000000    1.000000    1
D    0.312500    0.000000    0.000000    0.000000    0
Q    0.067500    0.000000    0.000000    0.000000    0
D    0.312500    0.000000    0.000000    0.000000    0
Q    0.067500    0.000000    0.000000    0.000000    0
D    0.312500    0.000000    0.000000    0.000000    0
Q    0.067500    0.570070   -1.000000    1.000000    1
D    0.312500    0.000000    0.000000    0.000000    0
Q    0.067500    0.000000    0.000000    0.000000    0
D    0.312500    0.000000    0.000000    0.000000    0
Q    0.067500    0.000000    0.000000    0.000000    0
D    0.312500    0.000000    0.000000    0.000000    0
Q    0.067500   -0.707080   -1.000000    1.000000    1
D    0.312500    0.000000    0.000000    0.000000    0
Q    0.067500    0.000000    0.000000    0.000000    0
D    0.312500    0.000000    0.000000    0.000000    0
Q    0.067500    0.000000    0.000000    0.000000    0
D    1.138250    0.000000    0.000000    0.000000    0
