%!PS-Adobe-3.0 EPSF-3.0
%%Title: sco-rms_xy-z.eps
%%Creator: matplotlib version 2.2.3, http://matplotlib.org/
%%CreationDate: Sun Nov 18 22:01:30 2018
%%Orientation: portrait
%%BoundingBox: 18 252 594 540
%%EndComments
%%BeginProlog
/mpldict 9 dict def
mpldict begin
/m { moveto } bind def
/l { lineto } bind def
/r { rlineto } bind def
/c { curveto } bind def
/cl { closepath } bind def
/box {
m
1 index 0 r
0 exch r
neg 0 r
cl
} bind def
/clipbox {
box
clip
newpath
} bind def
%!PS-Adobe-3.0 Resource-Font
%%Title: DejaVu Sans Oblique
%%Copyright: Copyright (c) 2003 by Bitstream, Inc. All Rights Reserved. Copyright (c) 2006 by Tavmjong Bah. All Rights Reserved. DejaVu changes are in public domain 
%%Creator: Converted from TrueType to type 3 by PPR
25 dict begin
/_d{bind def}bind def
/_m{moveto}_d
/_l{lineto}_d
/_cl{closepath eofill}_d
/_c{curveto}_d
/_sc{7 -1 roll{setcachedevice}{pop pop pop pop pop pop}ifelse}_d
/_e{exec}_d
/FontName /DejaVuSans-Oblique def
/PaintType 0 def
/FontMatrix[.001 0 0 .001 0 0]def
/FontBBox[-1016 -350 1659 1068]def
/FontType 3 def
/Encoding [ /x /y /z /sigma ] def
/FontInfo 10 dict dup begin
/FamilyName (DejaVu Sans) def
/FullName (DejaVu Sans Oblique) def
/Notice (Copyright (c) 2003 by Bitstream, Inc. All Rights Reserved. Copyright (c) 2006 by Tavmjong Bah. All Rights Reserved. DejaVu changes are in public domain ) def
/Weight (Oblique) def
/Version (Version 2.35) def
/ItalicAngle -11.0 def
/isFixedPitch false def
/UnderlinePosition -130 def
/UnderlineThickness 90 def
end readonly def
/CharStrings 5 dict dup begin
/.notdef 0 def
/x{592 0 -25 0 600 547 _sc
600 547 _m
349 279 _l
503 0 _l
400 0 _l
284 217 _l
83 0 _l
-25 0 _l
243 288 _l
100 547 _l
203 547 _l
308 349 _l
491 547 _l
600 547 _l
_cl}_d
/y{592 0 -24 -207 603 547 _sc
248 -50 _m
206 -120 172 -163 146 -181 _c
120 -198 86 -207 46 -207 _c
-24 -207 _l
-9 -132 _l
42 -132 _l
67 -132 88 -125 106 -111 _c
123 -97 143 -71 165 -31 _c
193 20 _l
72 547 _l
167 547 _l
258 128 _l
509 547 _l
603 547 _l
248 -50 _l
_cl}_d
/z{525 0 -2 0 543 547 _sc
116 547 _m
543 547 _l
527 465 _l
115 72 _l
455 72 _l
441 0 _l
-2 0 _l
13 82 _l
425 475 _l
102 475 _l
116 547 _l
_cl}_d
/sigma{{634 0 57 -13 659 547 _sc
347 476 _m
297 476 255 458 222 422 _c
186 384 163 335 151 273 _c
138 207 142 156 163 118 _c
183 80 218 62 267 62 _c
314 62 355 81 391 119 _c
426 156 450 207 463 273 _c
474 332 470 382 450 422 _c
431 458 397 476 347 476 _c
361 547 _m
659 547 _l
642 457 _l
541 457 _l
566 406 572 345 559 273 _c
541 183 505 113 451 63 _c
396 12 329 -13 251 -13 _c
}_e{173 -13 116 12 82 63 _c
47 113 39 183 57 273 _c
74 363 110 433 164 484 _c
209 526 275 547 361 547 _c
_cl}_e}_d
end readonly def

/BuildGlyph
 {exch begin
 CharStrings exch
 2 copy known not{pop /.notdef}if
 true 3 1 roll get exec
 end}_d

/BuildChar {
 1 index /Encoding get exch get
 1 index /BuildGlyph get exec
}_d

FontName currentdict end definefont pop
%!PS-Adobe-3.0 Resource-Font
%%Title: DejaVu Sans
%%Copyright: Copyright (c) 2003 by Bitstream, Inc. All Rights Reserved. Copyright (c) 2006 by Tavmjong Bah. All Rights Reserved. DejaVu changes are in public domain 
%%Creator: Converted from TrueType to type 3 by PPR
25 dict begin
/_d{bind def}bind def
/_m{moveto}_d
/_l{lineto}_d
/_cl{closepath eofill}_d
/_c{curveto}_d
/_sc{7 -1 roll{setcachedevice}{pop pop pop pop pop pop}ifelse}_d
/_e{exec}_d
/FontName /DejaVuSans def
/PaintType 0 def
/FontMatrix[.001 0 0 .001 0 0]def
/FontBBox[-1021 -463 1793 1232]def
/FontType 3 def
/Encoding [ /space /parenleft /parenright /period /slash /zero /one /two /four /six /eight /m /x /y ] def
/FontInfo 10 dict dup begin
/FamilyName (DejaVu Sans) def
/FullName (DejaVu Sans) def
/Notice (Copyright (c) 2003 by Bitstream, Inc. All Rights Reserved. Copyright (c) 2006 by Tavmjong Bah. All Rights Reserved. DejaVu changes are in public domain ) def
/Weight (Book) def
/Version (Version 2.35) def
/ItalicAngle 0.0 def
/isFixedPitch false def
/UnderlinePosition -130 def
/UnderlineThickness 90 def
end readonly def
/CharStrings 15 dict dup begin
/.notdef 0 def
/space{318 0 0 0 0 0 _sc
}_d
/parenleft{390 0 86 -131 310 759 _sc
310 759 _m
266 683 234 609 213 536 _c
191 463 181 389 181 314 _c
181 238 191 164 213 91 _c
234 17 266 -56 310 -131 _c
232 -131 _l
183 -54 146 20 122 94 _c
98 168 86 241 86 314 _c
86 386 98 459 122 533 _c
146 607 182 682 232 759 _c
310 759 _l
_cl}_d
/parenright{390 0 80 -131 304 759 _sc
80 759 _m
158 759 _l
206 682 243 607 267 533 _c
291 459 304 386 304 314 _c
304 241 291 168 267 94 _c
243 20 206 -54 158 -131 _c
80 -131 _l
123 -56 155 17 177 91 _c
198 164 209 238 209 314 _c
209 389 198 463 177 536 _c
155 609 123 683 80 759 _c
_cl}_d
/period{318 0 107 0 210 124 _sc
107 124 _m
210 124 _l
210 0 _l
107 0 _l
107 124 _l
_cl}_d
/slash{337 0 0 -92 337 729 _sc
254 729 _m
337 729 _l
83 -92 _l
0 -92 _l
254 729 _l
_cl}_d
/zero{636 0 66 -13 570 742 _sc
318 664 _m
267 664 229 639 203 589 _c
177 539 165 464 165 364 _c
165 264 177 189 203 139 _c
229 89 267 64 318 64 _c
369 64 407 89 433 139 _c
458 189 471 264 471 364 _c
471 464 458 539 433 589 _c
407 639 369 664 318 664 _c
318 742 _m
399 742 461 709 505 645 _c
548 580 570 486 570 364 _c
570 241 548 147 505 83 _c
461 19 399 -13 318 -13 _c
236 -13 173 19 130 83 _c
87 147 66 241 66 364 _c
66 486 87 580 130 645 _c
173 709 236 742 318 742 _c
_cl}_d
/one{636 0 110 0 544 729 _sc
124 83 _m
285 83 _l
285 639 _l
110 604 _l
110 694 _l
284 729 _l
383 729 _l
383 83 _l
544 83 _l
544 0 _l
124 0 _l
124 83 _l
_cl}_d
/two{{636 0 73 0 536 742 _sc
192 83 _m
536 83 _l
536 0 _l
73 0 _l
73 83 _l
110 121 161 173 226 239 _c
290 304 331 346 348 365 _c
380 400 402 430 414 455 _c
426 479 433 504 433 528 _c
433 566 419 598 392 622 _c
365 646 330 659 286 659 _c
255 659 222 653 188 643 _c
154 632 117 616 78 594 _c
78 694 _l
118 710 155 722 189 730 _c
223 738 255 742 284 742 _c
}_e{359 742 419 723 464 685 _c
509 647 532 597 532 534 _c
532 504 526 475 515 449 _c
504 422 484 390 454 354 _c
446 344 420 317 376 272 _c
332 227 271 164 192 83 _c
_cl}_e}_d
/four{636 0 49 0 580 729 _sc
378 643 _m
129 254 _l
378 254 _l
378 643 _l
352 729 _m
476 729 _l
476 254 _l
580 254 _l
580 172 _l
476 172 _l
476 0 _l
378 0 _l
378 172 _l
49 172 _l
49 267 _l
352 729 _l
_cl}_d
/six{{636 0 70 -13 573 742 _sc
330 404 _m
286 404 251 388 225 358 _c
199 328 186 286 186 234 _c
186 181 199 139 225 109 _c
251 79 286 64 330 64 _c
374 64 409 79 435 109 _c
461 139 474 181 474 234 _c
474 286 461 328 435 358 _c
409 388 374 404 330 404 _c
526 713 _m
526 623 _l
501 635 476 644 451 650 _c
425 656 400 659 376 659 _c
310 659 260 637 226 593 _c
}_e{192 549 172 482 168 394 _c
187 422 211 444 240 459 _c
269 474 301 482 336 482 _c
409 482 467 459 509 415 _c
551 371 573 310 573 234 _c
573 159 550 99 506 54 _c
462 9 403 -13 330 -13 _c
246 -13 181 19 137 83 _c
92 147 70 241 70 364 _c
70 479 97 571 152 639 _c
206 707 280 742 372 742 _c
396 742 421 739 447 735 _c
472 730 498 723 526 713 _c
_cl}_e}_d
/eight{{636 0 68 -13 568 742 _sc
318 346 _m
271 346 234 333 207 308 _c
180 283 167 249 167 205 _c
167 161 180 126 207 101 _c
234 76 271 64 318 64 _c
364 64 401 76 428 102 _c
455 127 469 161 469 205 _c
469 249 455 283 429 308 _c
402 333 365 346 318 346 _c
219 388 _m
177 398 144 418 120 447 _c
96 476 85 511 85 553 _c
85 611 105 657 147 691 _c
188 725 245 742 318 742 _c
}_e{390 742 447 725 489 691 _c
530 657 551 611 551 553 _c
551 511 539 476 515 447 _c
491 418 459 398 417 388 _c
464 377 501 355 528 323 _c
554 291 568 251 568 205 _c
568 134 546 80 503 43 _c
459 5 398 -13 318 -13 _c
237 -13 175 5 132 43 _c
89 80 68 134 68 205 _c
68 251 81 291 108 323 _c
134 355 171 377 219 388 _c
183 544 _m
183 506 194 476 218 455 _c
}_e{242 434 275 424 318 424 _c
360 424 393 434 417 455 _c
441 476 453 506 453 544 _c
453 582 441 611 417 632 _c
393 653 360 664 318 664 _c
275 664 242 653 218 632 _c
194 611 183 582 183 544 _c
_cl}_e}_d
/m{{974 0 91 0 889 560 _sc
520 442 _m
542 482 569 511 600 531 _c
631 550 668 560 711 560 _c
767 560 811 540 842 500 _c
873 460 889 403 889 330 _c
889 0 _l
799 0 _l
799 327 _l
799 379 789 418 771 444 _c
752 469 724 482 686 482 _c
639 482 602 466 575 435 _c
548 404 535 362 535 309 _c
535 0 _l
445 0 _l
445 327 _l
445 379 435 418 417 444 _c
398 469 369 482 331 482 _c
}_e{285 482 248 466 221 435 _c
194 404 181 362 181 309 _c
181 0 _l
91 0 _l
91 547 _l
181 547 _l
181 462 _l
201 495 226 520 255 536 _c
283 552 317 560 357 560 _c
397 560 430 550 458 530 _c
486 510 506 480 520 442 _c
_cl}_e}_d
/x{592 0 29 0 559 547 _sc
549 547 _m
351 281 _l
559 0 _l
453 0 _l
294 215 _l
135 0 _l
29 0 _l
241 286 _l
47 547 _l
153 547 _l
298 352 _l
443 547 _l
549 547 _l
_cl}_d
/y{592 0 30 -207 562 547 _sc
322 -50 _m
296 -114 271 -157 247 -177 _c
223 -197 191 -207 151 -207 _c
79 -207 _l
79 -132 _l
132 -132 _l
156 -132 175 -126 189 -114 _c
203 -102 218 -75 235 -31 _c
251 9 _l
30 547 _l
125 547 _l
296 119 _l
467 547 _l
562 547 _l
322 -50 _l
_cl}_d
end readonly def

/BuildGlyph
 {exch begin
 CharStrings exch
 2 copy known not{pop /.notdef}if
 true 3 1 roll get exec
 end}_d

/BuildChar {
 1 index /Encoding get exch get
 1 index /BuildGlyph get exec
}_d

FontName currentdict end definefont pop
end
%%EndProlog
mpldict begin
18 252 translate
576 288 0 0 clipbox
gsave
0 0 m
576 0 l
576 288 l
0 288 l
cl
1.000 setgray
fill
grestore
gsave
72 31.68 m
518.4 31.68 l
518.4 253.44 l
72 253.44 l
cl
1.000 setgray
fill
grestore
0.800 setlinewidth
1 setlinejoin
2 setlinecap
[] 0 setdash
0.690 setgray
gsave
446.4 221.8 72 31.68 clipbox
92.259745 31.68 m
92.259745 253.44 l
stroke
grestore
0 setlinecap
0.000 setgray
gsave
/o {
gsave
newpath
translate
0.8 setlinewidth
1 setlinejoin
0 setlinecap
0 0 m
0 -3.5 l

gsave
0.000 setgray
fill
grestore
stroke
grestore
} bind def
92.2597 31.68 o
grestore
/DejaVuSans findfont
10.000 scalefont
setfont
gsave
89.080058 17.086250 translate
0.000000 rotate
0.000000 0.000000 m /zero glyphshow
grestore
2 setlinecap
0.690 setgray
gsave
446.4 221.8 72 31.68 clipbox
154.587833 31.68 m
154.587833 253.44 l
stroke
grestore
0 setlinecap
0.000 setgray
gsave
/o {
gsave
newpath
translate
0.8 setlinewidth
1 setlinejoin
0 setlinecap
0 0 m
0 -3.5 l

gsave
0.000 setgray
fill
grestore
stroke
grestore
} bind def
154.588 31.68 o
grestore
gsave
151.408146 17.086250 translate
0.000000 rotate
0.000000 0.000000 m /two glyphshow
grestore
2 setlinecap
0.690 setgray
gsave
446.4 221.8 72 31.68 clipbox
216.915921 31.68 m
216.915921 253.44 l
stroke
grestore
0 setlinecap
0.000 setgray
gsave
/o {
gsave
newpath
translate
0.8 setlinewidth
1 setlinejoin
0 setlinecap
0 0 m
0 -3.5 l

gsave
0.000 setgray
fill
grestore
stroke
grestore
} bind def
216.916 31.68 o
grestore
gsave
213.736234 17.086250 translate
0.000000 rotate
0.000000 0.000000 m /four glyphshow
grestore
2 setlinecap
0.690 setgray
gsave
446.4 221.8 72 31.68 clipbox
279.244009 31.68 m
279.244009 253.44 l
stroke
grestore
0 setlinecap
0.000 setgray
gsave
/o {
gsave
newpath
translate
0.8 setlinewidth
1 setlinejoin
0 setlinecap
0 0 m
0 -3.5 l

gsave
0.000 setgray
fill
grestore
stroke
grestore
} bind def
279.244 31.68 o
grestore
gsave
276.064322 17.086250 translate
0.000000 rotate
0.000000 0.000000 m /six glyphshow
grestore
2 setlinecap
0.690 setgray
gsave
446.4 221.8 72 31.68 clipbox
341.572098 31.68 m
341.572098 253.44 l
stroke
grestore
0 setlinecap
0.000 setgray
gsave
/o {
gsave
newpath
translate
0.8 setlinewidth
1 setlinejoin
0 setlinecap
0 0 m
0 -3.5 l

gsave
0.000 setgray
fill
grestore
stroke
grestore
} bind def
341.572 31.68 o
grestore
gsave
338.392410 17.086250 translate
0.000000 rotate
0.000000 0.000000 m /eight glyphshow
grestore
2 setlinecap
0.690 setgray
gsave
446.4 221.8 72 31.68 clipbox
403.900186 31.68 m
403.900186 253.44 l
stroke
grestore
0 setlinecap
0.000 setgray
gsave
/o {
gsave
newpath
translate
0.8 setlinewidth
1 setlinejoin
0 setlinecap
0 0 m
0 -3.5 l

gsave
0.000 setgray
fill
grestore
stroke
grestore
} bind def
403.9 31.68 o
grestore
gsave
397.540811 17.086250 translate
0.000000 rotate
0.000000 0.000000 m /one glyphshow
6.362305 0.000000 m /zero glyphshow
grestore
2 setlinecap
0.690 setgray
gsave
446.4 221.8 72 31.68 clipbox
466.228274 31.68 m
466.228274 253.44 l
stroke
grestore
0 setlinecap
0.000 setgray
gsave
/o {
gsave
newpath
translate
0.8 setlinewidth
1 setlinejoin
0 setlinecap
0 0 m
0 -3.5 l

gsave
0.000 setgray
fill
grestore
stroke
grestore
} bind def
466.228 31.68 o
grestore
gsave
459.868899 17.086250 translate
0.000000 rotate
0.000000 0.000000 m /one glyphshow
6.362305 0.000000 m /two glyphshow
grestore
gsave
282.200000 3.086250 translate
0.000000 rotate
/DejaVuSans-Oblique findfont
10.0 scalefont
setfont
0.000000 0.406250 moveto
/z glyphshow

/DejaVuSans findfont
10.0 scalefont
setfont
5.249023 0.406250 moveto
/space glyphshow

8.427734 0.406250 moveto
/parenleft glyphshow

12.329102 0.406250 moveto
/m glyphshow

22.070312 0.406250 moveto
/parenright glyphshow


grestore
2 setlinecap
0.690 setgray
gsave
446.4 221.8 72 31.68 clipbox
72 40.004646 m
518.4 40.004646 l
stroke
grestore
0 setlinecap
0.000 setgray
gsave
/o {
gsave
newpath
translate
0.8 setlinewidth
1 setlinejoin
0 setlinecap
0 0 m
-3.5 0 l

gsave
0.000 setgray
fill
grestore
stroke
grestore
} bind def
72 40.0046 o
grestore
gsave
49.093750 36.207771 translate
0.000000 rotate
0.000000 0.000000 m /zero glyphshow
6.362305 0.000000 m /period glyphshow
9.541016 0.000000 m /four glyphshow
grestore
2 setlinecap
0.690 setgray
gsave
446.4 221.8 72 31.68 clipbox
72 78.347898 m
518.4 78.347898 l
stroke
grestore
0 setlinecap
0.000 setgray
gsave
/o {
gsave
newpath
translate
0.8 setlinewidth
1 setlinejoin
0 setlinecap
0 0 m
-3.5 0 l

gsave
0.000 setgray
fill
grestore
stroke
grestore
} bind def
72 78.3479 o
grestore
gsave
49.093750 74.551023 translate
0.000000 rotate
0.000000 0.000000 m /zero glyphshow
6.362305 0.000000 m /period glyphshow
9.541016 0.000000 m /six glyphshow
grestore
2 setlinecap
0.690 setgray
gsave
446.4 221.8 72 31.68 clipbox
72 116.69115 m
518.4 116.69115 l
stroke
grestore
0 setlinecap
0.000 setgray
gsave
/o {
gsave
newpath
translate
0.8 setlinewidth
1 setlinejoin
0 setlinecap
0 0 m
-3.5 0 l

gsave
0.000 setgray
fill
grestore
stroke
grestore
} bind def
72 116.691 o
grestore
gsave
49.093750 112.894275 translate
0.000000 rotate
0.000000 0.000000 m /zero glyphshow
6.362305 0.000000 m /period glyphshow
9.541016 0.000000 m /eight glyphshow
grestore
2 setlinecap
0.690 setgray
gsave
446.4 221.8 72 31.68 clipbox
72 155.034402 m
518.4 155.034402 l
stroke
grestore
0 setlinecap
0.000 setgray
gsave
/o {
gsave
newpath
translate
0.8 setlinewidth
1 setlinejoin
0 setlinecap
0 0 m
-3.5 0 l

gsave
0.000 setgray
fill
grestore
stroke
grestore
} bind def
72 155.034 o
grestore
gsave
49.093750 151.237527 translate
0.000000 rotate
0.000000 0.000000 m /one glyphshow
6.362305 0.000000 m /period glyphshow
9.541016 0.000000 m /zero glyphshow
grestore
2 setlinecap
0.690 setgray
gsave
446.4 221.8 72 31.68 clipbox
72 193.377654 m
518.4 193.377654 l
stroke
grestore
0 setlinecap
0.000 setgray
gsave
/o {
gsave
newpath
translate
0.8 setlinewidth
1 setlinejoin
0 setlinecap
0 0 m
-3.5 0 l

gsave
0.000 setgray
fill
grestore
stroke
grestore
} bind def
72 193.378 o
grestore
gsave
49.093750 189.580779 translate
0.000000 rotate
0.000000 0.000000 m /one glyphshow
6.362305 0.000000 m /period glyphshow
9.541016 0.000000 m /two glyphshow
grestore
2 setlinecap
0.690 setgray
gsave
446.4 221.8 72 31.68 clipbox
72 231.720906 m
518.4 231.720906 l
stroke
grestore
0 setlinecap
0.000 setgray
gsave
/o {
gsave
newpath
translate
0.8 setlinewidth
1 setlinejoin
0 setlinecap
0 0 m
-3.5 0 l

gsave
0.000 setgray
fill
grestore
stroke
grestore
} bind def
72 231.721 o
grestore
gsave
49.093750 227.924031 translate
0.000000 rotate
0.000000 0.000000 m /one glyphshow
6.362305 0.000000 m /period glyphshow
9.541016 0.000000 m /four glyphshow
grestore
gsave
41.093750 118.560000 translate
90.000000 rotate
/DejaVuSans-Oblique findfont
10.0 scalefont
setfont
0.000000 0.406250 moveto
/sigma glyphshow

/DejaVuSans-Oblique findfont
7.0 scalefont
setfont
6.337891 -1.234375 moveto
/x glyphshow

/DejaVuSans findfont
7.0 scalefont
setfont
10.480469 -1.234375 moveto
/slash glyphshow

/DejaVuSans-Oblique findfont
7.0 scalefont
setfont
12.838867 -1.234375 moveto
/y glyphshow

/DejaVuSans findfont
10.0 scalefont
setfont
17.254883 0.406250 moveto
/space glyphshow

20.433594 0.406250 moveto
/parenleft glyphshow

24.334961 0.406250 moveto
/m glyphshow

34.076172 0.406250 moveto
/m glyphshow

43.817383 0.406250 moveto
/parenright glyphshow


grestore
1.500 setlinewidth
2 setlinecap
0.122 0.467 0.706 setrgbcolor
gsave
446.4 221.8 72 31.68 clipbox
92.290909 74.141451 m
97.557633 79.31664 l
101.632331 83.576575 l
102.193284 84.555095 l
102.847729 86.191777 l
103.611248 88.768635 l
112.679985 122.551724 l
123.525072 163.815007 l
131.409575 194.324732 l
134.479234 205.808536 l
134.884366 206.404774 l
135.164843 206.512135 l
135.414155 206.393271 l
135.725796 205.965743 l
136.115346 205.009079 l
155.779858 150.896782 l
165.378383 125.468495 l
173.481035 104.593279 l
181.022734 85.735109 l
182.425116 82.566998 l
183.110725 81.609567 l
183.702841 81.144655 l
185.525938 80.380282 l
189.795412 78.765648 l
193.877902 77.451624 l
197.788989 76.411564 l
202.011717 75.537721 l
206.094207 74.946085 l
209.709236 74.634737 l
213.261937 74.526609 l
217.157443 74.636271 l
221.052948 74.986345 l
224.948454 75.576831 l
228.843959 76.407154 l
232.427824 77.380498 l
236.447986 78.707941 l
240.156507 80.14888 l
244.363653 82.029042 l
248.695455 84.229369 l
252.777945 86.539742 l
257.016255 89.171623 l
261.940174 92.514771 l
266.583617 95.934606 l
271.507535 99.82913 l
276.743095 104.255858 l
281.698178 108.700608 l
287.557018 114.256929 l
293.914483 120.630727 l
300.708245 127.811268 l
307.159202 134.95845 l
314.07762 142.956853 l
321.432334 151.814719 l
327.743053 159.384444 l
328.117022 159.349935 l
328.522154 159.037437 l
328.989615 158.322336 l
329.690806 156.704251 l
338.136262 136.729525 l
347.828279 114.353937 l
356.897016 93.987152 l
363.051915 80.618969 l
363.581704 79.970968 l
364.018 79.74666 l
364.423133 79.787879 l
364.843847 80.082547 l
370.484539 85.437565 l
376.296634 91.241392 l
382.233384 97.462201 l
389.05831 104.97211 l
395.976727 112.969937 l
398.797073 116.156645 l
399.295698 116.318645 l
399.763159 116.234865 l
400.261784 115.893994 l
412.429785 104.443165 l
418.257461 99.429018 l
423.274872 95.375944 l
428.572759 91.376552 l
433.12271 88.18275 l
437.953137 85.047423 l
442.596579 82.291885 l
447.099784 79.870508 l
451.416004 77.78962 l
456.121774 75.796346 l
460.702889 74.138767 l
464.754215 72.909674 l
469.210673 71.818234 l
473.168506 71.079551 l
477.12634 70.558466 l
481.084174 70.254596 l
485.104335 70.167365 l
489.155661 70.302717 l
493.269315 70.666211 l
497.009 71.190746 l
498.109091 71.379587 l
498.109091 71.379587 l
stroke
grestore
1.000 0.498 0.055 setrgbcolor
gsave
446.4 221.8 72 31.68 clipbox
92.290909 74.403336 m
97.401812 79.428986 l
102.0063 83.937961 l
102.442596 83.934893 l
102.878893 83.700041 l
103.377518 83.148665 l
106.758817 78.129533 l
113.303266 68.742722 l
119.536075 60.229178 l
125.301423 52.751285 l
130.568146 46.287379 l
134.261085 42.048341 l
134.790874 41.783198 l
135.258335 41.794509 l
135.725796 42.03588 l
136.333494 42.64362 l
140.758789 47.56977 l
145.589215 53.264701 l
150.824775 59.783246 l
156.465467 67.180809 l
161.919175 74.679216 l
167.684523 82.956373 l
174.353628 92.958978 l
180.648765 102.804183 l
182.300459 105.23131 l
182.830248 105.553585 l
183.297709 105.575633 l
183.734005 105.374331 l
194.40769 97.827037 l
199.518594 94.625184 l
204.598333 91.722599 l
209.491088 89.200189 l
213.698234 87.252543 l
217.811888 85.551253 l
222.29951 83.929717 l
226.755968 82.566231 l
231.118934 81.473065 l
235.450737 80.627213 l
239.751375 80.02484 l
244.052013 79.659429 l
248.383815 79.53002 l
252.746781 79.639874 l
256.704615 79.945086 l
261.223401 80.528862 l
265.337055 81.273296 l
269.575365 82.246831 l
273.938331 83.461546 l
279.049234 85.148841 l
283.755005 86.944455 l
288.741252 89.08861 l
293.945647 91.579579 l
299.430519 94.470277 l
304.494676 97.368451 l
310.618411 101.15178 l
317.08495 105.460028 l
323.956622 110.371032 l
327.524905 113.143249 l
328.054693 114.000604 l
328.677974 115.49484 l
329.379165 117.798695 l
341.813619 163.193846 l
354.99601 212.275126 l
363.270063 242.930556 l
363.612868 243.31974 l
363.86218 243.344663 l
364.111492 243.152946 l
364.454297 242.533703 l
364.875012 241.230032 l
385.505609 169.29234 l
394.231541 139.629234 l
398.92173 124.195499 l
399.669667 122.609623 l
400.30853 121.744024 l
406.508616 115.683489 l
411.93116 110.666275 l
417.571852 105.747986 l
422.869739 101.427852 l
427.824822 97.667145 l
432.499429 94.382279 l
437.423348 91.214168 l
441.630494 88.75579 l
446.102534 86.405157 l
450.421871 84.402681 l
454.657064 82.699282 l
458.70839 81.321034 l
462.728552 80.200069 l
466.686385 79.340221 l
470.207922 78.780026 l
474.134592 78.384132 l
477.656129 78.233827 l
481.613962 78.294793 l
485.634124 78.602881 l
489.716614 79.165568 l
493.92376 80.002793 l
498.109091 81.087523 l
498.109091 81.087523 l
stroke
grestore
0.800 setlinewidth
0 setlinejoin
[] 0 setdash
0.000 setgray
gsave
72 31.68 m
72 253.44 l
stroke
grestore
gsave
518.4 31.68 m
518.4 253.44 l
stroke
grestore
gsave
72 31.68 m
518.4 31.68 l
stroke
grestore
gsave
72 253.44 m
518.4 253.44 l
stroke
grestore
1.000 setlinewidth
0 setlinecap
0.800 setgray
gsave
473.478125 216.09625 m
511.4 216.09625 l
512.733333 216.09625 513.4 216.762917 513.4 218.09625 c
513.4 246.44 l
513.4 247.773333 512.733333 248.44 511.4 248.44 c
473.478125 248.44 l
472.144792 248.44 471.478125 247.773333 471.478125 246.44 c
471.478125 218.09625 l
471.478125 216.762917 472.144792 216.09625 473.478125 216.09625 c
cl
gsave
1.000 setgray
fill
grestore
stroke
grestore
1.500 setlinewidth
1 setlinejoin
2 setlinecap
[] 0 setdash
0.122 0.467 0.706 setrgbcolor
gsave
475.478125 240.34625 m
495.478125 240.34625 l
stroke
grestore
0.000 setgray
gsave
503.478125 236.846250 translate
0.000000 rotate
0.000000 0.000000 m /x glyphshow
grestore
1.000 0.498 0.055 setrgbcolor
gsave
475.478125 225.674375 m
495.478125 225.674375 l
stroke
grestore
0.000 setgray
gsave
503.478125 222.174375 translate
0.000000 rotate
0.000000 0.000000 m /y glyphshow
grestore

end
showpage
