%!PS-Adobe-3.0 EPSF-3.0
%%Title: sco-rms_xy-z.eps
%%Creator: matplotlib version 2.2.3, http://matplotlib.org/
%%CreationDate: Sun Nov 18 12:12:25 2018
%%Orientation: portrait
%%BoundingBox: 18 252 594 540
%%EndComments
%%BeginProlog
/mpldict 9 dict def
mpldict begin
/m { moveto } bind def
/l { lineto } bind def
/r { rlineto } bind def
/c { curveto } bind def
/cl { closepath } bind def
/box {
m
1 index 0 r
0 exch r
neg 0 r
cl
} bind def
/clipbox {
box
clip
newpath
} bind def
%!PS-Adobe-3.0 Resource-Font
%%Title: DejaVu Sans Oblique
%%Copyright: Copyright (c) 2003 by Bitstream, Inc. All Rights Reserved. Copyright (c) 2006 by Tavmjong Bah. All Rights Reserved. DejaVu changes are in public domain 
%%Creator: Converted from TrueType to type 3 by PPR
25 dict begin
/_d{bind def}bind def
/_m{moveto}_d
/_l{lineto}_d
/_cl{closepath eofill}_d
/_c{curveto}_d
/_sc{7 -1 roll{setcachedevice}{pop pop pop pop pop pop}ifelse}_d
/_e{exec}_d
/FontName /DejaVuSans-Oblique def
/PaintType 0 def
/FontMatrix[.001 0 0 .001 0 0]def
/FontBBox[-1016 -350 1659 1068]def
/FontType 3 def
/Encoding [ /x /y /z /sigma ] def
/FontInfo 10 dict dup begin
/FamilyName (DejaVu Sans) def
/FullName (DejaVu Sans Oblique) def
/Notice (Copyright (c) 2003 by Bitstream, Inc. All Rights Reserved. Copyright (c) 2006 by Tavmjong Bah. All Rights Reserved. DejaVu changes are in public domain ) def
/Weight (Oblique) def
/Version (Version 2.35) def
/ItalicAngle -11.0 def
/isFixedPitch false def
/UnderlinePosition -130 def
/UnderlineThickness 90 def
end readonly def
/CharStrings 5 dict dup begin
/.notdef 0 def
/x{592 0 -25 0 600 547 _sc
600 547 _m
349 279 _l
503 0 _l
400 0 _l
284 217 _l
83 0 _l
-25 0 _l
243 288 _l
100 547 _l
203 547 _l
308 349 _l
491 547 _l
600 547 _l
_cl}_d
/y{592 0 -24 -207 603 547 _sc
248 -50 _m
206 -120 172 -163 146 -181 _c
120 -198 86 -207 46 -207 _c
-24 -207 _l
-9 -132 _l
42 -132 _l
67 -132 88 -125 106 -111 _c
123 -97 143 -71 165 -31 _c
193 20 _l
72 547 _l
167 547 _l
258 128 _l
509 547 _l
603 547 _l
248 -50 _l
_cl}_d
/z{525 0 -2 0 543 547 _sc
116 547 _m
543 547 _l
527 465 _l
115 72 _l
455 72 _l
441 0 _l
-2 0 _l
13 82 _l
425 475 _l
102 475 _l
116 547 _l
_cl}_d
/sigma{{634 0 57 -13 659 547 _sc
347 476 _m
297 476 255 458 222 422 _c
186 384 163 335 151 273 _c
138 207 142 156 163 118 _c
183 80 218 62 267 62 _c
314 62 355 81 391 119 _c
426 156 450 207 463 273 _c
474 332 470 382 450 422 _c
431 458 397 476 347 476 _c
361 547 _m
659 547 _l
642 457 _l
541 457 _l
566 406 572 345 559 273 _c
541 183 505 113 451 63 _c
396 12 329 -13 251 -13 _c
}_e{173 -13 116 12 82 63 _c
47 113 39 183 57 273 _c
74 363 110 433 164 484 _c
209 526 275 547 361 547 _c
_cl}_e}_d
end readonly def

/BuildGlyph
 {exch begin
 CharStrings exch
 2 copy known not{pop /.notdef}if
 true 3 1 roll get exec
 end}_d

/BuildChar {
 1 index /Encoding get exch get
 1 index /BuildGlyph get exec
}_d

FontName currentdict end definefont pop
%!PS-Adobe-3.0 Resource-Font
%%Title: DejaVu Sans
%%Copyright: Copyright (c) 2003 by Bitstream, Inc. All Rights Reserved. Copyright (c) 2006 by Tavmjong Bah. All Rights Reserved. DejaVu changes are in public domain 
%%Creator: Converted from TrueType to type 3 by PPR
25 dict begin
/_d{bind def}bind def
/_m{moveto}_d
/_l{lineto}_d
/_cl{closepath eofill}_d
/_c{curveto}_d
/_sc{7 -1 roll{setcachedevice}{pop pop pop pop pop pop}ifelse}_d
/_e{exec}_d
/FontName /DejaVuSans def
/PaintType 0 def
/FontMatrix[.001 0 0 .001 0 0]def
/FontBBox[-1021 -463 1793 1232]def
/FontType 3 def
/Encoding [ /space /parenleft /parenright /period /slash /zero /one /two /four /five /six /seven /eight /nine /m /x /y ] def
/FontInfo 10 dict dup begin
/FamilyName (DejaVu Sans) def
/FullName (DejaVu Sans) def
/Notice (Copyright (c) 2003 by Bitstream, Inc. All Rights Reserved. Copyright (c) 2006 by Tavmjong Bah. All Rights Reserved. DejaVu changes are in public domain ) def
/Weight (Book) def
/Version (Version 2.35) def
/ItalicAngle 0.0 def
/isFixedPitch false def
/UnderlinePosition -130 def
/UnderlineThickness 90 def
end readonly def
/CharStrings 18 dict dup begin
/.notdef 0 def
/space{318 0 0 0 0 0 _sc
}_d
/parenleft{390 0 86 -131 310 759 _sc
310 759 _m
266 683 234 609 213 536 _c
191 463 181 389 181 314 _c
181 238 191 164 213 91 _c
234 17 266 -56 310 -131 _c
232 -131 _l
183 -54 146 20 122 94 _c
98 168 86 241 86 314 _c
86 386 98 459 122 533 _c
146 607 182 682 232 759 _c
310 759 _l
_cl}_d
/parenright{390 0 80 -131 304 759 _sc
80 759 _m
158 759 _l
206 682 243 607 267 533 _c
291 459 304 386 304 314 _c
304 241 291 168 267 94 _c
243 20 206 -54 158 -131 _c
80 -131 _l
123 -56 155 17 177 91 _c
198 164 209 238 209 314 _c
209 389 198 463 177 536 _c
155 609 123 683 80 759 _c
_cl}_d
/period{318 0 107 0 210 124 _sc
107 124 _m
210 124 _l
210 0 _l
107 0 _l
107 124 _l
_cl}_d
/slash{337 0 0 -92 337 729 _sc
254 729 _m
337 729 _l
83 -92 _l
0 -92 _l
254 729 _l
_cl}_d
/zero{636 0 66 -13 570 742 _sc
318 664 _m
267 664 229 639 203 589 _c
177 539 165 464 165 364 _c
165 264 177 189 203 139 _c
229 89 267 64 318 64 _c
369 64 407 89 433 139 _c
458 189 471 264 471 364 _c
471 464 458 539 433 589 _c
407 639 369 664 318 664 _c
318 742 _m
399 742 461 709 505 645 _c
548 580 570 486 570 364 _c
570 241 548 147 505 83 _c
461 19 399 -13 318 -13 _c
236 -13 173 19 130 83 _c
87 147 66 241 66 364 _c
66 486 87 580 130 645 _c
173 709 236 742 318 742 _c
_cl}_d
/one{636 0 110 0 544 729 _sc
124 83 _m
285 83 _l
285 639 _l
110 604 _l
110 694 _l
284 729 _l
383 729 _l
383 83 _l
544 83 _l
544 0 _l
124 0 _l
124 83 _l
_cl}_d
/two{{636 0 73 0 536 742 _sc
192 83 _m
536 83 _l
536 0 _l
73 0 _l
73 83 _l
110 121 161 173 226 239 _c
290 304 331 346 348 365 _c
380 400 402 430 414 455 _c
426 479 433 504 433 528 _c
433 566 419 598 392 622 _c
365 646 330 659 286 659 _c
255 659 222 653 188 643 _c
154 632 117 616 78 594 _c
78 694 _l
118 710 155 722 189 730 _c
223 738 255 742 284 742 _c
}_e{359 742 419 723 464 685 _c
509 647 532 597 532 534 _c
532 504 526 475 515 449 _c
504 422 484 390 454 354 _c
446 344 420 317 376 272 _c
332 227 271 164 192 83 _c
_cl}_e}_d
/four{636 0 49 0 580 729 _sc
378 643 _m
129 254 _l
378 254 _l
378 643 _l
352 729 _m
476 729 _l
476 254 _l
580 254 _l
580 172 _l
476 172 _l
476 0 _l
378 0 _l
378 172 _l
49 172 _l
49 267 _l
352 729 _l
_cl}_d
/five{{636 0 77 -13 549 729 _sc
108 729 _m
495 729 _l
495 646 _l
198 646 _l
198 467 _l
212 472 227 476 241 478 _c
255 480 270 482 284 482 _c
365 482 429 459 477 415 _c
525 370 549 310 549 234 _c
549 155 524 94 475 51 _c
426 8 357 -13 269 -13 _c
238 -13 207 -10 175 -6 _c
143 -1 111 6 77 17 _c
77 116 _l
106 100 136 88 168 80 _c
199 72 232 69 267 69 _c
}_e{323 69 368 83 401 113 _c
433 143 450 183 450 234 _c
450 284 433 324 401 354 _c
368 384 323 399 267 399 _c
241 399 214 396 188 390 _c
162 384 135 375 108 363 _c
108 729 _l
_cl}_e}_d
/six{{636 0 70 -13 573 742 _sc
330 404 _m
286 404 251 388 225 358 _c
199 328 186 286 186 234 _c
186 181 199 139 225 109 _c
251 79 286 64 330 64 _c
374 64 409 79 435 109 _c
461 139 474 181 474 234 _c
474 286 461 328 435 358 _c
409 388 374 404 330 404 _c
526 713 _m
526 623 _l
501 635 476 644 451 650 _c
425 656 400 659 376 659 _c
310 659 260 637 226 593 _c
}_e{192 549 172 482 168 394 _c
187 422 211 444 240 459 _c
269 474 301 482 336 482 _c
409 482 467 459 509 415 _c
551 371 573 310 573 234 _c
573 159 550 99 506 54 _c
462 9 403 -13 330 -13 _c
246 -13 181 19 137 83 _c
92 147 70 241 70 364 _c
70 479 97 571 152 639 _c
206 707 280 742 372 742 _c
396 742 421 739 447 735 _c
472 730 498 723 526 713 _c
_cl}_e}_d
/seven{636 0 82 0 551 729 _sc
82 729 _m
551 729 _l
551 687 _l
286 0 _l
183 0 _l
432 646 _l
82 646 _l
82 729 _l
_cl}_d
/eight{{636 0 68 -13 568 742 _sc
318 346 _m
271 346 234 333 207 308 _c
180 283 167 249 167 205 _c
167 161 180 126 207 101 _c
234 76 271 64 318 64 _c
364 64 401 76 428 102 _c
455 127 469 161 469 205 _c
469 249 455 283 429 308 _c
402 333 365 346 318 346 _c
219 388 _m
177 398 144 418 120 447 _c
96 476 85 511 85 553 _c
85 611 105 657 147 691 _c
188 725 245 742 318 742 _c
}_e{390 742 447 725 489 691 _c
530 657 551 611 551 553 _c
551 511 539 476 515 447 _c
491 418 459 398 417 388 _c
464 377 501 355 528 323 _c
554 291 568 251 568 205 _c
568 134 546 80 503 43 _c
459 5 398 -13 318 -13 _c
237 -13 175 5 132 43 _c
89 80 68 134 68 205 _c
68 251 81 291 108 323 _c
134 355 171 377 219 388 _c
183 544 _m
183 506 194 476 218 455 _c
}_e{242 434 275 424 318 424 _c
360 424 393 434 417 455 _c
441 476 453 506 453 544 _c
453 582 441 611 417 632 _c
393 653 360 664 318 664 _c
275 664 242 653 218 632 _c
194 611 183 582 183 544 _c
_cl}_e}_d
/nine{{636 0 63 -13 566 742 _sc
110 15 _m
110 105 _l
134 93 159 84 185 78 _c
210 72 235 69 260 69 _c
324 69 374 90 408 134 _c
442 178 462 244 468 334 _c
448 306 424 284 396 269 _c
367 254 335 247 300 247 _c
226 247 168 269 126 313 _c
84 357 63 417 63 494 _c
63 568 85 628 129 674 _c
173 719 232 742 306 742 _c
390 742 455 709 499 645 _c
543 580 566 486 566 364 _c
}_e{566 248 538 157 484 89 _c
429 21 356 -13 264 -13 _c
239 -13 214 -10 189 -6 _c
163 -2 137 5 110 15 _c
306 324 _m
350 324 385 339 411 369 _c
437 399 450 441 450 494 _c
450 546 437 588 411 618 _c
385 648 350 664 306 664 _c
262 664 227 648 201 618 _c
175 588 162 546 162 494 _c
162 441 175 399 201 369 _c
227 339 262 324 306 324 _c
_cl}_e}_d
/m{{974 0 91 0 889 560 _sc
520 442 _m
542 482 569 511 600 531 _c
631 550 668 560 711 560 _c
767 560 811 540 842 500 _c
873 460 889 403 889 330 _c
889 0 _l
799 0 _l
799 327 _l
799 379 789 418 771 444 _c
752 469 724 482 686 482 _c
639 482 602 466 575 435 _c
548 404 535 362 535 309 _c
535 0 _l
445 0 _l
445 327 _l
445 379 435 418 417 444 _c
398 469 369 482 331 482 _c
}_e{285 482 248 466 221 435 _c
194 404 181 362 181 309 _c
181 0 _l
91 0 _l
91 547 _l
181 547 _l
181 462 _l
201 495 226 520 255 536 _c
283 552 317 560 357 560 _c
397 560 430 550 458 530 _c
486 510 506 480 520 442 _c
_cl}_e}_d
/x{592 0 29 0 559 547 _sc
549 547 _m
351 281 _l
559 0 _l
453 0 _l
294 215 _l
135 0 _l
29 0 _l
241 286 _l
47 547 _l
153 547 _l
298 352 _l
443 547 _l
549 547 _l
_cl}_d
/y{592 0 30 -207 562 547 _sc
322 -50 _m
296 -114 271 -157 247 -177 _c
223 -197 191 -207 151 -207 _c
79 -207 _l
79 -132 _l
132 -132 _l
156 -132 175 -126 189 -114 _c
203 -102 218 -75 235 -31 _c
251 9 _l
30 547 _l
125 547 _l
296 119 _l
467 547 _l
562 547 _l
322 -50 _l
_cl}_d
end readonly def

/BuildGlyph
 {exch begin
 CharStrings exch
 2 copy known not{pop /.notdef}if
 true 3 1 roll get exec
 end}_d

/BuildChar {
 1 index /Encoding get exch get
 1 index /BuildGlyph get exec
}_d

FontName currentdict end definefont pop
end
%%EndProlog
mpldict begin
18 252 translate
576 288 0 0 clipbox
gsave
0 0 m
576 0 l
576 288 l
0 288 l
cl
1.000 setgray
fill
grestore
gsave
72 31.68 m
518.4 31.68 l
518.4 253.44 l
72 253.44 l
cl
1.000 setgray
fill
grestore
0.800 setlinewidth
1 setlinejoin
2 setlinecap
[] 0 setdash
0.690 setgray
gsave
446.4 221.8 72 31.68 clipbox
92.25409 31.68 m
92.25409 253.44 l
stroke
grestore
0 setlinecap
0.000 setgray
gsave
/o {
gsave
newpath
translate
0.8 setlinewidth
1 setlinejoin
0 setlinecap
0 0 m
0 -3.5 l

gsave
0.000 setgray
fill
grestore
stroke
grestore
} bind def
92.2541 31.68 o
grestore
/DejaVuSans findfont
10.000 scalefont
setfont
gsave
89.074403 17.086250 translate
0.000000 rotate
0.000000 0.000000 m /zero glyphshow
grestore
2 setlinecap
0.690 setgray
gsave
446.4 221.8 72 31.68 clipbox
165.891938 31.68 m
165.891938 253.44 l
stroke
grestore
0 setlinecap
0.000 setgray
gsave
/o {
gsave
newpath
translate
0.8 setlinewidth
1 setlinejoin
0 setlinecap
0 0 m
0 -3.5 l

gsave
0.000 setgray
fill
grestore
stroke
grestore
} bind def
165.892 31.68 o
grestore
gsave
162.712251 17.086250 translate
0.000000 rotate
0.000000 0.000000 m /two glyphshow
grestore
2 setlinecap
0.690 setgray
gsave
446.4 221.8 72 31.68 clipbox
239.529787 31.68 m
239.529787 253.44 l
stroke
grestore
0 setlinecap
0.000 setgray
gsave
/o {
gsave
newpath
translate
0.8 setlinewidth
1 setlinejoin
0 setlinecap
0 0 m
0 -3.5 l

gsave
0.000 setgray
fill
grestore
stroke
grestore
} bind def
239.53 31.68 o
grestore
gsave
236.350099 17.086250 translate
0.000000 rotate
0.000000 0.000000 m /four glyphshow
grestore
2 setlinecap
0.690 setgray
gsave
446.4 221.8 72 31.68 clipbox
313.167635 31.68 m
313.167635 253.44 l
stroke
grestore
0 setlinecap
0.000 setgray
gsave
/o {
gsave
newpath
translate
0.8 setlinewidth
1 setlinejoin
0 setlinecap
0 0 m
0 -3.5 l

gsave
0.000 setgray
fill
grestore
stroke
grestore
} bind def
313.168 31.68 o
grestore
gsave
309.987947 17.086250 translate
0.000000 rotate
0.000000 0.000000 m /six glyphshow
grestore
2 setlinecap
0.690 setgray
gsave
446.4 221.8 72 31.68 clipbox
386.805483 31.68 m
386.805483 253.44 l
stroke
grestore
0 setlinecap
0.000 setgray
gsave
/o {
gsave
newpath
translate
0.8 setlinewidth
1 setlinejoin
0 setlinecap
0 0 m
0 -3.5 l

gsave
0.000 setgray
fill
grestore
stroke
grestore
} bind def
386.805 31.68 o
grestore
gsave
383.625796 17.086250 translate
0.000000 rotate
0.000000 0.000000 m /eight glyphshow
grestore
2 setlinecap
0.690 setgray
gsave
446.4 221.8 72 31.68 clipbox
460.443332 31.68 m
460.443332 253.44 l
stroke
grestore
0 setlinecap
0.000 setgray
gsave
/o {
gsave
newpath
translate
0.8 setlinewidth
1 setlinejoin
0 setlinecap
0 0 m
0 -3.5 l

gsave
0.000 setgray
fill
grestore
stroke
grestore
} bind def
460.443 31.68 o
grestore
gsave
454.083957 17.086250 translate
0.000000 rotate
0.000000 0.000000 m /one glyphshow
6.362305 0.000000 m /zero glyphshow
grestore
gsave
282.200000 3.086250 translate
0.000000 rotate
/DejaVuSans-Oblique findfont
10.0 scalefont
setfont
0.000000 0.406250 moveto
/z glyphshow

/DejaVuSans findfont
10.0 scalefont
setfont
5.249023 0.406250 moveto
/space glyphshow

8.427734 0.406250 moveto
/parenleft glyphshow

12.329102 0.406250 moveto
/m glyphshow

22.070312 0.406250 moveto
/parenright glyphshow


grestore
2 setlinecap
0.690 setgray
gsave
446.4 221.8 72 31.68 clipbox
72 37.381809 m
518.4 37.381809 l
stroke
grestore
0 setlinecap
0.000 setgray
gsave
/o {
gsave
newpath
translate
0.8 setlinewidth
1 setlinejoin
0 setlinecap
0 0 m
-3.5 0 l

gsave
0.000 setgray
fill
grestore
stroke
grestore
} bind def
72 37.3818 o
grestore
gsave
49.093750 33.584934 translate
0.000000 rotate
0.000000 0.000000 m /zero glyphshow
6.362305 0.000000 m /period glyphshow
9.541016 0.000000 m /five glyphshow
grestore
2 setlinecap
0.690 setgray
gsave
446.4 221.8 72 31.68 clipbox
72 68.594409 m
518.4 68.594409 l
stroke
grestore
0 setlinecap
0.000 setgray
gsave
/o {
gsave
newpath
translate
0.8 setlinewidth
1 setlinejoin
0 setlinecap
0 0 m
-3.5 0 l

gsave
0.000 setgray
fill
grestore
stroke
grestore
} bind def
72 68.5944 o
grestore
gsave
49.093750 64.797534 translate
0.000000 rotate
0.000000 0.000000 m /zero glyphshow
6.362305 0.000000 m /period glyphshow
9.541016 0.000000 m /six glyphshow
grestore
2 setlinecap
0.690 setgray
gsave
446.4 221.8 72 31.68 clipbox
72 99.807009 m
518.4 99.807009 l
stroke
grestore
0 setlinecap
0.000 setgray
gsave
/o {
gsave
newpath
translate
0.8 setlinewidth
1 setlinejoin
0 setlinecap
0 0 m
-3.5 0 l

gsave
0.000 setgray
fill
grestore
stroke
grestore
} bind def
72 99.807 o
grestore
gsave
49.093750 96.010134 translate
0.000000 rotate
0.000000 0.000000 m /zero glyphshow
6.362305 0.000000 m /period glyphshow
9.541016 0.000000 m /seven glyphshow
grestore
2 setlinecap
0.690 setgray
gsave
446.4 221.8 72 31.68 clipbox
72 131.019609 m
518.4 131.019609 l
stroke
grestore
0 setlinecap
0.000 setgray
gsave
/o {
gsave
newpath
translate
0.8 setlinewidth
1 setlinejoin
0 setlinecap
0 0 m
-3.5 0 l

gsave
0.000 setgray
fill
grestore
stroke
grestore
} bind def
72 131.02 o
grestore
gsave
49.093750 127.222734 translate
0.000000 rotate
0.000000 0.000000 m /zero glyphshow
6.362305 0.000000 m /period glyphshow
9.541016 0.000000 m /eight glyphshow
grestore
2 setlinecap
0.690 setgray
gsave
446.4 221.8 72 31.68 clipbox
72 162.232209 m
518.4 162.232209 l
stroke
grestore
0 setlinecap
0.000 setgray
gsave
/o {
gsave
newpath
translate
0.8 setlinewidth
1 setlinejoin
0 setlinecap
0 0 m
-3.5 0 l

gsave
0.000 setgray
fill
grestore
stroke
grestore
} bind def
72 162.232 o
grestore
gsave
49.093750 158.435334 translate
0.000000 rotate
0.000000 0.000000 m /zero glyphshow
6.362305 0.000000 m /period glyphshow
9.541016 0.000000 m /nine glyphshow
grestore
2 setlinecap
0.690 setgray
gsave
446.4 221.8 72 31.68 clipbox
72 193.44481 m
518.4 193.44481 l
stroke
grestore
0 setlinecap
0.000 setgray
gsave
/o {
gsave
newpath
translate
0.8 setlinewidth
1 setlinejoin
0 setlinecap
0 0 m
-3.5 0 l

gsave
0.000 setgray
fill
grestore
stroke
grestore
} bind def
72 193.445 o
grestore
gsave
49.093750 189.647935 translate
0.000000 rotate
0.000000 0.000000 m /one glyphshow
6.362305 0.000000 m /period glyphshow
9.541016 0.000000 m /zero glyphshow
grestore
2 setlinecap
0.690 setgray
gsave
446.4 221.8 72 31.68 clipbox
72 224.65741 m
518.4 224.65741 l
stroke
grestore
0 setlinecap
0.000 setgray
gsave
/o {
gsave
newpath
translate
0.8 setlinewidth
1 setlinejoin
0 setlinecap
0 0 m
-3.5 0 l

gsave
0.000 setgray
fill
grestore
stroke
grestore
} bind def
72 224.657 o
grestore
gsave
49.093750 220.860535 translate
0.000000 rotate
0.000000 0.000000 m /one glyphshow
6.362305 0.000000 m /period glyphshow
9.541016 0.000000 m /one glyphshow
grestore
gsave
41.093750 118.560000 translate
90.000000 rotate
/DejaVuSans-Oblique findfont
10.0 scalefont
setfont
0.000000 0.406250 moveto
/sigma glyphshow

/DejaVuSans-Oblique findfont
7.0 scalefont
setfont
6.337891 -1.234375 moveto
/x glyphshow

/DejaVuSans findfont
7.0 scalefont
setfont
10.480469 -1.234375 moveto
/slash glyphshow

/DejaVuSans-Oblique findfont
7.0 scalefont
setfont
12.838867 -1.234375 moveto
/y glyphshow

/DejaVuSans findfont
10.0 scalefont
setfont
17.254883 0.406250 moveto
/space glyphshow

20.433594 0.406250 moveto
/parenleft glyphshow

24.334961 0.406250 moveto
/m glyphshow

34.076172 0.406250 moveto
/m glyphshow

43.817383 0.406250 moveto
/parenright glyphshow


grestore
1.500 setlinewidth
2 setlinecap
0.122 0.467 0.706 setrgbcolor
gsave
446.4 221.8 72 31.68 clipbox
92.290909 61.771022 m
97.592834 68.919956 l
102.968397 76.536143 l
103.585114 77.618284 l
104.284674 79.346837 l
105.057871 81.881925 l
106.217667 86.631234 l
115.753768 127.04406 l
125.547602 169.460111 l
136.630098 218.433617 l
141.987252 242.030343 l
142.429079 243.001055 l
142.797268 243.341272 l
143.09182 243.306939 l
143.386371 243.001055 l
143.75456 242.233225 l
144.398891 240.176315 l
152.775197 212.86529 l
163.839283 177.596924 l
173.338566 148.086347 l
183.1324 118.470583 l
191.821666 92.963022 l
198.264977 74.659641 l
198.964537 73.275987 l
199.55364 72.552479 l
200.069105 72.249404 l
200.56616 72.228804 l
204.800337 72.662035 l
209.329064 73.387104 l
213.158232 74.213613 l
217.558094 75.408119 l
221.332033 76.642266 l
225.713485 78.319631 l
229.469016 79.966408 l
233.813649 82.112898 l
238.23192 84.559966 l
242.650191 87.272029 l
247.10528 90.272808 l
251.634008 93.593517 l
256.240055 97.246639 l
260.693304 101.038346 l
265.663859 105.566982 l
270.560776 110.326904 l
276.302687 116.27665 l
281.402108 121.884305 l
286.722443 128.049418 l
292.171643 134.68709 l
297.841758 141.929349 l
303.695967 149.7531 l
309.771089 158.231066 l
316.103944 167.442529 l
322.694532 177.418388 l
329.542851 188.187984 l
336.685723 199.840272 l
342.153333 208.895047 l
342.521522 209.091686 l
342.852893 209.023018 l
343.184263 208.720256 l
343.62609 207.955548 l
344.178374 206.419888 l
346.774108 197.227777 l
354.211531 171.155268 l
363.931727 137.771831 l
373.431009 105.950897 l
382.157094 77.484069 l
384.421458 70.563612 l
385.010561 69.545145 l
385.489207 69.107232 l
385.894215 69.009224 l
386.280814 69.147184 l
391.435463 72.378624 l
396.884664 76.113836 l
402.444321 80.256373 l
408.077617 84.789379 l
413.839778 89.770285 l
419.60194 95.095779 l
425.456149 100.857001 l
426.358213 101.622958 l
426.947315 101.803367 l
427.499599 101.728769 l
428.051883 101.418516 l
429.432593 100.189988 l
434.734518 95.618278 l
439.410521 91.837808 l
444.638808 87.900026 l
449.683001 84.400157 l
454.598327 81.282643 l
458.666818 78.927652 l
463.267343 76.517415 l
467.759252 74.432101 l
471.551601 72.881772 l
475.785777 71.383567 l
480.019953 70.135999 l
484.143673 69.166224 l
488.230574 68.447397 l
492.243836 67.979521 l
496.257099 67.749484 l
498.109091 67.723889 l
498.109091 67.723889 l
stroke
grestore
1.000 0.498 0.055 setrgbcolor
gsave
446.4 221.8 72 31.68 clipbox
92.290909 62.173041 m
97.445558 69.128769 l
103.842847 77.847072 l
104.321493 77.989089 l
104.800139 77.886712 l
105.278785 77.540252 l
106.217667 76.444066 l
111.482773 70.365724 l
116.490147 64.885416 l
121.497521 59.697881 l
126.468075 54.839328 l
131.401811 50.306322 l
136.261909 46.126955 l
141.048369 42.293423 l
141.876795 41.773421 l
142.281803 41.80994 l
142.686812 42.077744 l
143.165458 42.69232 l
143.717741 43.80505 l
144.730262 46.551446 l
152.66474 68.805094 l
160.709675 92.054111 l
169.583036 118.424389 l
178.161845 144.593657 l
188.25023 176.168323 l
197.749513 206.653982 l
198.52271 208.782681 l
199.038175 209.566118 l
199.406364 209.809576 l
199.737734 209.800212 l
200.105924 209.538026 l
200.56616 208.870077 l
208.224496 196.743982 l
219.122898 180.315854 l
226.155313 170.256345 l
232.635443 161.381354 l
238.89466 153.183052 l
244.896145 145.680792 l
250.639897 138.842423 l
256.240055 132.508138 l
261.613777 126.750662 l
266.805246 121.496021 l
271.886257 116.655259 l
276.781333 112.282061 l
282.267353 107.730015 l
286.906537 104.1749 l
291.435265 100.970927 l
295.927174 98.057543 l
300.345445 95.453163 l
304.690078 93.148113 l
308.997892 91.11586 l
313.305706 89.337367 l
317.576701 87.82574 l
321.847696 86.565376 l
325.529589 85.679874 l
329.837403 84.879271 l
334.182036 84.32712 l
338.600307 84.025606 l
341.969238 83.991584 l
342.374247 84.201021 l
342.816074 84.67795 l
343.368357 85.640546 l
343.994279 87.22521 l
345.117256 90.913603 l
353.54879 119.460647 l
362.716702 151.332769 l
373.357371 189.264818 l
384.531915 229.23942 l
384.900104 229.617092 l
385.194655 229.645183 l
385.526026 229.386119 l
385.894215 228.740018 l
386.354451 227.419725 l
398.964933 187.168892 l
408.040798 158.989532 l
416.730064 132.680744 l
424.793408 108.901424 l
426.615945 103.928009 l
427.425961 102.418255 l
428.125521 101.534939 l
430.242609 99.623167 l
435.470896 95.117628 l
440.717593 90.902054 l
445.817014 87.108163 l
450.75075 83.730959 l
455.5188 80.75078 l
460.139575 78.136101 l
464.703281 75.824496 l
469.084733 73.866841 l
473.392547 72.196967 l
477.626723 70.806758 l
481.234978 69.821688 l
485.28506 68.938684 l
489.37196 68.288837 l
493.385223 67.889316 l
497.398486 67.727635 l
498.109091 67.723889 l
498.109091 67.723889 l
stroke
grestore
0.800 setlinewidth
0 setlinejoin
[] 0 setdash
0.000 setgray
gsave
72 31.68 m
72 253.44 l
stroke
grestore
gsave
518.4 31.68 m
518.4 253.44 l
stroke
grestore
gsave
72 31.68 m
518.4 31.68 l
stroke
grestore
gsave
72 253.44 m
518.4 253.44 l
stroke
grestore
1.000 setlinewidth
0 setlinecap
0.800 setgray
gsave
473.478125 216.09625 m
511.4 216.09625 l
512.733333 216.09625 513.4 216.762917 513.4 218.09625 c
513.4 246.44 l
513.4 247.773333 512.733333 248.44 511.4 248.44 c
473.478125 248.44 l
472.144792 248.44 471.478125 247.773333 471.478125 246.44 c
471.478125 218.09625 l
471.478125 216.762917 472.144792 216.09625 473.478125 216.09625 c
cl
gsave
1.000 setgray
fill
grestore
stroke
grestore
1.500 setlinewidth
1 setlinejoin
2 setlinecap
[] 0 setdash
0.122 0.467 0.706 setrgbcolor
gsave
475.478125 240.34625 m
495.478125 240.34625 l
stroke
grestore
0.000 setgray
gsave
503.478125 236.846250 translate
0.000000 rotate
0.000000 0.000000 m /x glyphshow
grestore
1.000 0.498 0.055 setrgbcolor
gsave
475.478125 225.674375 m
495.478125 225.674375 l
stroke
grestore
0.000 setgray
gsave
503.478125 222.174375 translate
0.000000 rotate
0.000000 0.000000 m /y glyphshow
grestore

end
showpage
